Metrics;LoadPoint;link; ;rep1;rep2;rep3;rep4;rep5;rep6;rep7;rep8;rep9;rep10
External Fragmentation (Vertical);1;all; ;0.723773954061431;0.7226857863700623;0.7192269901148299;0.7219779423595053;0.7234188456475853;0.7213227235174471;0.7210257853905818;0.721467255583009;0.7212621387447066;0.7213703222710708
External Fragmentation (Vertical);2;all; ;0.8109841634385919;0.8116784225873459;0.8120845234987781;0.8113122346913223;0.8112094549153702;0.8120989295544068;0.8104068409373769;0.8117849454460576;0.8114052550646784;0.8104370020190709
External Fragmentation (Vertical);3;all; ;0.8282222479177882;0.828739985202047;0.828973360465601;0.8294989817375761;0.829043683005494;0.8280974943363133;0.8285879601650907;0.8280284716444396;0.8293942959506844;0.829299773841244
External Fragmentation (Vertical);4;all; ;0.8337491973217271;0.8340882491144938;0.8316120162046295;0.8326434735185123;0.8339846373492807;0.8319102261965554;0.8321639876312904;0.8336403019753029;0.8322883758387094;0.8328387474006892

External Fragmentation (Horizontal);1;all; ;0.701443977294346;0.7006458174607447;0.694855226826444;0.6997995704263708;0.6996358731971181;0.6989035637990719;0.6986287704599233;0.6991425064052917;0.699209364285904;0.6978304376502803
External Fragmentation (Horizontal);2;all; ;0.7168658224056298;0.7182280898317894;0.7178418157127525;0.7175270469616385;0.7188334188812349;0.7193611492936668;0.716818724044997;0.7180308854119511;0.7175547646867522;0.7159223018960987
External Fragmentation (Horizontal);3;all; ;0.6722248785594928;0.6757181123353666;0.6751032160662765;0.6746652165210371;0.6737787959494698;0.6742458842786188;0.6705480728469873;0.6711477940149971;0.6730913099977482;0.6754791683564703
External Fragmentation (Horizontal);4;all; ;0.618386113133579;0.6226906261554243;0.6167475788905851;0.6215546018464605;0.6227330833490726;0.6146965998695166;0.6187822794722314;0.6201310210096314;0.6220283272868089;0.6195390466506152

External Fragmentation Per Link;1;<6-7>; ;0.6790089738211317;0.69098631239766;0.6798509044723952;0.6957718052891474;0.6793274296569717;0.6791269014420603;0.6909717780737028;0.6829438205066383;0.6889719324265032;0.6804708178950047
External Fragmentation Per Link;1;<7-6>; ;0.6914571787832267;0.6901216679225114;0.6936244951825995;0.6767619601328133;0.6854495051096428;0.6835423795105396;0.6923602443212151;0.6831952510163438;0.676630686630195;0.6918432133281066
External Fragmentation Per Link;1;<7-8>; ;0.7172573467544646;0.7233528636727649;0.7152458761811006;0.7252290150196831;0.7184709415565267;0.7177192650209455;0.7174360026478025;0.7181477673970604;0.7238035436007099;0.7180537179352057
External Fragmentation Per Link;1;<8-7>; ;0.7274477170771995;0.7251564810346912;0.7191162334161515;0.7193267021174271;0.7235261060284535;0.724619223321416;0.7220521315835664;0.7175780603812906;0.716375954973471;0.7255787364776715
External Fragmentation Per Link;1;<1-2>; ;0.7264978185052323;0.7236847100742289;0.7165379410602514;0.7282316513701839;0.7322999583137507;0.7314168292712029;0.7302606860352069;0.7241303962825683;0.7256566624319494;0.7332816740630671
External Fragmentation Per Link;1;<2-1>; ;0.7274274472585348;0.7224484160046057;0.7244672710828586;0.7267237959761071;0.7311406608028475;0.7224889160019576;0.7213599194854996;0.7286499831684897;0.7260815473713704;0.7252532901760573
External Fragmentation Per Link;1;<2-3>; ;0.7501387647031321;0.7442041659909681;0.7376813621086938;0.7454650844866446;0.7488038746914188;0.7495031778117253;0.745792906104892;0.7476437797802143;0.7416223593602659;0.7476185154998958
External Fragmentation Per Link;1;<3-2>; ;0.7457603399818745;0.7437004436610942;0.7432310408249378;0.7486640827150545;0.7467794876795814;0.7449336191976718;0.7448113076040438;0.7464901428677331;0.7457596135846585;0.7389834828425742
External Fragmentation Per Link;1;<3-4>; ;0.7330406275942201;0.7275301141865986;0.7263630265033021;0.7203672211078158;0.7319741007575317;0.7279134092804027;0.7196859985190247;0.7313172792547861;0.7254875354232871;0.724750117766431
External Fragmentation Per Link;1;<4-3>; ;0.7289922533978925;0.7257543572456728;0.7270257752993767;0.7260342780416803;0.7261600326537533;0.7292030350886265;0.7272600091902662;0.725259882890197;0.7227423769649146;0.7221576750351455
External Fragmentation Per Link;1;<1-8>; ;0.7242476589733596;0.7228159796883474;0.7205065723036573;0.7260271178956261;0.7327721436982597;0.7185057523672714;0.7221129301442836;0.7238478754727428;0.7215974342684938;0.7260242138698272
External Fragmentation Per Link;1;<4-5>; ;0.7280623678197692;0.7210985136375059;0.7252018386196646;0.7182649823705621;0.7288920101879449;0.7275569100022152;0.7162079817407557;0.7256322928502666;0.7303222928267831;0.7272094647873323
External Fragmentation Per Link;1;<5-4>; ;0.7293525965641501;0.7284856564215134;0.7211998108793578;0.7192380568993992;0.7231339164330891;0.7211132933901646;0.7211469093613054;0.7215490240331894;0.7221273457972074;0.7182859695269201
External Fragmentation Per Link;1;<8-1>; ;0.7232504783342136;0.7214093326545458;0.7160865379983268;0.732514171062319;0.7263674909378603;0.7259767422214153;0.7266184390571684;0.718733772503866;0.7266304800486927;0.7225825007511315
External Fragmentation Per Link;1;<5-6>; ;0.7223642562453053;0.7268892562872294;0.7204207762941636;0.7284724085401791;0.7171766144253945;0.7237002447952009;0.7189287481999732;0.7254420027335914;0.7289651329205049;0.7207304720362359
External Fragmentation Per Link;1;<6-5>; ;0.7260774391716631;0.7253343110430185;0.7210723796128921;0.714554744729579;0.7224272574306726;0.7138438775584736;0.7194065741830631;0.7229147581914424;0.7174193212884736;0.7191012943487434
External Fragmentation Per Link;2;<6-7>; ;0.8043637530343534;0.8088189194572183;0.8066939451498782;0.8094061767108196;0.8092588548001612;0.8127696026854668;0.8043812723221422;0.80632564967158;0.8074679135859848;0.8059711407970476
External Fragmentation Per Link;2;<7-6>; ;0.8019037638170582;0.8054477938783705;0.8055862519891909;0.8025769682864263;0.8070168229357193;0.8056887407779629;0.8033746315024609;0.8057434733059023;0.8096714269281602;0.8014748776679125
External Fragmentation Per Link;2;<7-8>; ;0.8048091087980581;0.8100659538101354;0.8106799314690663;0.8115480776783924;0.8092124609065291;0.8139203477482667;0.8068426749388071;0.8088422079734428;0.8092438439502208;0.8076751549954675
External Fragmentation Per Link;2;<8-7>; ;0.8144739526892925;0.8131367425283451;0.8143126094910692;0.8160864483868907;0.8111242204800997;0.8157420247015765;0.8127235219821938;0.8158557379447416;0.8126487790217113;0.8094569092273504
External Fragmentation Per Link;2;<1-2>; ;0.817199049018688;0.8153776818395374;0.8122383875518451;0.8117772888532179;0.8143155797763363;0.8129279540706565;0.8200511619352877;0.8119715855640218;0.8184580977819434;0.81389811987304
External Fragmentation Per Link;2;<2-1>; ;0.8116258822100709;0.8126973914320598;0.8178795763052646;0.8137705782748772;0.8110334399518954;0.8116506264921767;0.8112873876891996;0.8146426060413806;0.8145701264109223;0.8116455845686684
External Fragmentation Per Link;2;<2-3>; ;0.8147557475547259;0.8105008218208538;0.811379003798926;0.8117128997835751;0.8141701826182759;0.8089190589602451;0.8106211683082933;0.8072106908713;0.8137068293965535;0.8101085381505801
External Fragmentation Per Link;2;<3-2>; ;0.8119636124338004;0.8109247483656896;0.8112549556297552;0.8120588614180679;0.8139683768804626;0.8129102979837559;0.8097811694896986;0.8108475121421472;0.8090806854604383;0.8149806975073804
External Fragmentation Per Link;2;<3-4>; ;0.8115225589328501;0.8145937349802698;0.8127696254267117;0.8126199950283198;0.811094708832203;0.8140032721037641;0.8078863863212217;0.8157218474700849;0.8093275195294745;0.8149503712429914
External Fragmentation Per Link;2;<4-3>; ;0.8151141115569781;0.814087311184929;0.8178672226373191;0.8170209025180891;0.8141548210894393;0.8195575197445191;0.8133650441506572;0.8123104580912047;0.8140528820320622;0.8174651505539375
External Fragmentation Per Link;2;<1-8>; ;0.8087420198932869;0.8153017304279417;0.8116441294050172;0.8126449059689648;0.8090227482629112;0.8136309564688834;0.8149952402973603;0.815922153080581;0.8102847775436183;0.8066116743453653
External Fragmentation Per Link;2;<4-5>; ;0.8119817555204697;0.8129850036428213;0.8162451688948151;0.8098459782931691;0.810549304640404;0.8097914920002783;0.8123381791653274;0.8139973053053573;0.8122662460311117;0.8112193792903234
External Fragmentation Per Link;2;<5-4>; ;0.8117691177821594;0.8076215093743122;0.8120158805130604;0.8107352515096088;0.8100436241896687;0.8144592523830998;0.8111233700865249;0.8146901540185099;0.8135989058877612;0.8107281126080925
External Fragmentation Per Link;2;<8-1>; ;0.8148513053359602;0.8127140742530415;0.8113278445252396;0.811143014586777;0.8096437273810668;0.8108786455405368;0.8123030668906287;0.8112366256550926;0.8096498204888931;0.8143332979686061
External Fragmentation Per Link;2;<5-6>; ;0.8112125881380917;0.812317971912341;0.8122379181778084;0.8096430038504048;0.8131377891472132;0.80909232876342;0.8102735599520039;0.8134079733128959;0.8098083111103347;0.8077866114196596
External Fragmentation Per Link;2;<6-5>; ;0.8094582883018878;0.8102633724906579;0.8092199250158975;0.8084054039142918;0.8116046167541113;0.8076407524462135;0.8051616199664702;0.8098331466893093;0.8086479158759752;0.8086864120890531
External Fragmentation Per Link;3;<6-7>; ;0.8234699657492752;0.8271126161852597;0.8257966600242861;0.826302705071738;0.8323189925901674;0.8258597502544738;0.8291062517010767;0.8323815587914227;0.8336655742789552;0.8301113785936055
External Fragmentation Per Link;3;<7-6>; ;0.8252941563961224;0.8303767762699391;0.8356275158512088;0.8279739197044885;0.8232282464090332;0.8322347738078288;0.8275363473055075;0.8285165718883147;0.8324113356752069;0.8324362472349566
External Fragmentation Per Link;3;<7-8>; ;0.8253616912374055;0.826145850277533;0.8248306540744131;0.825881502320776;0.8300742445857733;0.8237759421514876;0.8255655976360604;0.8228538500051259;0.8217202868591756;0.8249087227746355
External Fragmentation Per Link;3;<8-7>; ;0.82922486492048;0.8322672951612617;0.8298365773294839;0.8310895346041011;0.830141738928828;0.8311981727669804;0.8257566310243729;0.8280166572319589;0.8316178901793184;0.8304949560235655
External Fragmentation Per Link;3;<1-2>; ;0.832959461460401;0.82926899579673;0.8318674363126324;0.8287691858017481;0.8336460170371454;0.8303487161086228;0.8366853432797661;0.8277731302463747;0.8337147944043469;0.8317908103282476
External Fragmentation Per Link;3;<2-1>; ;0.8314563887266309;0.8231741158426721;0.8272106800550278;0.8316811479075145;0.8256168857570901;0.8282702846306766;0.8237710587130034;0.8236000107674838;0.8300674601288062;0.8304432425831044
External Fragmentation Per Link;3;<2-3>; ;0.8282539813085836;0.8265961569475223;0.8277461468963325;0.8265613220381602;0.8256236833052082;0.8252877870921964;0.8264997475423826;0.8293105613397718;0.8227431353602004;0.8245927490202012
External Fragmentation Per Link;3;<3-2>; ;0.8240062594797922;0.8317066247229451;0.8294226728313195;0.8290525236006056;0.8291791342480822;0.8277126882951179;0.8250727504189574;0.8270596616128079;0.8271339105635489;0.8257028297741786
External Fragmentation Per Link;3;<3-4>; ;0.8223918388851086;0.8288460454267713;0.824916214506551;0.829264453286092;0.8268599367737999;0.8221081111312514;0.8333934056407576;0.8256765059512611;0.8274854246662083;0.828308149619879
External Fragmentation Per Link;3;<4-3>; ;0.8334685637778503;0.8314796767897962;0.8367053414241771;0.8346753682459978;0.8343484732733708;0.8310389118367623;0.8328681797864977;0.8325523730061193;0.8354207285598967;0.8333519659488917
External Fragmentation Per Link;3;<1-8>; ;0.8255109548240063;0.8306152045350103;0.8298373161498467;0.8326710459456215;0.8303230843827307;0.8288730291792119;0.8262794156220044;0.8250583308241396;0.8289895974374509;0.8324498795647399
External Fragmentation Per Link;3;<4-5>; ;0.831632974403345;0.83029448473915;0.8246896243428053;0.8284212667546484;0.8305684006827774;0.8293005440366505;0.8280251387415897;0.8313480173013589;0.8322339999249452;0.8305337522043391
External Fragmentation Per Link;3;<5-4>; ;0.8313065799976479;0.8272055433611105;0.8296350914073115;0.8321966634251702;0.8277979989223576;0.8291796075990646;0.8306019549812124;0.8278711927962603;0.8300038083033919;0.8294800256247872
External Fragmentation Per Link;3;<8-1>; ;0.8280268059922276;0.8262716563493772;0.8303263577247576;0.8285969780043022;0.8313189937399209;0.826743984249265;0.8287515488515197;0.8311149353889754;0.8302113290740257;0.824500707656435
External Fragmentation Per Link;3;<5-6>; ;0.8329053030425687;0.8312695378609047;0.8269271746973509;0.8338920138914993;0.828912002404457;0.8347395555466928;0.8307719950632019;0.8293938832366213;0.8314145364013946;0.831806715123398
External Fragmentation Per Link;3;<6-5>; ;0.826286176483204;0.8272091829669403;0.8281983038223995;0.8249540771983936;0.8247410950475147;0.8228880506946543;0.826721996333779;0.8259283059233258;0.8214749233940809;0.8278842493851085
External Fragmentation Per Link;4;<6-7>; ;0.8324090855522688;0.8336318362473675;0.829226488722618;0.835678001046858;0.8318132534713274;0.8317938201065466;0.8354683944152481;0.8347689492581463;0.8343265034045596;0.8364578156013737
External Fragmentation Per Link;4;<7-6>; ;0.8284453989484082;0.836705906228364;0.8307809601166737;0.8333369202979172;0.8340269579275621;0.8339677121404818;0.835511235360685;0.8366438615546886;0.832646385521503;0.8342737058389519
External Fragmentation Per Link;4;<7-8>; ;0.8277525745425229;0.8263831293948269;0.8268080813759986;0.8314218148408302;0.8335027307583559;0.8228064965622295;0.8264617794970771;0.8281943091619256;0.8247816275445184;0.8272115238502971
External Fragmentation Per Link;4;<8-7>; ;0.8340921681811121;0.8367785086447044;0.8336590158829188;0.8309932322477265;0.8356902931593417;0.8343365351106604;0.8378419795390697;0.8354988380126336;0.8348827989487309;0.8320388110091128
External Fragmentation Per Link;4;<1-2>; ;0.8374472719088115;0.8397458332222142;0.8353820913975099;0.835284188487451;0.8341752477523368;0.835402138363129;0.8314872962362201;0.8342913384256778;0.8394445461623854;0.8338729310341776
External Fragmentation Per Link;4;<2-1>; ;0.8359775814237246;0.828242017531012;0.8296319640809405;0.8312812672906029;0.8317483499584296;0.8311059895157996;0.8275828293910462;0.8316717623223275;0.8316544072036736;0.8315176383812184
External Fragmentation Per Link;4;<2-3>; ;0.8324879253212418;0.8293452257867947;0.8279729520998023;0.8326708339028785;0.831221298814269;0.8318849150238514;0.8329436463885903;0.8324489013012505;0.8280052339944114;0.8312238748559251
External Fragmentation Per Link;4;<3-2>; ;0.8319100913934036;0.8348400713532727;0.8305733907677691;0.8332960746361222;0.8342811220961098;0.8353612414904431;0.8322302511398897;0.8331479343490902;0.8308053657602847;0.8277396310645012
External Fragmentation Per Link;4;<3-4>; ;0.8347903616349615;0.8345821707288934;0.8305414649388262;0.8278750979789253;0.8350168076615538;0.829862009005746;0.8321513066015128;0.8307088686424731;0.8311082210807392;0.8347239744005637
External Fragmentation Per Link;4;<4-3>; ;0.8364414522553247;0.8421851562061674;0.837780682162957;0.8339710021621919;0.8389634331684495;0.8336368515885355;0.8385757298053502;0.8397555982686093;0.8359794990012557;0.832111311999035
External Fragmentation Per Link;4;<1-8>; ;0.8356509178029969;0.8379120311929839;0.8319023096020591;0.8306933053134107;0.8335107949407773;0.8292915916644064;0.8296867244875691;0.8327877561666043;0.8341631257068974;0.8359827481690233
External Fragmentation Per Link;4;<4-5>; ;0.8321161815724594;0.8356919906920313;0.8331744898343755;0.8339621009473895;0.8336822596835052;0.8293992893555092;0.8327200211982728;0.8357105986811665;0.8333565203581782;0.833726826454175
External Fragmentation Per Link;4;<5-4>; ;0.8337806879484593;0.8342466751648351;0.8319033602077623;0.835413005795468;0.8323322208009123;0.8345132987923722;0.8282535044629366;0.8305698590982162;0.8327793588097;0.8388398269505523
External Fragmentation Per Link;4;<8-1>; ;0.8310753289112093;0.8280847656018712;0.8304630685762668;0.831586562995159;0.8362632904756844;0.8324155950626374;0.8304040548685221;0.8367078545017821;0.832711753575095;0.8338568036326357
External Fragmentation Per Link;4;<5-6>; ;0.8409992569200644;0.8378963963762558;0.8362739137909162;0.8356326896361653;0.8353697547363105;0.8337467204684097;0.8362838884653674;0.8384968974168782;0.8361725673684399;0.834998304949969
External Fragmentation Per Link;4;<6-5>; ;0.834610872830351;0.8291402714601422;0.8297180257170504;0.8291994787173737;0.8321563821835272;0.8310394148940751;0.8270211602431816;0.8268415044428433;0.8237960989797147;0.8268442302195032

