Metrics;LoadPoint;link; ;rep1;rep2;rep3;rep4;rep5;rep6;rep7;rep8;rep9;rep10
External Fragmentation (Vertical);1;all; ;0.6519074180321673;0.6504317127593406;0.6530393440466002;0.6538305709758784;0.6542955828226122;0.6546031702790748;0.6533249340193992;0.6538497515963079;0.6567104819364985;0.6519832858084235
External Fragmentation (Vertical);2;all; ;0.7173291783095468;0.7285898808047133;0.7176172339828104;0.7165819065136523;0.7140261344931897;0.7208075291350898;0.720705717537076;0.722872132623012;0.7197457012797333;0.7109793592484297
External Fragmentation (Vertical);3;all; ;0.7812620778526138;0.7840233749970208;0.7862584627306728;0.7846761423595694;0.7816144037797872;0.789781219803107;0.7873916612592189;0.7905613103840221;0.7894476159566152;0.783596480173149
External Fragmentation (Vertical);4;all; ;0.7826365795011979;0.7821025499821617;0.7808747097945509;0.783285072638652;0.7826171002737325;0.779482519554367;0.7842754724036358;0.7822013332435451;0.7830014706657735;0.7798759084029785
External Fragmentation (Vertical);5;all; ;0.765761046394148;0.7647818036024693;0.7675646798075297;0.7672876082099835;0.7653700668475292;0.7644834666671668;0.7654655407076443;0.7647507156209499;0.766171007086659;0.7639953410249307
External Fragmentation (Vertical);6;all; ;0.7485511584104939;0.743980812603184;0.74370906422016;0.7466569815991514;0.7440671114527252;0.7478981225157043;0.7462000678134677;0.7455907790468098;0.7519758091926473;0.7473923326885885

External Fragmentation (Horizontal);1;all; ;0.6409616041241727;0.6391505729208724;0.6419016446061727;0.6422479910378713;0.6430336084662936;0.6436702466860377;0.6424028608397733;0.6428857608458513;0.6462203705704458;0.6411186201729013
External Fragmentation (Horizontal);2;all; ;0.6919164501597466;0.7022039671598911;0.6919835149278073;0.6904099336517936;0.6876581407103588;0.6959126131824448;0.6967746245502107;0.6979076369757882;0.6941315581810356;0.6826620302909993
External Fragmentation (Horizontal);3;all; ;0.7087911196565252;0.7089806280362887;0.7119922434109316;0.7123742067779416;0.7065931195729677;0.7148059981327557;0.7091175051435287;0.7184308477651757;0.7168766020868853;0.7112467317626141
External Fragmentation (Horizontal);4;all; ;0.5785649642634602;0.5876756677068868;0.5764466843828726;0.5808318001097795;0.5874223733986964;0.5767503255469572;0.5866406579962133;0.5782178725715647;0.5737670443555343;0.5822665100291045
External Fragmentation (Horizontal);5;all; ;0.49484403313467235;0.49156256983855384;0.4921584348488742;0.5010334682990832;0.4934043766395811;0.49027008512048237;0.4916460377636252;0.49419179987481937;0.4868430937651959;0.4899174147121262
External Fragmentation (Horizontal);6;all; ;0.43841445150224057;0.43675902529512056;0.435367930288854;0.4333675120819902;0.43106666893521434;0.4375868002027143;0.43685223992582944;0.43429964238168794;0.4412957310590793;0.4396500916165607

External Fragmentation Per Link;1;<5-4>; ;0.6500039535930082;0.6481063802797821;0.6499026201724698;0.6487647299257053;0.6500705895216216;0.6521525481871618;0.6474322076590692;0.6534999193580107;0.654608543757755;0.6493187478798006
External Fragmentation Per Link;1;<2-5>; ;0.6525473002388444;0.6512344150788728;0.6545884436633168;0.6522211110722043;0.6567343599888156;0.6537035211324536;0.6530207382525874;0.6506760272145723;0.6568451186307674;0.6509917145059378
External Fragmentation Per Link;1;<5-6>; ;0.6452787318568678;0.6471017376794861;0.6482734205318333;0.6543565962712566;0.6523362269230819;0.6496626707885199;0.6519551496220395;0.6478984906230392;0.6490126129669751;0.645829340477179
External Fragmentation Per Link;1;<6-1>; ;0.6558397808455542;0.657661302535108;0.6569885982550799;0.6611605818376584;0.6601577749695331;0.6559942888307391;0.658479411703264;0.6611054797497083;0.6637936098809751;0.6577809977039889
External Fragmentation Per Link;1;<1-6>; ;0.6566688437229006;0.6577097057220862;0.66115872880386;0.6604958120668804;0.6578495426619143;0.6610306722466261;0.6608831873063734;0.6586425849192834;0.6661341751979589;0.6586002458365807
External Fragmentation Per Link;1;<2-3>; ;0.6535329879459075;0.6490588639707343;0.6518073202063984;0.6509442220228787;0.6480672346496035;0.656154072296136;0.6510873329210025;0.6560706534445229;0.6588165469411513;0.6507641282315028
External Fragmentation Per Link;1;<5-2>; ;0.6530813254886874;0.651750322590531;0.6518841786887423;0.6503333613678882;0.6518632698679523;0.6498040844554261;0.6547947287940169;0.6551863669054777;0.6547536607575376;0.6497686551213501
External Fragmentation Per Link;1;<6-5>; ;0.6482538353699886;0.645152475269125;0.6484069944608488;0.6515989875594216;0.6473460437626013;0.6521258422290152;0.6476456112374622;0.6538609654261016;0.6577057569368029;0.6527122177460332
External Fragmentation Per Link;1;<4-3>; ;0.6592733885445854;0.6535767357112064;0.6585246100921184;0.6567137634929457;0.6631845961851353;0.663791714095565;0.6556475124393237;0.6590992833223099;0.6584867500477989;0.6591331982314744
External Fragmentation Per Link;1;<4-5>; ;0.6470547456518639;0.6466436971354531;0.6449224635349102;0.6518699200323316;0.6526379107948782;0.6518878776510026;0.6518275977598178;0.6443963242599393;0.6497223520178853;0.6488726851681685
External Fragmentation Per Link;1;<2-1>; ;0.6490780236857744;0.6488841326963317;0.6528085434157094;0.6518836274541596;0.6551457474279295;0.652176039632414;0.6555505960440066;0.6487890629770078;0.6537642195567271;0.6464171506330402
External Fragmentation Per Link;1;<3-4>; ;0.6563756933136415;0.652675939678327;0.6609893363247445;0.6631449176584113;0.6593905007999942;0.658922451457155;0.6565172299403085;0.6587681430496029;0.6611278308072566;0.6588005478853294
External Fragmentation Per Link;1;<1-2>; ;0.6513599807286181;0.6485943311340272;0.651393835708563;0.6492911663856074;0.6499480706486976;0.6547293360767756;0.6468540141332069;0.6573954479273869;0.6582902701025407;0.6533587470646299
External Fragmentation Per Link;1;<3-2>; ;0.6483552614632718;0.6478939391485854;0.6509017227928624;0.6508491965137223;0.6554062913138764;0.6523092648266512;0.6548537584579516;0.6485077731702323;0.6508852995078835;0.6454176248319298
External Fragmentation Per Link;2;<5-4>; ;0.7124179602142239;0.7259772616292568;0.7045225071823602;0.7185988355258774;0.7009064884226142;0.7067222533784686;0.7002299743139412;0.7181643681324715;0.6945063345138259;0.7075043407964964
External Fragmentation Per Link;2;<2-5>; ;0.7128801048955042;0.7308526292288579;0.7175012882303016;0.7246419660131477;0.7111375542500653;0.7182374515778126;0.7148391544765867;0.7208307193363511;0.7177794934165971;0.7175033538059206
External Fragmentation Per Link;2;<5-6>; ;0.7031325751246232;0.7136168112445895;0.7033444571059618;0.6972259974705337;0.7068791172097059;0.7078520290955796;0.717723520193195;0.7055534264648522;0.7192866942833287;0.6913486251670659
External Fragmentation Per Link;2;<6-1>; ;0.7366830340121353;0.7438463397807504;0.7300294425682088;0.7297075444611196;0.7385496434255754;0.7376985308521816;0.7315184996943486;0.7431928300160062;0.7413576476136138;0.7214475118569906
External Fragmentation Per Link;2;<1-6>; ;0.7390888246624479;0.7411650534693836;0.7366666205276449;0.7365596093444217;0.7219299333772046;0.7314194394083218;0.7425836902999063;0.736465782329332;0.7389634051469057;0.7308464147049031
External Fragmentation Per Link;2;<2-3>; ;0.7088835059815695;0.7203144244290056;0.7122783911748688;0.7035915268952718;0.708241530515313;0.7152505537509364;0.7078272352920721;0.7208138410019838;0.7084116498096544;0.7143123942636325
External Fragmentation Per Link;2;<5-2>; ;0.7262519484221301;0.7355225236078468;0.7171347092447031;0.7170227376647864;0.7178694817463797;0.7203112643818166;0.7247513298862228;0.7231462229722952;0.7219488277212379;0.7191256450828981
External Fragmentation Per Link;2;<6-5>; ;0.7098311519019699;0.7269874770626896;0.7112475421736391;0.7158262570689288;0.6983135930554656;0.7039584609051598;0.7105328755103576;0.7213774813542155;0.699083860828022;0.7066976956305221
External Fragmentation Per Link;2;<4-3>; ;0.7336297204059649;0.7527122697286751;0.7386201017055588;0.7292996794531228;0.7392664566558353;0.751534617283435;0.7371892339780635;0.738705288316978;0.744605336307549;0.723037207364238
External Fragmentation Per Link;2;<4-5>; ;0.7009659482175703;0.7088875524859733;0.7105004941616643;0.7046588138014597;0.7095716040871219;0.7104249683683905;0.712111820804299;0.7110882061103074;0.7205982328863929;0.6878194429434032
External Fragmentation Per Link;2;<2-1>; ;0.7074746810528312;0.7179463127595885;0.7033054107935351;0.7053213750574733;0.7065967381676362;0.7214530454060389;0.7236997004729265;0.7076784280678048;0.71452357154551;0.6937498228258497
External Fragmentation Per Link;2;<3-4>; ;0.7367428056729506;0.7484091618994911;0.7391445717201345;0.7346464193558524;0.7302139487337698;0.7354427183426706;0.7405273170955408;0.7420945191468272;0.7358187845329959;0.734238463895882
External Fragmentation Per Link;2;<1-2>; ;0.7112437434477273;0.7201433846830483;0.7131804465090332;0.7079967147861075;0.7036056762331094;0.7151350815814957;0.7044925832387114;0.7196182673295368;0.7029942083940988;0.7110583376814722
External Fragmentation Per Link;2;<3-2>; ;0.703382492322119;0.7138771292573634;0.7091652926614991;0.7070492142933376;0.7032841170248922;0.7158649935590675;0.7218531102625728;0.7114804761435366;0.7165617709170093;0.6950217734584968
External Fragmentation Per Link;3;<5-4>; ;0.7608269119755288;0.7786467572195167;0.7815262109132216;0.7811011898185487;0.761395929658822;0.7806814110764528;0.7722638548483797;0.7814495436256564;0.7867541018560462;0.7673913892182729
External Fragmentation Per Link;3;<2-5>; ;0.7777421759873677;0.777658774321221;0.7856014546533714;0.8056185048609026;0.786562998973;0.8078145614366496;0.807075873762007;0.792453659459355;0.7978324462035823;0.7793363945775998
External Fragmentation Per Link;3;<5-6>; ;0.7677041052361666;0.7541538435413031;0.7680889875522912;0.7720339905737134;0.7649980473336331;0.7829069181490491;0.7758284823090184;0.7714627628132086;0.7699708133814902;0.7836823068387383
External Fragmentation Per Link;3;<6-1>; ;0.801962789672443;0.8146805987557755;0.8117781720423959;0.8029035180477246;0.8051856946796908;0.814041128304556;0.8053388005750205;0.8137787306919616;0.8233458745954929;0.8055668251120096
External Fragmentation Per Link;3;<1-6>; ;0.8184430418132523;0.8105572314606894;0.8103973535016945;0.8142658747382643;0.8066492263687858;0.8048004571931072;0.8167534667615212;0.8142897573295437;0.804328053211935;0.8023225230547498
External Fragmentation Per Link;3;<2-3>; ;0.7626310873081706;0.7764644693566117;0.7847593538976881;0.7679254571103631;0.7741795925670435;0.7741732640402879;0.7604874810308171;0.782384629411999;0.7841269886637576;0.7609120541921968
External Fragmentation Per Link;3;<5-2>; ;0.7907065735238726;0.7819216669457809;0.7809075829093757;0.7920593084616504;0.7881499000985775;0.803826087373832;0.7933356200688947;0.7980011272941557;0.7892299667775945;0.7897129556599216
External Fragmentation Per Link;3;<6-5>; ;0.7652006745191541;0.7835672828772833;0.7776077126393869;0.7708957692505264;0.7708892534028605;0.775470721709482;0.7676628503268778;0.781170615935931;0.7756741023741605;0.7593221459394662
External Fragmentation Per Link;3;<4-3>; ;0.8081728860988845;0.8136050734456219;0.8205056572947937;0.8011323754737923;0.8109085200001555;0.8156854941232557;0.8178771702926582;0.8149127862719754;0.8016143651289538;0.8061879572062164
External Fragmentation Per Link;3;<4-5>; ;0.7703026492042889;0.7703167659155334;0.7673029111056373;0.7725356791555488;0.7685139497533819;0.7651593733577315;0.7736112424851241;0.7796927850203078;0.7682592683256589;0.7873652273655649
External Fragmentation Per Link;3;<2-1>; ;0.770711211114861;0.7587263036117964;0.7681227623886976;0.7645636803571415;0.7577635227483505;0.7781231447222238;0.7781932833654109;0.7741528787716913;0.7771107875046447;0.7790486381844194
External Fragmentation Per Link;3;<3-4>; ;0.8093205040194776;0.812419332149283;0.8133667893512379;0.8092483200341973;0.8126181279111606;0.8197125356198484;0.8145281078610609;0.810269891678526;0.8195402736517193;0.8022312506236865
External Fragmentation Per Link;3;<1-2>; ;0.7703810461924098;0.7827957473773701;0.7684908612255471;0.7670241814307052;0.7697768611421352;0.7713654401532025;0.7606438512460685;0.7760608994154258;0.7803086444562568;0.7658245003030061
External Fragmentation Per Link;3;<3-2>; ;0.7635634332718386;0.7608134029817644;0.7691626687554508;0.7641581437223997;0.7650100282806541;0.7631765399849394;0.7798831726976645;0.7777782776579826;0.774170937263045;0.7814465541491856
External Fragmentation Per Link;4;<5-4>; ;0.7725252259242316;0.7693903902453577;0.7687673172702727;0.7688054663328062;0.7660085083336953;0.7622915233814533;0.7760905233576824;0.7645610790963819;0.7675893393697066;0.7601806940031742
External Fragmentation Per Link;4;<2-5>; ;0.7915116449381416;0.7880235246075099;0.8065378835197592;0.7820639017075576;0.79335546371103;0.7847640036292503;0.8049193309533286;0.7869166058808049;0.8002968749715145;0.7883653562359878
External Fragmentation Per Link;4;<5-6>; ;0.7796650959916398;0.7720372651845727;0.7660912209104757;0.7723454032863132;0.7784424334873955;0.7681084949298732;0.7639422461069726;0.7745492735415341;0.781135849849942;0.7683990854506297
External Fragmentation Per Link;4;<6-1>; ;0.8040741032768143;0.8048806304720879;0.8033390197734667;0.8035217952491834;0.8093611186995889;0.8064077657279699;0.7949475441769226;0.8100181955048004;0.7978584810859838;0.8115904701836085
External Fragmentation Per Link;4;<1-6>; ;0.8058474649732387;0.810855192944312;0.8123545699710458;0.8202988267907527;0.8138204620638149;0.8077844217090813;0.816833099909995;0.8076144894374002;0.8071503615561378;0.805084123647269
External Fragmentation Per Link;4;<2-3>; ;0.7650308721679554;0.7723220346724847;0.7644715447806164;0.7712925303581871;0.7532943306844716;0.7666418102305804;0.7627853311976478;0.7628056022055621;0.7548350200828651;0.7610104531995472
External Fragmentation Per Link;4;<5-2>; ;0.795074512880316;0.7945039173488941;0.7951422071332871;0.8043915491289118;0.8102496520693736;0.7968689533698217;0.79928889636712;0.8065523610348975;0.7944227413469617;0.7906059648034953
External Fragmentation Per Link;4;<6-5>; ;0.7668237726767396;0.7627101549775936;0.7585360099841412;0.7683021090408909;0.7691446588599895;0.7700268167368185;0.7696032518337816;0.7685281162546641;0.7717002085995174;0.7617657494283543
External Fragmentation Per Link;4;<4-3>; ;0.8015148983820294;0.8139215555292256;0.7978589116181475;0.8105791651630431;0.7952051326721289;0.8110481007090278;0.803216416611216;0.8141679184794115;0.8087887714612573;0.8036266317282748
External Fragmentation Per Link;4;<4-5>; ;0.7670756266423562;0.7712338817558655;0.7641962318689548;0.7632524155834907;0.7732047217459851;0.7628391135223987;0.7698401821164756;0.7746182758048213;0.7690407977421472;0.771333071585627
External Fragmentation Per Link;4;<2-1>; ;0.7703555990326971;0.7634101820694836;0.7555333808340341;0.762148896013879;0.7597590425668356;0.7580202663079713;0.7722858874919895;0.7602874008620963;0.7557597748052417;0.7707100793311191
External Fragmentation Per Link;4;<3-4>; ;0.7982796598149566;0.800389931392593;0.8137357554990994;0.8090231110042323;0.8112045746964328;0.7922675444558195;0.8128171401564632;0.8100234179361159;0.8121243999337849;0.799305833745115
External Fragmentation Per Link;4;<1-2>; ;0.7717184285959301;0.7634582555605609;0.761951707708768;0.7793365044339033;0.7698901097005825;0.7693956553208792;0.7632510386782909;0.7495266406987434;0.7752731087617044;0.7596090637137755
External Fragmentation Per Link;4;<3-2>; ;0.7674152077216361;0.7622987829915965;0.7637301762534005;0.7506293428501254;0.7536991945426765;0.7562908037323648;0.7700357246946855;0.7606492886747462;0.7660448597556703;0.7666761405873755
External Fragmentation Per Link;5;<5-4>; ;0.742490253106391;0.739885938223206;0.7506767535226928;0.7485880647657744;0.7491796030671514;0.7470566328951852;0.7544953736075101;0.7593981445259039;0.7528632567098669;0.7476236429792732
External Fragmentation Per Link;5;<2-5>; ;0.7721425270972929;0.7651786871554126;0.7775315215838631;0.7813685177685175;0.7661304003354498;0.773701325302621;0.7812223128922342;0.7827272853867637;0.7730524290898224;0.7739851619696033
External Fragmentation Per Link;5;<5-6>; ;0.7513453039642366;0.7610653069787254;0.7441993840956316;0.767327473831832;0.7372379634540247;0.7499153807439529;0.7477427046144547;0.7388043802808312;0.7634688027261493;0.7575692056016365
External Fragmentation Per Link;5;<6-1>; ;0.7983729645734368;0.8052143828450754;0.799391738674026;0.7937837324100514;0.7994614979524117;0.7882521998214822;0.7837948357068968;0.7896900660371681;0.8026194717838608;0.8045351725044017
External Fragmentation Per Link;5;<1-6>; ;0.7995037172535432;0.7969417206412672;0.8029476625603729;0.8006366138964581;0.802308173689762;0.8071030568198021;0.8038175351946549;0.7843181335494991;0.8047722845515056;0.7972357313733851
External Fragmentation Per Link;5;<2-3>; ;0.7570593687813734;0.7582290965497599;0.7460309330004432;0.7342018175005629;0.7398188300719247;0.7416968217119496;0.7392550806674933;0.7607584370912107;0.7451888165372762;0.724588503664811
External Fragmentation Per Link;5;<5-2>; ;0.7826898424107765;0.7775613780213025;0.7729366395074959;0.7833144912833806;0.7842817346731158;0.7722659353010843;0.7689014010336584;0.7768591373181006;0.781431025211276;0.7804342269596712
External Fragmentation Per Link;5;<6-5>; ;0.7596772548471598;0.7527039676745406;0.7514012760604322;0.7500837101403937;0.7573342398372545;0.7608756760274905;0.7582127811156884;0.7654708663027462;0.7443676183888115;0.7424139508496147
External Fragmentation Per Link;5;<4-3>; ;0.778105970900284;0.7983878616724913;0.7941842896494256;0.7977762928859794;0.7995998585216206;0.7855147508580822;0.8034175865567685;0.7920655566431857;0.8056970822284354;0.8003975630596037
External Fragmentation Per Link;5;<4-5>; ;0.7487887593637295;0.7486870603266939;0.7618798045865228;0.758584032923272;0.7464491498399216;0.7490265614681972;0.7537069357815521;0.7422005023851507;0.7448948986749069;0.7452518212050694
External Fragmentation Per Link;5;<2-1>; ;0.7416141038824469;0.7319517557140599;0.7472400174715829;0.7387625729444726;0.744295091983543;0.7412669107040464;0.7362204021919351;0.7581345125122886;0.7411929686871409;0.7518108227589968
External Fragmentation Per Link;5;<3-4>; ;0.8042967476244334;0.7941088108465049;0.80275848935894;0.7978814341477684;0.8009008260294286;0.7842712771653493;0.789561685837554;0.7863701449831069;0.778028263889742;0.7868396184174072
External Fragmentation Per Link;5;<1-2>; ;0.7428764952600456;0.7454610141136153;0.7440577738507753;0.7344564590417965;0.750741599706962;0.7524577893854769;0.7444800533333229;0.7288381695295125;0.7451491493464079;0.7490333218459299
External Fragmentation Per Link;5;<3-2>; ;0.7416913404552062;0.7315682696737628;0.7506692333855536;0.7552613014014298;0.7374419667046552;0.7493642151377493;0.7516888813756706;0.740874682150124;0.7436680313894924;0.7342160311618834
External Fragmentation Per Link;6;<5-4>; ;0.7308460889546;0.7362529578436017;0.7244791551132816;0.7196358501755813;0.7330379585836736;0.7271303092115861;0.7325664983644421;0.7274129378532623;0.7322363759663845;0.7275327092469713
External Fragmentation Per Link;6;<2-5>; ;0.7574746663468807;0.7394484763358057;0.7568886595334288;0.7516383736739249;0.7457740775676731;0.7559274242092014;0.7538990212411015;0.7541500354369586;0.7609361408147384;0.7440888486249838
External Fragmentation Per Link;6;<5-6>; ;0.7333128866136098;0.7247077616153046;0.7267506581138676;0.7321293756380227;0.7319641731495602;0.7194370823998839;0.7215839564833588;0.7287356601058367;0.7177050841137772;0.7287574375431974
External Fragmentation Per Link;6;<6-1>; ;0.7752352986482454;0.7898133913641427;0.7698596942101047;0.78302971688219;0.77985717670048;0.7802379059538362;0.7742547350221594;0.7820871831219286;0.8008650770783748;0.7885765869367628
External Fragmentation Per Link;6;<1-6>; ;0.7910075562274745;0.7867986807890266;0.7777274568837578;0.7861442294261141;0.7771675213158613;0.7781617965066566;0.7768101999786996;0.7897333986606286;0.7786308092038643;0.7784005078305211
External Fragmentation Per Link;6;<2-3>; ;0.7306240305934713;0.736569603226455;0.7211918698658072;0.7298374989601877;0.7203935544495135;0.7270549392276395;0.7321528053330442;0.7286128685882829;0.7391308151326619;0.7258261934775982
External Fragmentation Per Link;6;<5-2>; ;0.7669365727575983;0.7420792705849008;0.7532627430275187;0.7453890815267861;0.7531572952417239;0.7470684996255313;0.7386590104536395;0.7571148170962909;0.7599492679731945;0.762845121971529
External Fragmentation Per Link;6;<6-5>; ;0.718158516563959;0.724181241262898;0.7315755423707423;0.732940886243585;0.7190946711508385;0.7428638592233896;0.7260968420480968;0.7265534716261159;0.7461059490063146;0.7367124730666706
External Fragmentation Per Link;6;<4-3>; ;0.793262496971314;0.7687342434375297;0.7761453341987901;0.779404353728062;0.7795551457488425;0.784428582715478;0.7797923594753297;0.7749373228960927;0.7998131744243451;0.7886449705511592
External Fragmentation Per Link;6;<4-5>; ;0.7326298367104938;0.727182837220292;0.7502936580936309;0.7410367925767117;0.7185625414825145;0.7398740435127447;0.735866001335474;0.7290995662655209;0.7252784959115948;0.72622570811924
External Fragmentation Per Link;6;<2-1>; ;0.7361571610655918;0.7111480777866642;0.7297227924985016;0.7273358726186666;0.7249417957164505;0.7271317447170853;0.7316463634313609;0.7190398474639645;0.7353512814607337;0.7231651294187447
External Fragmentation Per Link;6;<3-4>; ;0.775897686948846;0.7783384261505415;0.7657769567009827;0.7828830255888551;0.7801272176498326;0.7900146646292008;0.7790004406916233;0.7847973944401034;0.7875053753224273;0.7711795439507517
External Fragmentation Per Link;6;<1-2>; ;0.7251904559195783;0.7166931864830487;0.7195272032671777;0.7218507850918923;0.7282636725928161;0.7236453897968937;0.7360709879182009;0.7186617798512008;0.7091726695784676;0.730848077275729
External Fragmentation Per Link;6;<3-2>; ;0.7129829634268681;0.7337832223461597;0.7087251752066678;0.7199419002589977;0.7250427589901036;0.7275974734925559;0.7284017276137399;0.7173346232505823;0.7349808127115133;0.7306893496278162

