Metrics;LoadPoint;link; ;rep1;rep2;rep3;rep4;rep5;rep6;rep7;rep8;rep9;rep10
External Fragmentation (Vertical);1;all; ;0.11100229237289597;0.112617725355912;0.1117785229617833;0.1119512869672153;0.11117259650046357;0.1142986765428334;0.11401873435046483;0.1124767287573746;0.11193960482218268;0.11486168153804842
External Fragmentation (Vertical);2;all; ;0.29793803012090886;0.2981193911342247;0.3052182274364457;0.2961749536204916;0.296276593299406;0.29027315463003417;0.2938561035196672;0.2955210327824206;0.2990223818141883;0.2943114095658247
External Fragmentation (Vertical);3;all; ;0.7584662488465423;0.755940996112755;0.7479560793723902;0.7486814785622498;0.7498970423332374;0.7500426692734617;0.7479542792250957;0.7569462939490166;0.7580524854022996;0.7525463464487836
External Fragmentation (Vertical);4;all; ;0.7995947172106299;0.7982610877164082;0.8008424337550913;0.7988293909229397;0.8042862533761962;0.8009836834428842;0.8007258143248696;0.7993090507091546;0.801275273992843;0.7997864598119978
External Fragmentation (Vertical);5;all; ;0.7927386398330835;0.7942169628095931;0.788816273130286;0.7915974894926558;0.792516572230493;0.7934376027943975;0.7902082835852596;0.7918261833632181;0.7921919872290544;0.7920064634354801
External Fragmentation (Vertical);6;all; ;0.7788836914193649;0.7799503143173668;0.7735094108252343;0.7752913846431553;0.7780921746881595;0.7787126445216475;0.7782618265860567;0.7793774898716248;0.7791435368782416;0.7775649319241068

External Fragmentation (Horizontal);1;all; ;0.07377713934998907;0.0759333015596121;0.0755029852999946;0.075785203673449;0.07385315973685992;0.07699101866017366;0.07753982758197117;0.07591906202544854;0.0755786809275617;0.07734042302837649
External Fragmentation (Horizontal);2;all; ;0.21276180746001053;0.21473391082489499;0.220112689808867;0.21025590684325973;0.21143190378385834;0.2052958748135424;0.20841108974574965;0.20863530537415922;0.21289400328109923;0.21010710002405436
External Fragmentation (Horizontal);3;all; ;0.6622467706839174;0.6608326864140418;0.6559355804510427;0.6574809514552403;0.6566584508172322;0.6560174504162187;0.6517735872056081;0.662715708831753;0.6667512922592715;0.6598479417235606
External Fragmentation (Horizontal);4;all; ;0.648365608353505;0.6416221279311954;0.6420600195576516;0.641399394800348;0.6576515125100801;0.6482676942968247;0.6408832293066729;0.6432135896826405;0.6419044613882874;0.644131013174967
External Fragmentation (Horizontal);5;all; ;0.562245093949924;0.5699986800081731;0.5637761037429557;0.5680969877699239;0.5729304451037146;0.5691293807008505;0.5639796639823986;0.5612669537281016;0.559062942499513;0.5613683485360857
External Fragmentation (Horizontal);6;all; ;0.4980444419106997;0.49949684677296813;0.4924513694851043;0.4870848177138004;0.4999020550669453;0.49182630649188896;0.494627807431923;0.49724666772407256;0.49769329804106793;0.5009105972677672

External Fragmentation Per Link;1;<1-2>; ;0.09424685090347638;0.09446271814761668;0.09423967590645424;0.09426920425116055;0.09320335531539337;0.09245928648705339;0.09726733254287359;0.09427689198697041;0.09542915951645145;0.09778950751142065
External Fragmentation Per Link;1;<2-1>; ;0.09341048796855757;0.09526968395300889;0.09580008052479581;0.09282800219268644;0.09279921481319547;0.09728659660164793;0.09311563647904268;0.09571407173095757;0.09280244633714803;0.09484069075763794
External Fragmentation Per Link;1;<2-3>; ;0.08794646246344014;0.09299941163952727;0.0931322821810094;0.09686645507750562;0.09949641296072244;0.0957292882002059;0.10011567490712385;0.0996419988469706;0.09496268758543805;0.09302226496586313
External Fragmentation Per Link;1;<3-2>; ;0.08873650598270112;0.09574212100821669;0.09444783531135251;0.09575752536844581;0.09063150989849443;0.09551758609344428;0.09516905094238418;0.0912932773821436;0.09248428849335631;0.09760916075864125
External Fragmentation Per Link;1;<1-6>; ;0.1405392662344306;0.14306402168202018;0.13970221624483858;0.1368393966570458;0.13202837056460107;0.14659950546115122;0.14393556446661585;0.14079508766450965;0.13818638723233598;0.14675751613185198
External Fragmentation Per Link;1;<2-5>; ;0.12336625842680045;0.129408271841061;0.12126342644298;0.1199475526240091;0.12052858845312729;0.1250326748820624;0.1240085837397018;0.12499149868757677;0.12406097538823721;0.12382428015195947
External Fragmentation Per Link;1;<3-4>; ;0.13500078251527475;0.1397331383962762;0.1391939933620856;0.14257317665561986;0.13651049856928832;0.14371563785095862;0.14749982490520203;0.13925269372465215;0.137084297321386;0.13949024952558453
External Fragmentation Per Link;1;<4-3>; ;0.13744727798266113;0.13896762711779556;0.13945633666381083;0.1352888537804048;0.1405805965058023;0.14204129457055445;0.13586174820057437;0.14384827890263815;0.13354792096094958;0.146362726661473
External Fragmentation Per Link;1;<5-2>; ;0.12425235213517268;0.1259142612474183;0.12408024589586415;0.12766276761588427;0.12562737058853654;0.12426033594211239;0.12408787989408229;0.12407233373892157;0.12294873132435415;0.1303194512235556
External Fragmentation Per Link;1;<6-1>; ;0.1417128570519412;0.13836856073037782;0.1374047610137543;0.13471407010837816;0.14137733787678758;0.14396682175912479;0.13998005748778397;0.13824707482003637;0.14300137200137808;0.14073037878849823
External Fragmentation Per Link;1;<4-5>; ;0.10036459182486226;0.09223101930152952;0.09950498199268089;0.09886497805518518;0.09688031356292191;0.0981554338556192;0.0996984816179779;0.0971698431508332;0.09760859588099614;0.10257762996876976
External Fragmentation Per Link;1;<5-4>; ;0.08962413016010909;0.09426218539705639;0.09364906958903409;0.09780908725337328;0.09719289001478808;0.09717294268042366;0.09739688983009767;0.09522284205816425;0.09958117079994198;0.09508901386792648
External Fragmentation Per Link;1;<5-6>; ;0.09984212940355687;0.0947100093812278;0.09512717675854605;0.0988535471220195;0.09522259286854262;0.09839261059994923;0.09893822576261525;0.09709262774982248;0.0942906907442904;0.0993493338341626
External Fragmentation Per Link;1;<6-5>; ;0.09754214016760987;0.10151512513966794;0.09789723957774728;0.09504340077928294;0.09433729901428935;0.09985145661540376;0.09918733013044297;0.0930556821590739;0.10116574392431259;0.10030133738535635
External Fragmentation Per Link;2;<1-2>; ;0.2587974280197334;0.23737500054420044;0.2397968482091537;0.2374992030833417;0.2512914306898159;0.25273293309792555;0.23586595303777183;0.2485823440212137;0.2551692479736838;0.23695665738676389
External Fragmentation Per Link;2;<2-1>; ;0.2421012716251207;0.26040861620907024;0.2649605119171924;0.24689336742764698;0.25065800846177305;0.25005010681865797;0.24890219332991664;0.2358599930675208;0.25358000202268466;0.2496100815155201
External Fragmentation Per Link;2;<2-3>; ;0.26447347944261934;0.26002670634883274;0.2413479334847805;0.2451281525866611;0.2465300152434986;0.2497478946121108;0.2489921913266156;0.2511531223627973;0.2568608898393928;0.24175426107016126
External Fragmentation Per Link;2;<3-2>; ;0.24520713746206815;0.250003947559045;0.2669237745892984;0.2463875228997461;0.23737305772206763;0.2444553672651342;0.24342949071165032;0.23946147601215298;0.2587479320561569;0.2418790104973475
External Fragmentation Per Link;2;<1-6>; ;0.35275138364541253;0.36986619106296975;0.37063443577576977;0.38158129280991737;0.36536073931548363;0.3635766299514585;0.36614652900211675;0.3751754941009475;0.36397408055880015;0.3669721765199881
External Fragmentation Per Link;2;<2-5>; ;0.3289262436676949;0.3333660880101782;0.3409025424481528;0.33283198725457475;0.33401716763454403;0.3202279232830042;0.3337061340515077;0.34028030015548705;0.3351803825086997;0.3235095897995307
External Fragmentation Per Link;2;<3-4>; ;0.37720118186835877;0.3656483270642636;0.3719027595045096;0.3779245325800437;0.38623044161281617;0.35736568195877844;0.36269316028360765;0.36760075920757496;0.37756726382486927;0.36402828155561195
External Fragmentation Per Link;2;<4-3>; ;0.36826124152803846;0.37182884985192977;0.39349169496059044;0.36674367605253994;0.3660736808988798;0.3557536063956172;0.35743714162278883;0.36328289256317364;0.3734939879020916;0.3763306923138699
External Fragmentation Per Link;2;<5-2>; ;0.3354507817374513;0.344677567857252;0.3505246438869974;0.3314941665882287;0.3374231345557108;0.3359312318927883;0.33845177051305303;0.33427676480993834;0.32605950144431345;0.331091754315342
External Fragmentation Per Link;2;<6-1>; ;0.3865000947724503;0.3716285872721838;0.381337298543855;0.381616922953473;0.36507499335470345;0.36516624323846464;0.35900195903333587;0.380333009772528;0.37575253881277376;0.3675237456465521
External Fragmentation Per Link;2;<4-5>; ;0.25568697429778287;0.252218901831443;0.27407734742645234;0.2585624187312756;0.24855460260041248;0.24533588498094638;0.2508571687856434;0.2670298567695855;0.24290629800326638;0.25947946841262304
External Fragmentation Per Link;2;<5-4>; ;0.25162255854122717;0.2549773247376281;0.24805853745038817;0.2438901304370888;0.2472196247612688;0.24449630407676398;0.2577051331780441;0.2472640140162544;0.2579237365632799;0.249507358248559
External Fragmentation Per Link;2;<5-6>; ;0.24714589243015525;0.2661898351720967;0.2778223502554084;0.25388876551702566;0.26313503440148955;0.25079323621541516;0.26345813884819;0.23417393493447344;0.2593898267488833;0.25725266640382916
External Fragmentation Per Link;2;<6-5>; ;0.25700675265482553;0.23545553235808228;0.25127450565803233;0.24200721176560303;0.24893037493946252;0.22819112103365347;0.2473384855512969;0.25282049716040195;0.24970765713994214;0.25446399023611194
External Fragmentation Per Link;3;<1-2>; ;0.7468474265257433;0.761160823302985;0.7434980229173374;0.7527659125217777;0.7567424117436392;0.7497289090164801;0.7399684470232508;0.7373905504459238;0.7432712306042658;0.7457518099738423
External Fragmentation Per Link;3;<2-1>; ;0.7588919596809489;0.7513969502235209;0.7279024986341533;0.7292434430054863;0.7283194023540743;0.7362210882471967;0.749475456906851;0.7418779204222297;0.7543292670744397;0.7471593820010897
External Fragmentation Per Link;3;<2-3>; ;0.7515961755007519;0.745674019589732;0.7486116837396266;0.7434698564599838;0.753067933183664;0.747220689210108;0.7401508849235165;0.7375102767250874;0.7365229334882439;0.7509609896090492
External Fragmentation Per Link;3;<3-2>; ;0.7425806469250156;0.7347115208969265;0.7309671682684945;0.7192159556989862;0.7314148605552407;0.7379253170721805;0.7319010045555359;0.7511569739418319;0.736828076169781;0.7468336435467599
External Fragmentation Per Link;3;<1-6>; ;0.7837392630907876;0.777523545658979;0.7816517022044406;0.7822856692085932;0.7882061695475008;0.7808938988204662;0.8024918901299702;0.7909265409076159;0.7878165512723762;0.7950093317570388
External Fragmentation Per Link;3;<2-5>; ;0.7401120307674981;0.7625148759341807;0.7300585793339507;0.7385727242087777;0.7389055734666915;0.7389654373458492;0.7464246355571085;0.7461979766961856;0.7512966411202322;0.7392013875072991
External Fragmentation Per Link;3;<3-4>; ;0.7854185520375563;0.7940838258222995;0.78599695900629;0.7765576207504644;0.7776741966660631;0.8019113227713947;0.7837976800036438;0.7979069889360569;0.7887568768079991;0.7857446806260018
External Fragmentation Per Link;3;<4-3>; ;0.7899461124275583;0.7903956527187981;0.7859876702297147;0.7774743264122138;0.7907598813299824;0.7786095112174983;0.7716150051897731;0.7873420281310044;0.7849945240004973;0.7921099014901469
External Fragmentation Per Link;3;<5-2>; ;0.7530449707563128;0.7401009282631962;0.7289605142602151;0.739204684718141;0.7193167477734492;0.7290246909164219;0.7151298118933129;0.7620179412962698;0.7617309979246636;0.7292004348124267
External Fragmentation Per Link;3;<6-1>; ;0.8033906207755838;0.7874288978949748;0.7849587261090654;0.7851670187069162;0.774324801842667;0.7781524752464938;0.7920452244374055;0.7861092221143493;0.7977459447857987;0.779580038907432
External Fragmentation Per Link;3;<4-5>; ;0.7367374848299644;0.721774002976649;0.7347512331117533;0.7191453898555241;0.7247830256613398;0.7275177560204865;0.7277180315717073;0.7410435284390727;0.754733000408259;0.7306689833197024
External Fragmentation Per Link;3;<5-4>; ;0.7422719360958981;0.7481132881691607;0.71546128473374;0.7411881373421492;0.7557416758031269;0.7184121023330157;0.7174133801752389;0.7395240189815637;0.7338804874839728;0.7253711336591258
External Fragmentation Per Link;3;<5-6>; ;0.7422597379440171;0.7344770597890954;0.7289184306114496;0.7325473496394622;0.7210233930857544;0.7377183430887116;0.7322499934428335;0.7510596896602445;0.7388790959960032;0.7353996839499498
External Fragmentation Per Link;3;<6-5>; ;0.7416905664959564;0.7338185543393532;0.7436606380548694;0.7447026113440695;0.7382785196531827;0.7382958285234041;0.7209784633425543;0.7271844585898876;0.7419491684967497;0.7326574491246853
External Fragmentation Per Link;4;<1-2>; ;0.7875683519940817;0.7852310229814972;0.7886687349006932;0.7946336422040513;0.7993815587637958;0.7834243342311187;0.785347344182127;0.7865888823158641;0.7882776323251234;0.7923596970238219
External Fragmentation Per Link;4;<2-1>; ;0.7892288564372053;0.7911130761216015;0.7838865027014079;0.7850258884995063;0.7977104399454226;0.7916249062548784;0.7933642256686328;0.7895285038854084;0.7842074329762088;0.7917520719970722
External Fragmentation Per Link;4;<2-3>; ;0.7894470494500028;0.785823386823897;0.7951400805012437;0.7847325855329658;0.7934831546505359;0.800171051745367;0.7907365667816012;0.7881175271883052;0.7882088434342428;0.7867183160160002
External Fragmentation Per Link;4;<3-2>; ;0.7829313474303246;0.7846805815281166;0.7940633500536757;0.782750064687904;0.7940355175595218;0.7906255217517737;0.7904686215182779;0.792416161492737;0.7837744758392481;0.7895569173607973
External Fragmentation Per Link;4;<1-6>; ;0.8141939915245132;0.815523083211928;0.8273536151638772;0.8151457557931507;0.8173078331179695;0.8201181137253227;0.8230290781988655;0.8245458889740889;0.8230720747002439;0.8200060162973777
External Fragmentation Per Link;4;<2-5>; ;0.80348721570268;0.8026220872550348;0.8059900594696383;0.8031697734806089;0.8001328956120538;0.7999507974841585;0.798343631403316;0.792157807197047;0.8082325593841944;0.7944732226024205
External Fragmentation Per Link;4;<3-4>; ;0.8293533333120042;0.8165294836154559;0.8252276551494521;0.8010468886512795;0.8232952242458571;0.8162797336073954;0.82785267865113;0.8159253401769311;0.8327230359568543;0.8166979580536037
External Fragmentation Per Link;4;<4-3>; ;0.8149247520647922;0.8260250313791412;0.8264171410012723;0.8150439280965962;0.8236038043736277;0.8243228237297867;0.8159731652041213;0.8127398401740604;0.8157081153145483;0.8182624601794414
External Fragmentation Per Link;4;<5-2>; ;0.7948220190734906;0.7960997413119247;0.8044522409150189;0.8070172295897061;0.8086729038171069;0.8067913638540211;0.7950005474729055;0.8013437116113954;0.8140696281062791;0.8082431446924325
External Fragmentation Per Link;4;<6-1>; ;0.8258880164695869;0.8185890568129277;0.8184319693572742;0.8215329088921974;0.818220282655408;0.8089693481242753;0.8213170874919986;0.8201901878569048;0.8212028755045213;0.8208700816323456
External Fragmentation Per Link;4;<4-5>; ;0.7899355547032217;0.7962747153823095;0.7917610307502383;0.795093804660072;0.7952768324215399;0.793824909361189;0.7928706260318916;0.7881053639138748;0.7836224793127717;0.7888128401185404
External Fragmentation Per Link;4;<5-4>; ;0.7968913067587465;0.7789852327836373;0.7821544963460076;0.7932878722344973;0.7990370304376118;0.7941434680705177;0.7921157191838981;0.8000967792786675;0.7928963395932577;0.7865008768077144
External Fragmentation Per Link;4;<5-6>; ;0.7881399220178636;0.7926594088488378;0.7836828034041541;0.7943183002799838;0.802498252489234;0.79072560966042;0.791525378786878;0.7874228518453092;0.7960266360057302;0.7897120383353557
External Fragmentation Per Link;4;<6-5>; ;0.7875143240131987;0.7854993199764856;0.7845643928603886;0.7908128303213342;0.78735181718022;0.7927995866028508;0.7922167299757276;0.7911478640199201;0.7858317074494363;0.7930447962537569
External Fragmentation Per Link;5;<1-2>; ;0.7664457421505328;0.7785458101247943;0.7701222022072421;0.7741666038691147;0.7789913267358027;0.7759023764599493;0.7740861151089522;0.76297223326806;0.7600395398649402;0.7802351550735177
External Fragmentation Per Link;5;<2-1>; ;0.7749100683062385;0.7755871385363055;0.7608965717233716;0.7696101693048811;0.7762201895544608;0.7803993182396404;0.7683588075075651;0.7705985776078436;0.7768548022458397;0.7647480845729463
External Fragmentation Per Link;5;<2-3>; ;0.7664948418576011;0.7899708207039657;0.777338265378606;0.7718780406429321;0.7789113001236521;0.7760738719017509;0.7689317533314762;0.7784938130308917;0.7706552880205935;0.776347601256621
External Fragmentation Per Link;5;<3-2>; ;0.784130798407333;0.771094214720985;0.7814355354857172;0.7686868573439515;0.7750774110968828;0.7691352156460898;0.7751469369036578;0.7704543772321708;0.7682692785552826;0.7753424758929804
External Fragmentation Per Link;5;<1-6>; ;0.8195824462456069;0.8199071350568986;0.8167114645266218;0.8226135706385376;0.8153346092925762;0.8190134182291006;0.8219428329040825;0.8182671501613329;0.8284539127541293;0.8141483650870202
External Fragmentation Per Link;5;<2-5>; ;0.8099381499225048;0.8027666901135471;0.8069208336701714;0.8011987767618995;0.7977582021980255;0.8025697740916888;0.7975088306076705;0.8073509920160294;0.8032534596854652;0.807875311680365
External Fragmentation Per Link;5;<3-4>; ;0.8289614664051185;0.8151637304374513;0.8134910511006556;0.8252171593018139;0.8109733753059076;0.8229861166764613;0.8200839358978299;0.8220486828801399;0.8246530943690586;0.814988128992012
External Fragmentation Per Link;5;<4-3>; ;0.8186624090153687;0.8162335457830964;0.82134207367144;0.8231761438850762;0.8200863581232429;0.8068221396866824;0.8213108861414318;0.8207633801235309;0.817883141606579;0.8320712975826727
External Fragmentation Per Link;5;<5-2>; ;0.8111307024011083;0.8099390024017212;0.7946705689286206;0.7971101919321891;0.8064048848133898;0.802161076950909;0.8025076914739697;0.7951362183077277;0.7993128950786895;0.8018240283107295
External Fragmentation Per Link;5;<6-1>; ;0.8177531132869115;0.8290481642442818;0.8106596313102559;0.8195059009431475;0.8181999517659192;0.8198581650672077;0.8105564013297316;0.8210985085795018;0.8157837231055652;0.81905072026477
External Fragmentation Per Link;5;<4-5>; ;0.775967611134081;0.7839851873635769;0.7687699226408551;0.7818479702262314;0.7748100503719341;0.7863188025725129;0.773597937835987;0.7845576261188262;0.7762335483903171;0.7772836829518254
External Fragmentation Per Link;5;<5-4>; ;0.7829550800081535;0.7782466976835188;0.7725531908533754;0.7745825167119158;0.7835962658730674;0.7784373765684797;0.7792687603847559;0.7810879355243161;0.7839204550343777;0.7690667252568534
External Fragmentation Per Link;5;<5-6>; ;0.7712589079683005;0.7702243008575108;0.764687280957273;0.7781702895575378;0.7774582419110279;0.7791376945519612;0.7746355520983033;0.7711107303261131;0.7880091457292514;0.7774948625568705
External Fragmentation Per Link;5;<6-5>; ;0.7701496205577492;0.7783250413093876;0.7838292313729311;0.7746006617806425;0.7814098440641541;0.7893110924823218;0.7749795286709273;0.7816263419113372;0.7773655367700264;0.777614048620573
External Fragmentation Per Link;6;<1-2>; ;0.7414245664548307;0.7521281749188296;0.7462209812577866;0.7567831271401823;0.7514252021032175;0.7423088980351751;0.7592116628496979;0.7619088124624038;0.7438203561077343;0.7481478871963346
External Fragmentation Per Link;6;<2-1>; ;0.7628949525483152;0.7540111646310785;0.7460731259916968;0.7531582069241138;0.761231170937304;0.7717877875809214;0.751586823010434;0.7559816685051063;0.7546376813083184;0.7353039401219801
External Fragmentation Per Link;6;<2-3>; ;0.7519963715205218;0.7508210461779449;0.7561920918353457;0.759667976545764;0.7528378530612077;0.7635507415038848;0.7558137866939705;0.7537219134534988;0.7616563723584526;0.7498661626804426
External Fragmentation Per Link;6;<3-2>; ;0.7482501802898149;0.7525829008888175;0.7467496068754241;0.7527162545189384;0.7586823439632363;0.7481624555678292;0.7482766514146714;0.7485127134847182;0.7663629078991068;0.7662493231073397
External Fragmentation Per Link;6;<1-6>; ;0.8108757388245371;0.8157594780315024;0.8065025856114489;0.7986857504746436;0.813152585089504;0.8149387382551184;0.8136446824698893;0.8164676614071166;0.8147375810652971;0.8116806912496136
External Fragmentation Per Link;6;<2-5>; ;0.7915152027328335;0.7936351283554428;0.7920075499867965;0.7978428993449355;0.792657784648216;0.7996501417942156;0.8012341924709211;0.7924911577738544;0.7992778283988609;0.7938780911730389
External Fragmentation Per Link;6;<3-4>; ;0.8119466412180775;0.8085587885352051;0.8100781927952552;0.8109333710650835;0.8133904219117204;0.8170175671730164;0.8158081679502955;0.8057649482393209;0.8188628356367793;0.8143176595910311
External Fragmentation Per Link;6;<4-3>; ;0.8217628539480416;0.8137200447942379;0.8031041102001608;0.8121657284280293;0.8095171354999265;0.8113182296052646;0.8119518745761114;0.8133526321342964;0.8126857748950617;0.818389912906356
External Fragmentation Per Link;6;<5-2>; ;0.8033328418859156;0.7895227196946634;0.7963596936990571;0.7914925548131853;0.8000623104538039;0.8006256461987463;0.7955304353963937;0.794290194450685;0.8002820626811272;0.7887372404062069
External Fragmentation Per Link;6;<6-1>; ;0.814911462114525;0.807638154493214;0.8125682892009806;0.8128013936085445;0.8030444984554126;0.8133230837332872;0.8199820260539981;0.8212953407614725;0.8169589371556079;0.8190470098160914
External Fragmentation Per Link;6;<4-5>; ;0.7623744404710394;0.7728110998289762;0.7507086259837732;0.7620804467334724;0.7514283046499209;0.7556131520474378;0.7550719370204277;0.7691582234338038;0.755085415565354;0.7550141490513275
External Fragmentation Per Link;6;<5-4>; ;0.7682494415077168;0.7691334786232996;0.7558217275735134;0.7614538501660258;0.760767912606676;0.7557199524973688;0.7569723198576428;0.7483098634864284;0.7505591295226393;0.7692414969098427
External Fragmentation Per Link;6;<5-6>; ;0.7598293401582641;0.7731509629114734;0.7520535553391007;0.735667989520376;0.759998611132677;0.7471081390975417;0.7530588549123174;0.7659573800203945;0.7518264549447038;0.7684915445022029
External Fragmentation Per Link;6;<6-5>; ;0.7550076461995735;0.7658312585613598;0.7546916152059882;0.7486298357237324;0.7650943111243722;0.7608524902168364;0.7575221575311023;0.7640723485927541;0.761256178759083;0.7475439382283956

