Metrics;LoadPoint;link; ;rep1;rep2;rep3;rep4;rep5;rep6;rep7;rep8;rep9;rep10
External Fragmentation (Vertical);1;all; ;0.17849660892296407;0.17695265858506806;0.18068600969575296;0.18026116100677692;0.18442953344746738;0.18315984380598668;0.18101561351850431;0.1790135442786322;0.17528973622523472;0.18439696685117182
External Fragmentation (Vertical);2;all; ;0.5327892766245056;0.5305669965377794;0.5336845911188133;0.5318635188934839;0.5384626611190615;0.5326553093481663;0.5187553791205055;0.5280317069696474;0.5337976530832886;0.5261706509687741
External Fragmentation (Vertical);3;all; ;0.6460685672152914;0.6404419461866622;0.6433194780826218;0.6411444921017171;0.6358910372369626;0.643034260046193;0.6396610615162215;0.6446284659984097;0.6403811315770321;0.6408496749382064
External Fragmentation (Vertical);4;all; ;0.6707493803155605;0.6767089924908459;0.6730268185861468;0.6723802896307051;0.6742420891917171;0.6748151259087556;0.6673332289922828;0.671811418607759;0.6680686375336705;0.6727268557309114
External Fragmentation (Vertical);5;all; ;0.6761015495482745;0.6809032009147736;0.673976435912333;0.6763860990203019;0.6786410006257358;0.6784810686051354;0.677631268033248;0.6760806889381279;0.6762485006926101;0.6783029568957527
External Fragmentation (Vertical);6;all; ;0.6681224981793468;0.6709799351308562;0.6701523275700619;0.6686799826049018;0.6690031448377881;0.6655365201621919;0.664740943316377;0.6731064253211303;0.6654476551710578;0.6683771001091944

External Fragmentation (Horizontal);1;all; ;0.15306139319620685;0.15102191918217808;0.15504481098837442;0.15438299102186698;0.1581556662784465;0.15658278197240547;0.15353079444319254;0.15343465456304875;0.1493861964340531;0.15832264883811026
External Fragmentation (Horizontal);2;all; ;0.5594144949537583;0.5519074342882974;0.5658829281829306;0.5616121956593695;0.5668426199724048;0.5607549995580422;0.5357337604623744;0.5559572301062656;0.562933797483083;0.5477263486298344
External Fragmentation (Horizontal);3;all; ;0.6362980504730077;0.6250448203433316;0.630602521998051;0.628959648089162;0.6261025999692396;0.6307449488846484;0.6312619376437222;0.6340798069747224;0.6285479543463328;0.6280904157491983
External Fragmentation (Horizontal);4;all; ;0.5700589895472352;0.5742807812673598;0.5704832673311033;0.5683139742107106;0.5735809184742842;0.5665463157373969;0.5694098602696918;0.5716808013084573;0.5686718553281019;0.5684217886534914
External Fragmentation (Horizontal);5;all; ;0.5079454144449717;0.5103661812941447;0.5011906639005077;0.5048708352846909;0.5033266813885556;0.4988542158225556;0.5085426575205116;0.49857068134250243;0.502288549946521;0.4985350641818526
External Fragmentation (Horizontal);6;all; ;0.44012946845509754;0.44204319590427826;0.44618207541797616;0.44288650167571414;0.43865815008828574;0.44050994954673517;0.4368911321551385;0.44474724223054063;0.4375111045655757;0.438898795674939

External Fragmentation Per Link;1;<1-2>; ;0.11185698998947369;0.11496241092251813;0.11273321048959821;0.11079532801291557;0.10957241159349962;0.1111079928524656;0.1125624714827169;0.11858847561279846;0.11677479344088217;0.10926988794207011
External Fragmentation Per Link;1;<2-1>; ;0.1176926240451293;0.10935971312784278;0.13003809108013722;0.11729866154775262;0.1047615369556226;0.11673093730547573;0.1102531309143452;0.1079058268613287;0.11754448495494589;0.11250676923308549
External Fragmentation Per Link;1;<2-3>; ;0.24431885876697734;0.24834327357557198;0.23995822342827278;0.23815832083983793;0.26290385476767536;0.24230691315678582;0.24957388170106196;0.23896081338293249;0.22887985701591856;0.25304711218539677
External Fragmentation Per Link;1;<3-2>; ;0.23528371522111724;0.22348107651527196;0.24961818067102762;0.2517314448072213;0.2524215284491655;0.24913248503489258;0.24334751394751702;0.24366989766588498;0.23150333575532592;0.25910592530745175
External Fragmentation Per Link;1;<1-6>; ;0.27371182585528475;0.2945012552208175;0.2796676511989266;0.288485841570679;0.30526503270713484;0.29802188511438;0.2997540968026056;0.28914207889018506;0.2821015659459373;0.29324284700981545
External Fragmentation Per Link;1;<2-5>; ;0.20902767782219034;0.18694680160611168;0.206976989908041;0.21298791647838058;0.20507459167129707;0.20362147377239223;0.20122628406281007;0.19911544024542843;0.19943985928212252;0.2111672634756948
External Fragmentation Per Link;1;<3-4>; ;0.01940659300921877;0.018958164778243802;0.020305909314542948;0.017681928978900932;0.01969396266035763;0.01976292458888389;0.019335013020202584;0.01894685593608887;0.022697891701080265;0.017957072809761943
External Fragmentation Per Link;1;<4-3>; ;0.019653790291228965;0.02119892304173771;0.018524778125781474;0.017852684377295154;0.019236209752342283;0.018064423068812663;0.02082964751628201;0.019345453731948844;0.017488320490136475;0.019194435541717982
External Fragmentation Per Link;1;<5-2>; ;0.20471689922467312;0.21070673311705623;0.20329003093834186;0.1922050133945526;0.21255079547449682;0.20265320945783652;0.20456801199470653;0.20326025504833375;0.1888419783398297;0.2089182318166272
External Fragmentation Per Link;1;<6-1>; ;0.2907738411061147;0.28419294191537586;0.28422185681227186;0.29528884494576735;0.2917155190737685;0.30208441151916815;0.28757809643355375;0.2875369041358985;0.281021714441821;0.2971395351382078
External Fragmentation Per Link;1;<4-5>; ;0.2500769999445425;0.24102370845749127;0.24249063114434813;0.24980911876551312;0.25107935140143717;0.25573428703727824;0.2545549936331646;0.23991945341151563;0.23544450162581881;0.25876913212379277
External Fragmentation Per Link;1;<5-4>; ;0.23947146853321244;0.24244232680398772;0.24108145777434686;0.2483677722427127;0.2580984019604801;0.25201027774363155;0.24693118563418553;0.24598723378330675;0.24745774454149394;0.24769549917970543
External Fragmentation Per Link;1;<5-6>; ;0.14455814561890118;0.1396319114866209;0.14816989536327302;0.14382855742056533;0.14168227336585817;0.1462969091191455;0.13932497803734525;0.14695846339504895;0.1431110172062812;0.14922892339873906
External Fragmentation Per Link;1;<6-5>; ;0.13840309549340873;0.14158797962234607;0.15252722949176328;0.13916482071282668;0.14795799843143345;0.1467096835126507;0.14437928407867512;0.146852467800287;0.1417492424117794;0.14431490075437609
External Fragmentation Per Link;2;<1-2>; ;0.2766986973934961;0.2808459885478914;0.2586497253457504;0.27810950857455036;0.28189865211144927;0.26466603514582104;0.2848526489183455;0.2611889156295718;0.2797994417089005;0.2586549395911011
External Fragmentation Per Link;2;<2-1>; ;0.24642688071482266;0.29679083702133896;0.2958283042918614;0.26102634575440536;0.2818424576689427;0.2727288115327272;0.26481562111486434;0.24166200126803028;0.25661737103363325;0.26281771623225486
External Fragmentation Per Link;2;<2-3>; ;0.6786026565007934;0.679163053035741;0.6733806406994998;0.6921594511136442;0.6835032829450884;0.6843914652454501;0.6552419253282783;0.6549016792439512;0.6902893127143274;0.6748952039162321
External Fragmentation Per Link;2;<3-2>; ;0.7061200789434859;0.6887113618556631;0.6810690033942414;0.6907333763419445;0.69576370297889;0.6765351517218018;0.6886995251294592;0.6936737670969652;0.6774775889893675;0.6725993407925547
External Fragmentation Per Link;2;<1-6>; ;0.717981928175659;0.7056679607098757;0.71620497341074;0.6880018469069239;0.7061972114332803;0.7034346054829402;0.6945521971920176;0.7013457817479605;0.7182301143509005;0.7200082760217783
External Fragmentation Per Link;2;<2-5>; ;0.6838965012957359;0.6938406517851342;0.6959909868021712;0.6901058255893215;0.7150987045500313;0.683547945561244;0.66728012561632;0.6887866652269072;0.6716185547126154;0.6897832852803467
External Fragmentation Per Link;2;<3-4>; ;0.039821739187729764;0.03711663990847183;0.03563952406215349;0.04199580769889953;0.0365847567773866;0.03858866699881587;0.037435093895357735;0.030458101588011235;0.036520029105045954;0.0337988132625552
External Fragmentation Per Link;2;<4-3>; ;0.03629948673465559;0.027495761197732553;0.03447020660810769;0.03703951486213234;0.03560426531689569;0.033190653703116614;0.03646907137919103;0.03549118261578953;0.03081013606719951;0.03825166589469537
External Fragmentation Per Link;2;<5-2>; ;0.6915535730543277;0.6712555400426709;0.691114608318253;0.6982712914783881;0.6867887057617907;0.691612089744606;0.6431040942940446;0.6648675025786045;0.7008785176967757;0.6641683722447895
External Fragmentation Per Link;2;<6-1>; ;0.7156348391681893;0.7135343095752271;0.6934585008673438;0.6954088927897576;0.7280649119179834;0.7143185552771578;0.7093192005447099;0.7365972277811549;0.7036885267245829;0.7187301559833718
External Fragmentation Per Link;2;<4-5>; ;0.7043164354936268;0.6996398616719778;0.6771063019941835;0.6975399309975585;0.7074043896239057;0.6940700608607564;0.682921757701349;0.7213277773958582;0.7122677719659706;0.6976572909556842
External Fragmentation Per Link;2;<5-4>; ;0.6962755971332615;0.6861011459372024;0.7132653238920411;0.6954154261134939;0.6961135580771995;0.7169141257952789;0.6866914395765615;0.6972616945413136;0.704597430445582;0.705837141135463
External Fragmentation Per Link;2;<5-6>; ;0.6312500223371025;0.6265127125230358;0.6490679442420945;0.6455876852163391;0.6603107092180899;0.6474807816829214;0.611954964203319;0.6458694579942148;0.6368674385124222;0.6124837572037376
External Fragmentation Per Link;2;<6-5>; ;0.6341714366099799;0.6212621277168999;0.6563382317352303;0.634694361071713;0.6233019472863427;0.635695382121889;0.5992376427934806;0.619012142866918;0.6535049091387561;0.6167031550485572
External Fragmentation Per Link;3;<1-2>; ;0.5343256882690572;0.49977575123443296;0.5114279662141147;0.4859756671981212;0.4647520241094456;0.46448167913301874;0.48994094578730435;0.5145232346901346;0.49440597033858275;0.457435301227008
External Fragmentation Per Link;3;<2-1>; ;0.5048220137994156;0.44732743199358915;0.5078907046522668;0.4925664132290601;0.466066496010873;0.4934668456498705;0.44082002773827156;0.4812455251581439;0.4723728102165562;0.4859865708643954
External Fragmentation Per Link;3;<2-3>; ;0.792498926340485;0.7752337669192179;0.7652203093481486;0.7783839855613202;0.7652590996201984;0.7790653639811727;0.7658242617429548;0.7679043695293737;0.7639912368218196;0.7630586034787673
External Fragmentation Per Link;3;<3-2>; ;0.7653883461220601;0.779697860110069;0.7674879347149646;0.7475135832214777;0.7771048601659536;0.7723881053467869;0.7861849897901303;0.7680679671888698;0.7694612125283902;0.7758559881489376
External Fragmentation Per Link;3;<1-6>; ;0.7850701086398456;0.7898289368621818;0.7918724568071022;0.7947857547093212;0.7988192306285118;0.7968884998600326;0.7978582684704794;0.8073888182708392;0.790523571370781;0.8034252906640417
External Fragmentation Per Link;3;<2-5>; ;0.8054179750853404;0.8130211584531222;0.8055264656171295;0.8136882553249731;0.8105429187547082;0.8130243764290797;0.8074630354550173;0.8045084078618995;0.8097032290546645;0.8119830613488463
External Fragmentation Per Link;3;<3-4>; ;0.05219091609306293;0.05357746044369536;0.0516870292940239;0.048172366987351174;0.05115283878551889;0.05602799939618625;0.04663656461862261;0.04940739106069136;0.05076863570276122;0.04614796014757939
External Fragmentation Per Link;3;<4-3>; ;0.05039652542508998;0.047976744080491456;0.04618774865652513;0.05511680761064398;0.05081319034658028;0.059913113141942406;0.042844192574102026;0.05065397095064744;0.05897674783992611;0.05109034126842627
External Fragmentation Per Link;3;<5-2>; ;0.8147263299148174;0.8104760908732871;0.8049640442958502;0.8076617060774905;0.8062947598951885;0.8075462504066135;0.8134471493288588;0.8090112143748898;0.8140191579741443;0.810771015197042
External Fragmentation Per Link;3;<6-1>; ;0.7935482010578272;0.8104654971173691;0.79499882056454;0.8002113563495478;0.7722281616718305;0.7946231725938026;0.7999193675939593;0.8057682014139514;0.7926946504465333;0.804919275644235
External Fragmentation Per Link;3;<4-5>; ;0.8068340893009782;0.8088520023258913;0.8146863631026675;0.808272720905575;0.805419455320307;0.815820654840165;0.8135867218140483;0.810989369703299;0.8025980568273707;0.8040172849880988
External Fragmentation Per Link;3;<5-4>; ;0.802102739574075;0.7994286140215461;0.8112978491496581;0.8148268919506222;0.8094186296492599;0.8177781421057603;0.8095509619718748;0.8121541205348027;0.811067456452657;0.8210477018262012
External Fragmentation Per Link;3;<5-6>; ;0.7719136299995696;0.7640282406399496;0.7677460134438434;0.7598870960364367;0.7579291608167383;0.7583680155027351;0.7682700626804286;0.7651079984265425;0.7706613115695758;0.7711452779186
External Fragmentation Per Link;3;<6-5>; ;0.765724451394007;0.766497691539946;0.7654789872974972;0.7689602842635295;0.7666736955436153;0.7730874222612393;0.7729083116627172;0.7780679348150549;0.7640917949362199;0.7650117764143208
External Fragmentation Per Link;4;<1-2>; ;0.7059837592693498;0.705045865405052;0.6825120006290853;0.6753920809738083;0.6763660217369046;0.6539666273041331;0.6627292456886397;0.660482797323902;0.6535890855195537;0.673628829831968
External Fragmentation Per Link;4;<2-1>; ;0.6506749240995705;0.6899415854699427;0.6733108329836827;0.6692084224833016;0.6910354151175626;0.7073062349050052;0.636182842016107;0.6742298032872622;0.6576137156252575;0.6730792483307896
External Fragmentation Per Link;4;<2-3>; ;0.7908749809823833;0.7747465270865904;0.7957383426970726;0.7839293460093478;0.7977563671762741;0.7806468162991369;0.783073786290737;0.799668702233263;0.785841798763059;0.7875670561026484
External Fragmentation Per Link;4;<3-2>; ;0.792771000512603;0.7888966350192598;0.7825326674884822;0.7916058100155245;0.776735238165912;0.79615388032905;0.7941310683641514;0.7879209334866873;0.7989094333055583;0.78375167530517
External Fragmentation Per Link;4;<1-6>; ;0.8113370352455863;0.8393531135902089;0.8227182428642031;0.8202895353782423;0.815589904110657;0.8118352025575551;0.8197828556743305;0.8179214747270482;0.8199077423138517;0.8099709079733604
External Fragmentation Per Link;4;<2-5>; ;0.8019462862097992;0.8119085562130689;0.8023770930211657;0.8053883083661533;0.798233587705705;0.7989910812971937;0.8018608879895716;0.8030144312669547;0.8003104777682458;0.8052981906204921
External Fragmentation Per Link;4;<3-4>; ;0.05927547971959158;0.061404488061219245;0.06299721299710298;0.06540865446493904;0.06779223899557657;0.06915975192887444;0.05236500458503475;0.0660563073116871;0.06602226840145821;0.06803765410119754
External Fragmentation Per Link;4;<4-3>; ;0.05765791482813916;0.06857037991878523;0.06044367915902753;0.06338765094589517;0.0795022001468745;0.06993296321326695;0.06732668292055;0.063584102583289;0.058111413059287756;0.061943528982442875
External Fragmentation Per Link;4;<5-2>; ;0.8006858859137487;0.7984535234961235;0.8071007987599622;0.8009800050493671;0.8105098419741554;0.8009820743793535;0.803539294540674;0.8107450671781931;0.8052788921957148;0.802402546216076
External Fragmentation Per Link;4;<6-1>; ;0.8139875346980062;0.8207418297062509;0.8274187571756684;0.8124821001483036;0.8110608268172848;0.824983579055252;0.8045950702407088;0.8186815684191041;0.8122107044815666;0.8182369453447893
External Fragmentation Per Link;4;<4-5>; ;0.8188477758579219;0.819309655690481;0.8193738794401523;0.830535951830559;0.8158012165234083;0.8278794751054902;0.8250006812480524;0.8262580193273887;0.8174207236362216;0.8299060795694335
External Fragmentation Per Link;4;<5-4>; ;0.8263789642301798;0.8256877616338397;0.8154921217624962;0.8296364033105229;0.823059273824517;0.8296054248638383;0.8324190900770116;0.8268977767350645;0.8232226560863402;0.82521974768817
External Fragmentation Per Link;4;<5-6>; ;0.7283332829803332;0.7227892524085844;0.7345982140605818;0.7304405763243083;0.7402593097655739;0.7477784014642568;0.7285074014765698;0.723199627551935;0.7311971694966303;0.7450507910174843
External Fragmentation Per Link;4;<6-5>; ;0.7317364998726161;0.7470767211747462;0.7357616171693381;0.7346392095313635;0.735687806625584;0.728190250022064;0.7311512947819447;0.726699249078139;0.7233248448201811;0.734082779150569
External Fragmentation Per Link;5;<1-2>; ;0.7606800689669728;0.7548545397511398;0.7582566748238045;0.744401727519521;0.7413786452682478;0.7473501165913179;0.7267605494078386;0.756339400670225;0.7194571118641531;0.7660569284515509
External Fragmentation Per Link;5;<2-1>; ;0.7427711376986292;0.7517793076069724;0.7341986248348222;0.7559934590299819;0.7601238062423272;0.7653303532785052;0.7631412927610682;0.7681319224419585;0.7688108321389283;0.7548306073199526
External Fragmentation Per Link;5;<2-3>; ;0.7880251427328471;0.7973767173408366;0.7796663439386096;0.7811121514349707;0.7843619176457386;0.7850676832791997;0.7904711546182221;0.7751237246597396;0.7869301848818693;0.7903809986730107
External Fragmentation Per Link;5;<3-2>; ;0.7915121554892126;0.7865743519302755;0.7796515102576984;0.7844188261896079;0.7917069184074337;0.7851943526655238;0.7852333828209834;0.7869459115929637;0.7826604013742754;0.7810803485862797
External Fragmentation Per Link;5;<1-6>; ;0.836527084154743;0.8245478793810798;0.818801989200943;0.8276835847327285;0.8217641553102271;0.8272532206644471;0.8048491547818571;0.8290846413049102;0.8180283179288433;0.8255257674615203
External Fragmentation Per Link;5;<2-5>; ;0.7913880803121824;0.7999820250246743;0.7876929879186082;0.7865081906587597;0.7829561314794866;0.7836352309484717;0.7847881345459843;0.779492617812696;0.7914109876111306;0.7884974017597147
External Fragmentation Per Link;5;<3-4>; ;0.08190444822334803;0.07730196344235171;0.07052715382713899;0.0839743284044371;0.10030841724762785;0.08838167860060464;0.09087715667086735;0.09633611790915839;0.09132872022472632;0.08877221189254894
External Fragmentation Per Link;5;<4-3>; ;0.08491715730957648;0.10022104349822901;0.0902281722312281;0.10012796678370424;0.09744148361746993;0.08654029249411795;0.09177625473214877;0.09178209602100841;0.08924313522994623;0.07891288855014986
External Fragmentation Per Link;5;<5-2>; ;0.7911318730981339;0.7874496700903822;0.7774076493404802;0.7846051602553246;0.7928279074360624;0.79353095203538;0.7858631080703284;0.7813067076715218;0.7854697285848133;0.7846455182265821
External Fragmentation Per Link;5;<6-1>; ;0.8212390454108958;0.8307150697264924;0.8238828819527764;0.8150612350301418;0.8289940993352257;0.8228191377552525;0.8212248684569533;0.8121627385699536;0.8274513230014792;0.8237680791080898
External Fragmentation Per Link;5;<4-5>; ;0.8223687149564766;0.8230371363137212;0.8259101416734626;0.8180067312795605;0.812418973902822;0.8267111995416887;0.832041116810597;0.8121027609823971;0.8255401924436705;0.8177369443754349
External Fragmentation Per Link;5;<5-4>; ;0.8074443406254381;0.8237039442970946;0.8175147233503735;0.8253189268930544;0.8223895709258482;0.8254191203152624;0.8230653770629066;0.818514011281418;0.8191369960792966;0.8250616260340792
External Fragmentation Per Link;5;<5-6>; ;0.6728573967911021;0.6947046757577952;0.6807392318997023;0.6903150468341392;0.6891801492289416;0.6838489115926782;0.7029586817472303;0.6873274537740615;0.6802800522157885;0.6760836347901741
External Fragmentation Per Link;5;<6-5>; ;0.6726550479082829;0.6803964886477882;0.6911920175252817;0.6718780512402177;0.6751218327145846;0.6776527107115892;0.6837875199803127;0.6704795404438086;0.6817310261195012;0.6948884413133646
External Fragmentation Per Link;6;<1-2>; ;0.7852249787422906;0.7885099697815274;0.7690150284283346;0.7814569484995351;0.7756871447899516;0.7442377437606686;0.7665573564137834;0.7810434066325228;0.7681722895414428;0.7811692472024394
External Fragmentation Per Link;6;<2-1>; ;0.7642296372146714;0.7347586603202472;0.7737021863844092;0.7660787470615359;0.753260464157749;0.7818005159823419;0.772610669372582;0.7806338687256907;0.7683871170007405;0.7690533527978268
External Fragmentation Per Link;6;<2-3>; ;0.7642693500532158;0.7626210575479312;0.7782717746886856;0.7812270083036393;0.7554453239588569;0.7655717627619433;0.7607294155591635;0.7722143836473268;0.7827620452887205;0.7568115762321406
External Fragmentation Per Link;6;<3-2>; ;0.7748349872143345;0.786803648715461;0.7683344886074684;0.7599723621468496;0.7660935860212984;0.7706640458534526;0.7654256804030506;0.7726578214600613;0.7732417929732851;0.7747855524861302
External Fragmentation Per Link;6;<1-6>; ;0.8104083521380983;0.838402621917977;0.8054728173729317;0.8223816322758627;0.8338988792708903;0.8282611644474027;0.83958568044404;0.8394444929786019;0.8282486560297362;0.8316729191148431
External Fragmentation Per Link;6;<2-5>; ;0.7521814066518338;0.7660667186936797;0.7676960928380117;0.7710325013381584;0.7481133109537319;0.7623649638128018;0.780569075112692;0.7734303549289511;0.7457168208828834;0.7617361575612177
External Fragmentation Per Link;6;<3-4>; ;0.12089837182681211;0.12924188023039185;0.11624825340742298;0.1069025061230415;0.12217374982083554;0.11646637530357776;0.097938073482601;0.10274851830748001;0.11177617680003485;0.1199038982580843
External Fragmentation Per Link;6;<4-3>; ;0.1123490500657202;0.12282641757801066;0.09799683929708713;0.10565825094821722;0.1304343125705409;0.10986884083278406;0.10072279373084404;0.12406504510767796;0.11220981971583435;0.10052030489727573
External Fragmentation Per Link;6;<5-2>; ;0.7642031387888348;0.7642109317007361;0.7699169582874213;0.7583583907798597;0.7781282150818739;0.742007009731357;0.7567054289019841;0.7769521819374966;0.7447849182911714;0.7528156213300541
External Fragmentation Per Link;6;<6-1>; ;0.8191341796484599;0.811023046450992;0.8212142491016201;0.8168949688774891;0.8383961888405254;0.8127975651635934;0.8146141495750343;0.8245937389036306;0.8195037272187753;0.8269347691511197
External Fragmentation Per Link;6;<4-5>; ;0.8170824683670859;0.8159494044820202;0.8152852249219465;0.812694285841996;0.8147093727430201;0.8226142648700204;0.8099659697902658;0.8125224960282191;0.8017361814825136;0.8176466090518143
External Fragmentation Per Link;6;<5-4>; ;0.8087943265072356;0.811329486357459;0.813612528121078;0.813577667067122;0.8147451942313856;0.8063962239721459;0.8143408869292853;0.8076619779935459;0.8147564680375309;0.7974531298198444
External Fragmentation Per Link;6;<5-6>; ;0.6363967221604625;0.6346204486755265;0.6465260121619868;0.63139216810705;0.6111658727531596;0.6165786067301381;0.5957346869330147;0.6243178533453454;0.5881393122530688;0.6288458443062864
External Fragmentation Per Link;6;<6-5>; ;0.6237080051336226;0.6273547993820415;0.6388401323645194;0.6338923191001251;0.6237924125370587;0.6378821990504098;0.6308733397826939;0.6312038145014517;0.6568318468808769;0.6379304193214735

