Metrics;load point;link;number of slots; ;rep1;rep2;rep3;rep4;rep5;rep6;rep7;rep8;rep9;rep10
Requisitons per number of slots;1;all;1; ;0.5011524366159861;0.4991125488098155;0.5025773582452965;0.4999225042622656;0.5006374649394283;0.5016724080175591;0.4998925059121748;0.5000424976626285;0.500142492162931;0.4985025823579703
Requisitons per number of slots;1;all;2; ;0.16467594282314474;0.16692081935493547;0.16584587847668378;0.16759578223197724;0.1671108089055102;0.16549089800060995;0.1675007874566899;0.16642584657843817;0.16633085180315083;0.16927069011204385
Requisitons per number of slots;1;all;3; ;0.1675657838818865;0.16672583007934563;0.16406597637129958;0.16701581413022284;0.16557589332586709;0.16453095079770613;0.16577588232647206;0.1663058531780752;0.16568588727619982;0.16497092659903706
Requisitons per number of slots;1;all;5; ;0.16660583667898266;0.16724080175590342;0.16751078690672014;0.16546589937553435;0.1666758328291944;0.16830574318412486;0.16683082430466326;0.16722580258085806;0.16784076875771833;0.1672558009309488
Requisitons per number of slots;2;all;1; ;0.5016924069176195;0.5005524696141712;0.49690267035313057;0.500582467964262;0.5025523596202209;0.5008574528400938;0.4990375529345886;0.5003874786886722;0.499737514436706;0.5000174990375529
Requisitons per number of slots;2;all;2; ;0.16615586142762148;0.1664458454784987;0.16861072641004746;0.16629085400302984;0.16565088920109394;0.1654558999255041;0.1662058586777727;0.16590087545185014;0.16705081220532872;0.16688082155481448
Requisitons per number of slots;2;all;3; ;0.1660758658273795;0.16559589222592758;0.1666158361290129;0.16724580148091855;0.16484593347365895;0.16753078580678063;0.16746578938158402;0.16772077535735536;0.16588087655178965;0.16665083420411878
Requisitons per number of slots;2;all;5; ;0.1660758658273795;0.16740579268140252;0.16787076710780907;0.16588087655178965;0.16695081770502623;0.16615586142762148;0.16729079900605467;0.16599087050212238;0.16733079680617566;0.1664508452035138
Requisitons per number of slots;3;all;1; ;0.4986175760333182;0.5006374649394283;0.5010724410157441;0.4996325202113884;0.4997725125118119;0.5010324432156231;0.4981626010569419;0.49806260655663936;0.5003324817135058;0.4989475578843164
Requisitons per number of slots;3;all;2; ;0.16696081715505648;0.16616086115263662;0.166860822654754;0.16652584107874066;0.16563589002604856;0.16683582402967836;0.16567088810115443;0.16781077040762757;0.16609586472743998;0.16633085180315083
Requisitons per number of slots;3;all;3; ;0.1673357965311908;0.16636085015324156;0.16656583887886167;0.16718580478073705;0.1678957657328847;0.1659108749018804;0.16782576958267295;0.16675582842943637;0.16679082650454224;0.16743079130647814
Requisitons per number of slots;3;all;5; ;0.16708581028043457;0.1668408237546935;0.16550089745064023;0.16665583392913388;0.1666958317292549;0.1662208578528181;0.16834074125923074;0.16737079460629664;0.166780827054512;0.16729079900605467
Requisitons per number of slots;4;all;1; ;0.5018823964681942;0.5004324762138083;0.5007274599897006;0.5006874621895796;0.49838258895760734;0.5006424646644435;0.50050247236402;0.5014024228667423;0.500142492162931;0.500142492162931
Requisitons per number of slots;4;all;2; ;0.16729079900605467;0.16633585152816596;0.1673357965311908;0.16635585042822645;0.167425791581463;0.16789076600786956;0.16699581523016235;0.16722080285584293;0.16585587792671402;0.1654808985505797
Requisitons per number of slots;4;all;3; ;0.16550589717565534;0.1669658168800716;0.1661208633525156;0.16735079570623615;0.1660508672023039;0.16523591202483864;0.16658083805390703;0.1652259125748084;0.1665508397038163;0.1672757998310093
Requisitons per number of slots;4;all;5; ;0.16532090735009575;0.1662658553779542;0.16581588012659304;0.16560589167595782;0.16814075225862576;0.16623085730284834;0.16592087435191064;0.16615086170260635;0.16745079020653864;0.16710080945547995

Requisitons per number of slots per link;1;<2-1>;1; ;0.49891920020815406;0.501376723398312;0.5033714834527192;0.5001993938427182;0.5015983057958564;0.5024541901172613;0.4990003798556549;0.49845089487140926;0.5003042727880366;0.4991131925069749
Requisitons per number of slots per link;1;<2-1>;2; ;0.16471188679622922;0.1667231987868872;0.16426227540117652;0.1681189184877971;0.167022955666993;0.16504553497345875;0.16790619564565465;0.16690229107133905;0.1673500334201259;0.16907134316460742
Requisitons per number of slots per link;1;<2-1>;3; ;0.16830454536356904;0.16623436221792134;0.1639921565488815;0.1669724038921678;0.16451561344974328;0.16379594733737868;0.16675663247965772;0.1669323707825738;0.1651053980985445;0.16579314467915504
Requisitons per number of slots per link;1;<2-1>;5; ;0.1680643676320477;0.16566571559687943;0.16837408459722278;0.16470928377731694;0.16686312508740736;0.16870432757190126;0.16633679201903276;0.1677144432746779;0.16724029569329302;0.16602231964926265
Requisitons per number of slots per link;1;<1-2>;1; ;0.5033821251935855;0.49683782185561226;0.5017840187896657;0.4996439567934047;0.4996746909564086;0.5008901958430855;0.5007852120072419;0.5016255135825123;0.4999799542957944;0.49788762782109564
Requisitons per number of slots per link;1;<1-2>;2; ;0.16464005595244044;0.16711936094935503;0.16742791464694418;0.16706951367506795;0.1671988388969521;0.1659365060313269;0.16709511568123395;0.16595197255574615;0.16530689973138757;0.16947145537927366
Requisitons per number of slots per link;1;<1-2>;3; ;0.16682819603337162;0.16721958846581741;0.16413972315226624;0.16705948428896666;0.16663830639107152;0.16526635859889174;0.16479449451351866;0.16568271570465515;0.16626909353325584;0.16414285857643174
Requisitons per number of slots per link;1;<1-2>;5; ;0.1651496228206025;0.16882322872921532;0.1666483434111239;0.1662270452425607;0.1664881637555678;0.1679069395266959;0.16732517779800546;0.16673979815708645;0.1684440524395622;0.16849805822319897
Requisitons per number of slots per link;2;<2-1>;1; ;0.5031187724192906;0.5021751032800756;0.4973444613050076;0.5003707934980859;0.5019106627954543;0.5007861084128621;0.5001898253606681;0.5008766568815061;0.5019241341396372;0.49952434835724946
Requisitons per number of slots per link;2;<2-1>;2; ;0.1664308489438023;0.16595490518142453;0.16802771344141842;0.16635600184394606;0.16642222155706546;0.16467218778477655;0.16518802701514607;0.16397992205267956;0.1672747263731321;0.16676847280774662
Requisitons per number of slots per link;2;<2-1>;3; ;0.16467716221602233;0.16436215220745606;0.16760841785799857;0.16687711703044517;0.164336955111896;0.16789673439549765;0.16665667585821045;0.16939014737854546;0.16402618821530313;0.16640797893113565
Requisitons per number of slots per link;2;<2-1>;5; ;0.16577321642088483;0.16750783933104374;0.16701940739557544;0.1663960876275229;0.16733016053558422;0.16664496940686369;0.16796547176597532;0.16575327368726894;0.16677495127192762;0.1672991999038683
Requisitons per number of slots per link;2;<1-2>;1; ;0.5002558930668032;0.49891518341435975;0.4964594413228769;0.5007932152656522;0.5031969053154814;0.500928588545411;0.49788328546122357;0.4999001996007984;0.4975491667166837;0.5005092463154531
Requisitons per number of slots per link;2;<1-2>;2; ;0.16587891742180208;0.16694121901241513;0.169195637150326;0.16622599151908207;0.16487613244608354;0.16623731927470245;0.16722545261661947;0.16781437125748502;0.16682672108516897;0.1669928505811399
Requisitons per number of slots per link;2;<1-2>;3; ;0.16748452097821398;0.16684077303226325;0.16562002343679577;0.16761287104015965;0.1653571714904193;0.16716590782011342;0.16827630380608294;0.16605788423153692;0.16773703059040074;0.1668929983624236
Requisitons per number of slots per link;2;<1-2>;5; ;0.16638066853318081;0.16730282454096188;0.1687248980900013;0.165367922175106;0.1665697907480157;0.16566818435977315;0.16661495811607402;0.16622754491017963;0.16788708160774662;0.16560490474098336
Requisitons per number of slots per link;3;<2-1>;1; ;0.4990880550156974;0.5015709425655394;0.5023078466787076;0.49933874361286446;0.5001203369434416;0.5007721353777486;0.4979650203497965;0.49863284368513494;0.5004106076993952;0.498414154914125
Requisitons per number of slots per link;3;<2-1>;2; ;0.16752877859171775;0.1654892935761457;0.1662351996789083;0.16699729486023446;0.1661552346570397;0.16615357025435634;0.16555834441655584;0.1677510777582628;0.16576533269238472;0.16721190480939938
Requisitons per number of slots per link;3;<2-1>;3; ;0.1665919170777894;0.1667000200120072;0.16577363034316678;0.16768860835587615;0.16792017649418373;0.1657151966205378;0.16818831811681884;0.166144419607217;0.16775828225774145;0.16666334204384511
Requisitons per number of slots per link;3;<2-1>;5; ;0.16679124931479544;0.1662397438463078;0.16568332329921734;0.16597535317102494;0.16580425190533493;0.1673590977473573;0.16828831711682884;0.1674716589493853;0.1660657773504787;0.16771059823263051
Requisitons per number of slots per link;3;<1-2>;1; ;0.49814398651631286;0.499705209301396;0.4998455421470638;0.49992515044760033;0.49942666839497063;0.5012946607788037;0.49836016398360167;0.49749005540915603;0.5002545951936421;0.4994837040972842
Requisitons per number of slots per link;3;<1-2>;2; ;0.16638910068622337;0.16683154959978416;0.16748213769668463;0.16605622698376263;0.16511950224845698;0.16752308309915698;0.16578342165783422;0.16787070528942016;0.1664253836400124;0.16544526762173054
Requisitons per number of slots per link;3;<1-2>;3; ;0.16808459408483487;0.16602212429175287;0.16735259240067363;0.16668496322391993;0.16787149395259793;0.16610798875953434;0.16746325367463252;0.16736971834513992;0.16582633612556036;0.1682021874906014
Requisitons per number of slots per link;3;<1-2>;5; ;0.16738231871262893;0.16744111680706697;0.16531972775557793;0.1673336593447171;0.16758233540397444;0.16507426736250502;0.16839316068393162;0.1672695209562839;0.16749368504078516;0.16686884079038386
Requisitons per number of slots per link;4;<2-1>;1; ;0.5023479807365665;0.5007832220858651;0.5004016386858382;0.5018411415077348;0.4983963436635529;0.5008090614886731;0.5003550958758864;0.5006110829582376;0.5012895965902867;0.49947056120512257
Requisitons per number of slots per link;4;<2-1>;2; ;0.16777571288691726;0.16716054556157522;0.16812595389187887;0.16650323200384237;0.16658982480054524;0.16862439570098686;0.1678853290388405;0.16796335489512226;0.1647895318615003;0.16575430044153197
Requisitons per number of slots per link;4;<2-1>;3; ;0.16557760326119536;0.1660231275005737;0.16604747369266606;0.166623306449999;0.1662791163853586;0.16467897239202525;0.16599481860102228;0.16486322671674566;0.16604427448988737;0.16849139911693606
Requisitons per number of slots per link;4;<2-1>;5; ;0.16429870311532083;0.166033104851986;0.16542493372961684;0.16503232003842383;0.16873471515054325;0.16588757041831476;0.16576475648425074;0.16656233542989438;0.1678765970583256;0.1662837392364094
Requisitons per number of slots per link;4;<1-2>;1; ;0.5014160620465349;0.500080173174056;0.5010505979944034;0.49953533920238224;0.49836889833298414;0.500475499274238;0.5006497530938243;0.5022038844721747;0.4989858623182585;0.500815774986237
Requisitons per number of slots per link;4;<1-2>;2; ;0.1668051038278709;0.16550749619177424;0.16655214650613928;0.166208667672599;0.16825786370574328;0.1671555132889534;0.16610687938583338;0.16646875314481233;0.16693107880151017;0.1652069465992693
Requisitons per number of slots per link;4;<1-2>;3; ;0.1654340755566675;0.16791269141345305;0.1661936486123144;0.16807730356839506;0.16582368140145054;0.1657940837879774;0.16716647673883925;0.16559323739559223;0.1670616113744076;0.16605775486712376
Requisitons per number of slots per link;4;<1-2>;5; ;0.1663447585689267;0.16649963922071676;0.16620360688714286;0.16617868955662365;0.16754955655982204;0.16657490364883126;0.16607689078150303;0.16573412498742074;0.16702144750582376;0.16791952354737

