Metrics;LoadPoint;Bandwidth;src;dest; ;rep1;rep2;rep3;rep4;rep5;rep6;rep7;rep8;rep9;rep10
bandwidth blocking probability;1;all;all;all; ;0.015954112424341273;0.013438645207149269;0.013801197691915096;0.012530291881207448;0.015169406826459812;0.014445290741785197;0.012372722294893824;0.015723240232365727;0.013940521562556712;0.014822512248447202
bandwidth blocking probability;2;all;all;all; ;0.11098895289734742;0.11282441163723539;0.12115008167253648;0.11391504657210266;0.10940252701297741;0.11656689987282527;0.11823383357391719;0.1166016210018734;0.11510152432043919;0.11868876445780649
bandwidth blocking probability;3;all;all;all; ;0.24731097086553275;0.24087808139092534;0.2420255696094743;0.24257096364521868;0.24658975078905465;0.24267107020207654;0.24677727805643876;0.24459226299510467;0.24384807497957073;0.24063098388524515
bandwidth blocking probability;4;all;all;all; ;0.34766395060827976;0.3551933545273436;0.3556059521628335;0.35985285105136966;0.36108738882801517;0.35930227170791956;0.35423042767889407;0.3514699247573309;0.3553545754929234;0.35722540437036976


bandwidth blocking probabilities per pair;1;all;2;1; ;0.017617412058709328;0.012063037100423071;0.014435521777012158;0.01352745728043215;0.015552509025988459;0.011359105890079728;0.011405361958868767;0.016879978432124756;0.01562290679143159;0.014772822145821984
bandwidth blocking probabilities per pair;1;all;1;2; ;0.014265651835337618;0.014800584006627794;0.013168284181280137;0.011529338734516678;0.014783025856855403;0.017520879643735922;0.01332996230793379;0.0145651432813575;0.012254134382249317;0.014872143220702969
bandwidth blocking probabilities per pair;2;all;2;1; ;0.11092457713227973;0.11496364197950966;0.12167833424659978;0.11253055255069244;0.11032155894288642;0.11736478254701124;0.12254627664022082;0.11503072247110664;0.11502005902817783;0.11730482893481195
bandwidth blocking probabilities per pair;2;all;1;2; ;0.1110533829763535;0.11067087054926887;0.1206222375454062;0.11529722868185409;0.10848171963649292;0.11576540377194486;0.11387519826888515;0.11817622703626343;0.11518309703579528;0.12007409146986621
bandwidth blocking probabilities per pair;3;all;2;1; ;0.24881714869830865;0.23535675552570537;0.23976270751678672;0.2389750473803982;0.24145961542237288;0.24475416882410694;0.24753121220250204;0.24487062979871432;0.23918793511633474;0.24503375931641944
bandwidth blocking probabilities per pair;3;all;1;2; ;0.24580348932561955;0.2463129069775849;0.2442726256612878;0.2461368539913694;0.251650043672138;0.24057079111235527;0.24601996750966723;0.24431356656287867;0.24845898062364308;0.2361810841615738
bandwidth blocking probabilities per pair;4;all;2;1; ;0.34729406311137073;0.3580306320938752;0.35211590355962114;0.3590778286125186;0.35990296626143714;0.3600205319958727;0.3574421148755284;0.35519825011096756;0.35629076316934766;0.35862642820955193
bandwidth blocking probabilities per pair;4;all;1;2; ;0.3480332143054111;0.35233058894793146;0.3590684954376129;0.36062610381026017;0.36227026293022446;0.35858545253334556;0.35099727497293304;0.3477088317904523;0.35441739452590354;0.35581564766082124


bandwidth blocking probabilities per bandwidth;1;320.0Gbps;all;all; ;0.029518506146867945;0.024999602880224535;0.02536729894346481;0.023160903808869086;0.02797776596695729;0.02673772331607177;0.02301032991969046;0.02854555555972072;0.02577438587240427;0.027243775402367068
bandwidth blocking probabilities per bandwidth;1;160.0Gbps;all;all; ;0.0035697529135260164;0.0028717245151797075;0.003024571474355736;0.003051786995323387;0.00342719239029225;0.002914399408757446;0.0028912418103463258;0.004165408191676821;0.0030031364641899773;0.003851291416832187
bandwidth blocking probabilities per bandwidth;1;40.0Gbps;all;all; ;7.356156473579043E-6;0.0;0.0;0.0;0.0;0.0;1.081477690663635E-5;0.0;0.0;0.0
bandwidth blocking probabilities per bandwidth;1;80.0Gbps;all;all; ;6.439077129498461E-4;1.6259298374093526E-4;1.3485033049156692E-4;3.922536822708398E-4;1.7448687239643822E-4;1.4120991317124277E-4;4.969175153327439E-5;3.0804804573045496E-4;1.125111279658204E-4;4.385729159764038E-4
bandwidth blocking probabilities per bandwidth;1;20.0Gbps;all;all; ;0.0;0.0;0.0;0.0;0.0;0.0;3.392182027868431E-5;0.0;0.0;0.0
bandwidth blocking probabilities per bandwidth;1;10.0Gbps;all;all; ;0.0;0.0;0.0;0.0;0.0;0.0;2.301182275752839E-5;0.0;0.0;0.0
bandwidth blocking probabilities per bandwidth;2;320.0Gbps;all;all; ;0.19903367542529943;0.20209461244638163;0.21687999345690426;0.2024511691349904;0.19783059082118926;0.20903532888185902;0.21135250675025746;0.20822986777969518;0.20590258212040755;0.21371604056860088
bandwidth blocking probabilities per bandwidth;2;160.0Gbps;all;all; ;0.03698397079208727;0.03870727654970195;0.038686171427293775;0.043499251306201504;0.033659243783052316;0.040918017045693145;0.039922589666115955;0.041020944608945537;0.03935465028335038;0.03944142540511307
bandwidth blocking probabilities per bandwidth;2;40.0Gbps;all;all; ;1.9253908568625075E-4;1.7285064702033686E-5;3.357619920206401E-4;2.847156639352801E-4;2.290250111819896E-4;2.6639403614110073E-4;1.7536083824673526E-4;2.1528504705898213E-4;7.921727568269218E-5;6.67033673257663E-5
bandwidth blocking probabilities per bandwidth;2;80.0Gbps;all;all; ;0.004858188721364014;0.003591833950731676;0.004578438114045061;0.002940176365985701;0.0036973381071637615;0.0029023306142699963;0.0035789318127089926;0.005164499610956984;0.0042881730270727695;0.004251178214456593
bandwidth blocking probabilities per bandwidth;2;20.0Gbps;all;all; ;1.1043956013061793E-4;8.368307067497395E-5;1.356016717287096E-4;8.780913505204368E-5;1.1964011032640109E-4;6.21029259738606E-5;3.694542154187725E-4;1.4154035489501862E-4;2.0945246243355356E-6;4.492792668465702E-4
bandwidth blocking probabilities per bandwidth;2;10.0Gbps;all;all; ;8.050634085878978E-5;0.0;8.32781386563703E-5;1.5515503937241584E-4;9.916456542389136E-5;1.7928589505646533E-4;8.789649569085231E-5;1.8058620087716247E-4;5.549621364032397E-5;4.403867091694866E-4
bandwidth blocking probabilities per bandwidth;3;320.0Gbps;all;all; ;0.4283856067765539;0.4182696870121067;0.42232341335891255;0.4220661780511506;0.43087037421568625;0.42056096249844477;0.4271210820193866;0.4288384578446246;0.42512837550489935;0.4193590619784856
bandwidth blocking probabilities per bandwidth;3;160.0Gbps;all;all; ;0.11042537861180252;0.10401870187108385;0.10188619194042091;0.10368065825268678;0.10429651343929511;0.10269786711360578;0.10192939541485584;0.09513077934683258;0.10111470418806946;0.10099192426322788
bandwidth blocking probabilities per bandwidth;3;40.0Gbps;all;all; ;4.742541226305058E-4;6.71877592227804E-4;9.571314185311875E-4;0.0011851941065800231;4.897649421294892E-4;2.9786145051600787E-4;8.166814091055244E-4;0.0010096942604336326;8.860936375245103E-5;3.554095716771692E-4
bandwidth blocking probabilities per bandwidth;3;80.0Gbps;all;all; ;0.016291925185954962;0.014552056293678409;0.014988033011916532;0.017393028120280343;0.012231468344382521;0.016853298814266237;0.017613901655375738;0.013450680866906647;0.015338896893238595;0.015259471521231048
bandwidth blocking probabilities per bandwidth;3;20.0Gbps;all;all; ;7.180026695689813E-4;7.868525581610687E-4;8.237475785052509E-4;0.0013651112133301131;0.001132238179915745;4.521669673003846E-4;7.577440342195097E-4;6.71490310981766E-4;5.444619725838337E-4;8.193568005767775E-4
bandwidth blocking probabilities per bandwidth;3;10.0Gbps;all;all; ;4.6647520629826595E-4;5.091745870046662E-4;0.001159968826737379;4.454620741890998E-4;7.967883886833679E-4;3.899000235291692E-4;4.897403129374234E-4;6.491703700962761E-4;9.636485957113419E-4;7.435189229260614E-4
bandwidth blocking probabilities per bandwidth;4;320.0Gbps;all;all; ;0.5930993014299742;0.6041606682730672;0.604730027514208;0.6109433743107954;0.6079479974961791;0.6085795146020729;0.6003534948240802;0.597080593371791;0.5972087039170251;0.6101405072294511
bandwidth blocking probabilities per bandwidth;4;160.0Gbps;all;all; ;0.17363619168275224;0.17812964073503343;0.18271594998494559;0.18234117804423894;0.17971460471225087;0.18063100554303435;0.1833822793220779;0.1720837338665419;0.18330886718784833;0.16837713743410399
bandwidth blocking probabilities per bandwidth;4;40.0Gbps;all;all; ;0.0010285464171027677;0.0020294812055610934;0.002712489352262494;0.0019342947436253508;0.0016211922422666026;0.001766274498038734;0.0015267651175018856;0.001342411121948681;0.0016415426373248007;0.0013611768353091113
bandwidth blocking probabilities per bandwidth;4;80.0Gbps;all;all; ;0.03204281776855785;0.03207826489166356;0.0349566657378565;0.03629225451253936;0.03349524415794246;0.033421911287281544;0.03379600402445989;0.03430264006187741;0.03169558212083247;0.02999267356860703
bandwidth blocking probabilities per bandwidth;4;20.0Gbps;all;all; ;0.002036311015226678;0.0017757586522017346;0.0019046216216409197;0.0019807296951854787;8.787239157960888E-4;0.0018793877818493324;0.0017605920145360263;0.0024279476601333397;0.001473540571038293;0.0018623835817059967
bandwidth blocking probabilities per bandwidth;4;10.0Gbps;all;all; ;0.001274347175353038;0.0020626182536296576;0.002127455388217583;0.001965958920270616;0.0022811987977435296;0.002110951763129466;0.0016236151480814448;0.0025510999935311777;0.0014787494330266771;0.002511212145561693


bandwidth blocking probabilities per pair and bandwidth;1;320.0Gbps;2;1; ;0.03240649512645892;0.02239577329895338;0.026404352179404716;0.02486046601770193;0.028534972017559095;0.021144973101717344;0.02168447174550406;0.030377089832031547;0.02867443033301197;0.027505496648141073
bandwidth blocking probabilities per pair and bandwidth;1;320.0Gbps;1;2; ;0.026559426514959166;0.02755831323444176;0.024321587156695294;0.021459967216144397;0.0274110688965281;0.03234934828522936;0.024302270759730862;0.02671285943887801;0.022879987046098414;0.026985500088697396
bandwidth blocking probabilities per pair and bandwidth;1;160.0Gbps;2;1; ;0.003958431912896801;0.0029028227212012578;0.00315175230222774;0.0036182101176689668;0.003562965959929872;0.001900313272737238;0.0020528016575901056;0.0049531775781745625;0.003941574781924029;0.003242998008537726
bandwidth blocking probabilities per pair and bandwidth;1;160.0Gbps;1;2; ;0.0031757186521285973;0.0028410470029747326;0.002899107555263694;0.0024840946926864027;0.003291998382949482;0.00390753836969064;0.003738264886823602;0.0033717995940219154;0.002077937038696717;0.004468464354759856
bandwidth blocking probabilities per pair and bandwidth;1;40.0Gbps;2;1; ;1.4748640992846172E-5;0.0;0.0;0.0;0.0;0.0;2.1393551187806605E-5;0.0;0.0;0.0
bandwidth blocking probabilities per pair and bandwidth;1;40.0Gbps;1;2; ;0.0;0.0;0.0;0.0;0.0;0.0;0.0;0.0;0.0;0.0
bandwidth blocking probabilities per pair and bandwidth;1;80.0Gbps;2;1; ;8.45792048255426E-4;2.187215649646582E-5;1.583542825796155E-4;4.954120031244636E-4;2.485207130047447E-4;1.4507686561149378E-4;0.0;4.599928945659599E-4;1.4386846632046915E-4;8.143159732587628E-4
bandwidth blocking probabilities per pair and bandwidth;1;80.0Gbps;1;2; ;4.416536766208235E-4;3.0532747400579597E-4;1.1182636529571003E-4;2.87862075110428E-4;9.963436162853482E-5;1.3737179863396062E-4;9.872620183667854E-5;1.549870096802229E-4;8.014266052983769E-5;5.881118221101303E-5
bandwidth blocking probabilities per pair and bandwidth;1;20.0Gbps;2;1; ;0.0;0.0;0.0;0.0;0.0;0.0;6.757994335714819E-5;0.0;0.0;0.0
bandwidth blocking probabilities per pair and bandwidth;1;20.0Gbps;1;2; ;0.0;0.0;0.0;0.0;0.0;0.0;0.0;0.0;0.0;0.0
bandwidth blocking probabilities per pair and bandwidth;1;10.0Gbps;2;1; ;0.0;0.0;0.0;0.0;0.0;0.0;4.600273952820021E-5;0.0;0.0;0.0
bandwidth blocking probabilities per pair and bandwidth;1;10.0Gbps;1;2; ;0.0;0.0;0.0;0.0;0.0;0.0;0.0;0.0;0.0;0.0
bandwidth blocking probabilities per pair and bandwidth;2;320.0Gbps;2;1; ;0.20024283916326105;0.20542060222673303;0.2169203241301003;0.19836095710720145;0.1996976989979572;0.2101788998886872;0.218210476988162;0.2053073008975682;0.20366755899547048;0.21144501804447247
bandwidth blocking probabilities per pair and bandwidth;2;320.0Gbps;1;2; ;0.19781558282819625;0.19872923325217368;0.21683973267825107;0.20654936283501582;0.1959581644436152;0.20787256879836447;0.20434027780237987;0.21115221872814433;0.2081625718054296;0.21597635232157844
bandwidth blocking probabilities per pair and bandwidth;2;160.0Gbps;2;1; ;0.03377393079421938;0.0399557950763462;0.040009474804928793;0.045363938815189915;0.0331724135328937;0.040044845574067185;0.040459561373180346;0.04054797030201294;0.041694475618952155;0.03940758190754119
bandwidth blocking probabilities per pair and bandwidth;2;160.0Gbps;1;2; ;0.040136001257202666;0.03746298508082042;0.03735249307807292;0.041635122846150514;0.034145401900734854;0.04177809701210912;0.03938465083142825;0.04150603933838214;0.03706724255752822;0.03947572603928557
bandwidth blocking probabilities per pair and bandwidth;2;40.0Gbps;2;1; ;3.848382565362119E-4;0.0;6.499476904017665E-4;6.184752773573092E-5;4.233475514124083E-4;3.238274838886273E-4;1.2482081122448663E-4;1.2949270020386916E-4;1.5611724067030408E-4;8.589894547934654E-5
bandwidth blocking probabilities per pair and bandwidth;2;40.0Gbps;1;2; ;0.0;3.483983669331849E-5;1.8303604564255158E-5;5.059579979919929E-4;3.269219595381338E-5;2.0833723432511303E-4;2.26018690458576E-4;3.007068700142647E-4;0.0;4.775098752821373E-5
bandwidth blocking probabilities per pair and bandwidth;2;80.0Gbps;2;1; ;0.0038367927691532176;0.002990517048035116;0.005912520556741611;0.003147091288601216;0.004082489046722582;0.0021278021813587607;0.004303767511099337;0.005593490688462144;0.004889257005505459;0.00431865817041287
bandwidth blocking probabilities per pair and bandwidth;2;80.0Gbps;1;2; ;0.0058943177358671784;0.004189929597868946;0.0032741695837701992;0.0027355853669250875;0.0033116394042445054;0.0036739466983172473;0.0028633207784528837;0.0047463147336172535;0.0036892538946860657;0.0041833079541996375
bandwidth blocking probabilities per pair and bandwidth;2;20.0Gbps;2;1; ;2.165350878049832E-4;9.527134393477765E-5;2.0337406148660737E-4;1.7699660323404205E-4;1.557803893607665E-4;7.012689373776016E-5;6.654754629084787E-4;7.973025028872827E-5;4.195422258427557E-6;5.131580168901763E-4
bandwidth blocking probabilities per pair and bandwidth;2;20.0Gbps;1;2; ;6.1807862688734425E-6;7.164573246485504E-5;6.666046824481967E-5;0.0;8.360107131067598E-5;5.404941110939556E-5;7.663005445532118E-5;2.0257183117834107E-4;0.0;3.8558609007546926E-4
bandwidth blocking probabilities per pair and bandwidth;2;10.0Gbps;2;1; ;1.1282294207372091E-4;0.0;1.6582159033991993E-4;2.603093521438472E-4;1.1207016369974102E-4;8.472942394064779E-5;7.450284210838981E-5;1.6307440730553032E-4;1.1069773998002519E-4;6.694602226545161E-4
bandwidth blocking probabilities per pair and bandwidth;2;10.0Gbps;1;2; ;4.738554339016786E-5;0.0;1.4023501674618177E-6;5.129351805158827E-5;8.618478327997793E-5;2.7189785057420585E-4;1.018797348275595E-4;1.9789979399359277E-4;0.0;2.0932426023851535E-4
bandwidth blocking probabilities per pair and bandwidth;3;320.0Gbps;2;1; ;0.42922391869651333;0.41119730384473174;0.416241375715423;0.4176613425657911;0.42630814681569623;0.4235361783216521;0.42872429825339564;0.42835916783451117;0.41887795509331643;0.42568483810917274
bandwidth blocking probabilities per pair and bandwidth;3;320.0Gbps;1;2; ;0.4275502169769269;0.4251961319091769;0.4283679614341348;0.42639952461279773;0.43535268843705915;0.4175479928019373;0.4255150616694282;0.4293190878469188;0.4312965441596007;0.412937507106732
bandwidth blocking probabilities per pair and bandwidth;3;160.0Gbps;2;1; ;0.11681966464671331;0.0978690542228868;0.10507273545493134;0.10113254239737737;0.0948063065121257;0.10278592167850932;0.10228185279411474;0.09663545140400456;0.09750945619443581;0.10447983931084223
bandwidth blocking probabilities per pair and bandwidth;3;160.0Gbps;1;2; ;0.10409590404166684;0.11009704614914052;0.0987590920384537;0.10623054026280052;0.11360669835317468;0.10260944668829305;0.10157558207225911;0.09363868333220442;0.10467090177550403;0.09751189506450318
bandwidth blocking probabilities per pair and bandwidth;3;40.0Gbps;2;1; ;5.026248036337161E-4;8.396184205691658E-4;9.241223180256195E-4;0.0013185750697011554;4.60733243635339E-4;3.405998076402161E-4;8.513828520824282E-4;7.166330945740208E-4;2.3817828074581042E-5;2.5186561968515745E-4
bandwidth blocking probabilities per pair and bandwidth;3;40.0Gbps;1;2; ;4.4530091376319487E-4;5.090362808929385E-4;9.899841183690823E-4;0.0010506148997382132;5.185268636654972E-4;2.5462776539011446E-4;7.821074899088969E-4;0.001309265437917224;1.5290574124026868E-4;4.5909515175140807E-4
bandwidth blocking probabilities per pair and bandwidth;3;80.0Gbps;2;1; ;0.016741689149953415;0.015421012339624559;0.015391402713336751;0.01737765551131306;0.013048746099843658;0.017903317081942052;0.018605723038859375;0.01426752833408776;0.013313443010372879;0.015216831062435288
bandwidth blocking probabilities per pair and bandwidth;3;80.0Gbps;1;2; ;0.01582888600439536;0.013688596881864547;0.014579924394396464;0.017408376685914273;0.01141217713637643;0.015806960900911323;0.016595726407465993;0.012631848565473695;0.017356817913547148;0.015303329295262616
bandwidth blocking probabilities per pair and bandwidth;3;20.0Gbps;2;1; ;6.924081779704117E-4;5.651846386609562E-4;9.063668901196254E-4;0.0014694862567329904;0.0013448668548669163;3.088065122872209E-4;7.798365537965577E-4;7.472643290222277E-4;7.359535652266778E-4;7.575510506733498E-4
bandwidth blocking probabilities per pair and bandwidth;3;20.0Gbps;1;2; ;7.437644310601117E-4;0.0010127456649692008;7.429614449432463E-4;0.001262044356708264;9.147748004127434E-4;5.994016820873522E-4;7.360419805008916E-4;5.952016390474705E-4;3.4650754977211853E-4;8.807530942909305E-4
bandwidth blocking probabilities per pair and bandwidth;3;10.0Gbps;2;1; ;4.071316867326402E-4;1.539866703906898E-4;0.0017349653670822981;2.9679098809365877E-4;5.60489473784788E-4;6.500862060141908E-4;3.708625172938521E-4;3.390848076861539E-4;0.0010433655198367868;7.436461323008174E-4
bandwidth blocking probabilities per pair and bandwidth;3;10.0Gbps;1;2; ;5.259380232111594E-4;8.612680597642827E-4;5.687618731004118E-4;5.918261927405395E-4;0.001029341293584917;1.3637946110991203E-4;6.094593787987276E-4;9.585307908305981E-4;8.864799256764941E-4;7.433903490562712E-4
bandwidth blocking probabilities per pair and bandwidth;4;320.0Gbps;2;1; ;0.5913243380631752;0.6075789907729191;0.6008059158789593;0.6080728178948088;0.6046081863556296;0.6091849296043199;0.6029936511911151;0.599062328755691;0.5994071084636471;0.6113245810084217
bandwidth blocking probabilities per pair and bandwidth;4;320.0Gbps;1;2; ;0.5948630616582276;0.6007230925380331;0.6086258938531138;0.6138163331881548;0.6113070637850319;0.6079687707873049;0.5977121845641213;0.5950853936323124;0.59501436544536;0.6089539313964509
bandwidth blocking probabilities per pair and bandwidth;4;160.0Gbps;2;1; ;0.17751324064494925;0.18258918652276845;0.17901315861854672;0.18414911638241543;0.1787597455634433;0.17910807712261986;0.1945223532548253;0.18450280600657223;0.18386574137027525;0.1726822938394032
bandwidth blocking probabilities per pair and bandwidth;4;160.0Gbps;1;2; ;0.16975889864423885;0.17363284296448914;0.1863618534166974;0.18057184084453404;0.1806606978990585;0.18210848723703896;0.1721731002277792;0.15962577263868913;0.18275241701281925;0.164024021547838
bandwidth blocking probabilities per pair and bandwidth;4;40.0Gbps;2;1; ;0.001452033596273737;0.00246841847380283;0.00216990872459049;0.002012375975595627;0.002039177957468173;0.001817694282241629;0.0017370234092563158;0.0014585528467384262;0.0015640829412571276;0.0015114875883866347
bandwidth blocking probabilities per pair and bandwidth;4;40.0Gbps;1;2; ;5.983699287751076E-4;0.001581839893411467;0.00324633726849918;0.001854659979855374;0.001198451301577064;0.0017153175344789703;0.001312934891596999;0.001223512514277587;0.0017225275927252367;0.0012094217728386774
bandwidth blocking probabilities per pair and bandwidth;4;80.0Gbps;2;1; ;0.03325554898414207;0.03552050626648899;0.031353744057908084;0.03757028098050346;0.032329219445937946;0.03149357135879895;0.03345462080018132;0.0340076335222442;0.03318596233779187;0.03164795518659873
bandwidth blocking probabilities per pair and bandwidth;4;80.0Gbps;1;2; ;0.030828423736681362;0.02858158910895009;0.038598739073016614;0.03499866807434261;0.03463970431225741;0.03536977211248096;0.03414521726999229;0.034604434222159655;0.030213972194941666;0.028308819816801178
bandwidth blocking probabilities per pair and bandwidth;4;20.0Gbps;2;1; ;0.001937772698580152;0.0021338890425256635;8.911172264030923E-4;0.0017826962273477073;0.0010051379714143434;0.0014391028945597876;0.0013027890607135162;0.00262318655403327;0.0013130079734992308;0.001753595915127392
bandwidth blocking probabilities per pair and bandwidth;4;20.0Gbps;1;2; ;0.00213565066678942;0.0014126290748552011;0.0029006684034660435;0.002179230425696019;7.537062537077068E-4;0.0023252479724157954;0.0022322972753551964;0.0022332249512975097;0.0016350194144097172;0.001970998785582073
bandwidth blocking probabilities per pair and bandwidth;4;10.0Gbps;2;1; ;0.0013009995049147293;0.0019709218684353168;0.0017942291251733936;0.0013029052387542842;0.0024839080528803177;0.0023276132561675824;0.001732877656755699;0.003493509170314734;0.0012407061309580318;0.002398013718556065
bandwidth blocking probabilities per pair and bandwidth;4;10.0Gbps;1;2; ;0.001247601643268883;0.002155979372527521;0.0024585480164393226;0.0026274286502220626;0.002077637714281004;0.0018930254521854948;0.001514934387625962;0.0015971956095336636;0.0017159267838200228;0.0026216984142414254


