Metrics;LoadPoint;link; ;rep1;rep2;rep3;rep4;rep5;rep6;rep7;rep8;rep9;rep10
External Fragmentation (Vertical);1;all; ;0.6523325059718519;0.6519973824157579;0.6521831159715274;0.651576698307523;0.6547400755305093;0.6520601946905087;0.6509766430912026;0.6530544356300615;0.6510078893284419;0.6545729689383749
External Fragmentation (Vertical);2;all; ;0.7164293958342057;0.7173002146888314;0.7148594448507325;0.7156009232904506;0.7180877837915589;0.7140408665418996;0.7157014354143211;0.7115757210035675;0.7193961787802734;0.722106720287257
External Fragmentation (Vertical);3;all; ;0.7940018785471793;0.7990965427763179;0.7971721741758074;0.7950455965023075;0.7986364126326196;0.8029711482285983;0.8001633433426169;0.7940382117965556;0.7962190245032273;0.791764276339799
External Fragmentation (Vertical);4;all; ;0.8110913109185868;0.8128045149195052;0.8096356762488227;0.8117293169845282;0.8089805039596292;0.8094822669509886;0.8120397113779122;0.8108298101530123;0.8118754860992831;0.8104859136225515
External Fragmentation (Vertical);5;all; ;0.8008185828222649;0.7967135627797101;0.8001382350946865;0.796140368425201;0.796746974184015;0.7993889609354673;0.7983234293188344;0.7966255869050844;0.7956888213286019;0.7984610384722605
External Fragmentation (Vertical);6;all; ;0.7803512560159539;0.7828411121977337;0.7792093912870787;0.782594370084871;0.777300293730249;0.7837423313830559;0.784235862483691;0.7832950381047381;0.7812607168298956;0.782916929117365

External Fragmentation (Horizontal);1;all; ;0.6416777049283067;0.6406299666737291;0.6409295160211763;0.6400461985417361;0.6437779304132232;0.6413113663278769;0.6400291009196419;0.6420330144210319;0.6396384637073621;0.6441416043291426
External Fragmentation (Horizontal);2;all; ;0.6895474774661912;0.6924296583305191;0.6894128894522594;0.6902535396105848;0.6919687456026224;0.6888321412224101;0.6891571882729961;0.6866217634260693;0.6956286912598049;0.6967391300203462
External Fragmentation (Horizontal);3;all; ;0.7170632000109661;0.7132133320597474;0.7121533765966288;0.7119267010862039;0.7133052688592896;0.7230168331296848;0.7180819397259298;0.7136013603420887;0.7106060592190073;0.7092831966071981
External Fragmentation (Horizontal);4;all; ;0.648293191010714;0.6495980050296227;0.6431213484980395;0.6493848553444144;0.6490837659503692;0.6470428625584933;0.6487377775162746;0.6502997591534357;0.6516460768591968;0.6488077132939057
External Fragmentation (Horizontal);5;all; ;0.5669269996097198;0.5641279113062878;0.5679362648871591;0.5671004996731447;0.5610431738020986;0.5684853778063994;0.5634776005079428;0.5632076652092723;0.5619609308318072;0.5683956097653443
External Fragmentation (Horizontal);6;all; ;0.49617812779732595;0.49471707522549696;0.498558047696551;0.49937579126971093;0.4921048599872507;0.4930988283741136;0.5017658570513059;0.4994719803003445;0.4960281282353996;0.4962778138917662

External Fragmentation Per Link;1;<5-4>; ;0.6470990098819648;0.646718395374425;0.645214378921686;0.648740862015499;0.6532913320462831;0.6501295373267513;0.6459997244758852;0.6488006987109335;0.6480170554717611;0.6511670809579114
External Fragmentation Per Link;1;<2-5>; ;0.6492002958651989;0.6517314091158765;0.6514826761001301;0.6494314955318586;0.6535321471734332;0.6505020884612587;0.6484889757555453;0.6549580015926282;0.6490314857950541;0.6540641677183944
External Fragmentation Per Link;1;<5-6>; ;0.6463396696838924;0.6537827961815135;0.6503886982144327;0.6484427315066352;0.6500135087586688;0.6442482579835265;0.6486865236856356;0.6476197993321785;0.6469028913170156;0.6499760875991942
External Fragmentation Per Link;1;<6-1>; ;0.6557545514805404;0.6570015577093516;0.6583135509744424;0.6601005255082819;0.6612971906726259;0.6609582808786102;0.6547468624503813;0.6599828831988429;0.6570484671601734;0.6581987118339798
External Fragmentation Per Link;1;<1-6>; ;0.6597787819430052;0.6616794741278055;0.6600987494521823;0.6544948530793391;0.6625254129424126;0.6572314430850353;0.6556893291092772;0.6579577761106471;0.6532476795641347;0.6595752085491768
External Fragmentation Per Link;1;<2-3>; ;0.6474087511210864;0.6451124589654915;0.6490642073822018;0.6488180319360506;0.6519072646155677;0.6502367529370332;0.650240674143094;0.6509811973784145;0.651719020631887;0.6569170175122284
External Fragmentation Per Link;1;<5-2>; ;0.6523387897960103;0.6525867451655238;0.6499611239908195;0.6507566363490962;0.6575032535005864;0.6554929921798374;0.649475398573196;0.653630198358243;0.6525804393109222;0.65412059384042
External Fragmentation Per Link;1;<6-5>; ;0.6501107933351334;0.6445402304162513;0.6464557296000308;0.6479389226292283;0.6552190123383649;0.6499872330024674;0.6443685656321708;0.6488519772127134;0.6455195240654086;0.6507186219848815
External Fragmentation Per Link;1;<4-3>; ;0.6595230562944643;0.6546688685062102;0.6545554030310329;0.654627996540226;0.6581557008383133;0.6589060130163984;0.6558261467834271;0.6602209923764353;0.653580486932052;0.6580365465151197
External Fragmentation Per Link;1;<4-5>; ;0.6466736620883804;0.6519349993048394;0.6506729131240534;0.6500377340039888;0.6500246732982574;0.6456239514513243;0.6490841867747453;0.6493561502114046;0.6468035184153345;0.6521493245147285
External Fragmentation Per Link;1;<2-1>; ;0.653986063868217;0.6531068266118379;0.6529301015402998;0.6476328759980865;0.650530731187618;0.6475701393233245;0.6524738590663461;0.6513999189920588;0.6479033765206187;0.6523192347014584
External Fragmentation Per Link;1;<3-4>; ;0.6603613873380704;0.6587849513603357;0.6592652821295603;0.6596468721838697;0.6571896018053479;0.655973261731877;0.6573446371799254;0.6580569085694885;0.6596758763177175;0.657441179628462
External Fragmentation Per Link;1;<1-2>; ;0.6504659468527095;0.6433986309487019;0.6487704965587034;0.6504438288976775;0.6538744393384621;0.6511066686631845;0.649348192241582;0.6495080886924066;0.653403781669905;0.6554629676485394
External Fragmentation Per Link;1;<3-2>; ;0.6536143240563013;0.6529160100311479;0.6533903125809774;0.6509604101245461;0.6512967889099718;0.6508761056254486;0.6518999274046158;0.6514375080834549;0.6486768474249147;0.653874822131638
External Fragmentation Per Link;2;<5-4>; ;0.7059081770232575;0.7165987931895584;0.6976417305729463;0.7043129646559855;0.7180323244863295;0.7005071419199601;0.7049291152922338;0.702817420285408;0.706966959976063;0.7128813671358595
External Fragmentation Per Link;2;<2-5>; ;0.7206113590385812;0.7155729902175472;0.7226783953635647;0.7235927556989783;0.7217727400532553;0.7088593937908709;0.7190701278787506;0.7104757169067217;0.7200571350779592;0.7218638238838349
External Fragmentation Per Link;2;<5-6>; ;0.7070395202214068;0.695421897845504;0.7032217454888965;0.7127735343648439;0.7106281172117331;0.7101275811564566;0.707052781298814;0.6977377819875611;0.7101792454790633;0.7165997540995982
External Fragmentation Per Link;2;<6-1>; ;0.7337074657204092;0.7322704111571674;0.7388307313346127;0.739294128542843;0.73679265438043;0.7376546245725331;0.7381598133237959;0.7292750345259957;0.7389348333188025;0.7339997864058875
External Fragmentation Per Link;2;<1-6>; ;0.7305735676629187;0.7387479407948886;0.736351606850205;0.7327225435412997;0.7229974066483559;0.7237391105155864;0.7405424268763339;0.7271641988947029;0.7457202066148031;0.7400012415545959
External Fragmentation Per Link;2;<2-3>; ;0.7065888006515924;0.7205996325538087;0.7027173875622861;0.6985862095513805;0.7058349774265738;0.7037261283131163;0.707409270116214;0.7049897395914079;0.7125240378900051;0.7088450108226247
External Fragmentation Per Link;2;<5-2>; ;0.7100190892204309;0.7264191893283389;0.7106653050213675;0.7123106604228527;0.723072221841314;0.7140381730545594;0.714127843828074;0.7195350297010195;0.7130011577380135;0.7242807095365186
External Fragmentation Per Link;2;<6-5>; ;0.7064009218945068;0.7141983345999693;0.6998776965112772;0.7038725679159133;0.7177678208407711;0.6962853174499105;0.6996124281561249;0.6995829259994729;0.7103983572355842;0.7078184569030254
External Fragmentation Per Link;2;<4-3>; ;0.7386398951552707;0.732129795291707;0.7377016707446644;0.730888895876202;0.7437966844062815;0.7298910306175493;0.7364989541326094;0.7329685587425238;0.7341066814583537;0.7399110107075492
External Fragmentation Per Link;2;<4-5>; ;0.7080916691173134;0.7008089074465811;0.7052224277942709;0.7151771800490844;0.7059034363488226;0.7145838164811311;0.6990718293309001;0.6960661777302646;0.7126857020507448;0.719182864181148
External Fragmentation Per Link;2;<2-1>; ;0.7076551573827254;0.7009048158573787;0.7023888572363292;0.7002347321166567;0.7044312938150563;0.7060995850116232;0.7096650181372408;0.7100032720658233;0.7067391656523749;0.7154656311961655
External Fragmentation Per Link;2;<3-4>; ;0.7349833767388917;0.7252340987228041;0.7346875588026371;0.7380327216159996;0.7284179763822319;0.7365468747041317;0.7231576654465462;0.7269617926902755;0.7437832591608088;0.7448659191092085
External Fragmentation Per Link;2;<1-2>; ;0.7085725217881076;0.7182159360210792;0.7037915168825573;0.7060738823640279;0.7089739384028909;0.703813184934287;0.7118301586634924;0.7016160680950035;0.7106031501053375;0.7077808476997681
External Fragmentation Per Link;2;<3-2>; ;0.7112200200634579;0.705080262617321;0.7122555977446366;0.70054014935101;0.7048073808378695;0.7107001690649298;0.7086926633191393;0.7028663768334693;0.7058466111661353;0.7159976607855836
External Fragmentation Per Link;3;<5-4>; ;0.7775656010975085;0.7932843499185599;0.778255376056336;0.7906697386140249;0.8058972707778561;0.7910757961219217;0.7928491853219708;0.7730403141264891;0.7831219791685188;0.7791409837211448
External Fragmentation Per Link;3;<2-5>; ;0.7966610695958919;0.808178314316995;0.8039414212220525;0.7996929466479092;0.8083211257647455;0.8022283424733951;0.8054997196276219;0.7924575908946806;0.7933033550907926;0.8036417029451555
External Fragmentation Per Link;3;<5-6>; ;0.7659430955517533;0.7848032371603686;0.7946673912221921;0.7867763979247919;0.7857129479616938;0.8003240326267743;0.7883317149391816;0.7904563867785573;0.7821252055758569;0.7786751276554625
External Fragmentation Per Link;3;<6-1>; ;0.8102643435926133;0.8146271933115297;0.8193116466750655;0.8210266857034694;0.821608872627816;0.8176903199941319;0.8161478288640469;0.8121636459454047;0.8237233637737202;0.8222589794056018
External Fragmentation Per Link;3;<1-6>; ;0.8102589475570231;0.8200720277649418;0.8144894297350279;0.816115831983036;0.8121368322034747;0.8195441745644118;0.8253055559308112;0.8188298562520954;0.8136157138981912;0.8024797840445453
External Fragmentation Per Link;3;<2-3>; ;0.7895121029735782;0.7882959070802846;0.7886492377948577;0.7772931626183317;0.7926809282163261;0.7887103571732608;0.7897329132710732;0.7855802206157149;0.7899864044748721;0.7801800395684144
External Fragmentation Per Link;3;<5-2>; ;0.7996500204574604;0.7963149138055303;0.7898611537164836;0.797880124382399;0.8028329309023404;0.8094382163835638;0.8081597451418608;0.8075311162453935;0.7836470394417109;0.7818579897717381
External Fragmentation Per Link;3;<6-5>; ;0.7930729466957106;0.7917358730081868;0.7881161122904576;0.7863710066449809;0.792556887211663;0.7893578576898768;0.7944160918261788;0.782768660887146;0.7891341986774039;0.7799044348689794
External Fragmentation Per Link;3;<4-3>; ;0.8288525155971482;0.814563472688062;0.8172939667473023;0.8224194268456367;0.8182517480073781;0.8227339075355691;0.8162857732600687;0.8169832528155887;0.8181240139762717;0.8197761933790415
External Fragmentation Per Link;3;<4-5>; ;0.7806388788629832;0.7961288737594734;0.7871044793656972;0.786910041683034;0.7872394855707339;0.803440121287916;0.7965419344662006;0.784522969558417;0.7872054168141328;0.7863783402918162
External Fragmentation Per Link;3;<2-1>; ;0.7836445994114919;0.7937386879474955;0.7910203011009664;0.7840451535991922;0.7772220856123897;0.8006204627938485;0.7850832644733086;0.7792441275435505;0.7803931786022937;0.7779679415518359
External Fragmentation Per Link;3;<3-4>; ;0.810386746533234;0.8113240275427529;0.8172408082858247;0.8124422132341864;0.8058537913798635;0.816938521493226;0.8174866215988594;0.7981940053760005;0.8199828494399481;0.8134890558760522
External Fragmentation Per Link;3;<1-2>; ;0.7824469608447604;0.7835573418384627;0.7811750875057215;0.7715079668762967;0.785066605857804;0.7845479973828723;0.7811300595642093;0.789828703234132;0.7922715069364159;0.7766220926706928
External Fragmentation Per Link;3;<3-2>; ;0.7871284708915967;0.7907273787282731;0.7892840267449027;0.7774876542769761;0.7855282647639749;0.794945967682456;0.785316398513152;0.7849341148803708;0.7904321171771908;0.7823272030083349
External Fragmentation Per Link;4;<5-4>; ;0.8026339550966402;0.8042765092143614;0.7984848199793391;0.7972377505964053;0.7950036043759473;0.7958156720302674;0.7934252282164374;0.7947463623529352;0.7980701775556783;0.8001723396168969
External Fragmentation Per Link;4;<2-5>; ;0.8300828768091102;0.8366974883780842;0.8263452622038167;0.8292938734610926;0.8179037518672531;0.8300890496297898;0.8308253621683295;0.8365925232349551;0.8288201019090473;0.8212371006125435
External Fragmentation Per Link;4;<5-6>; ;0.7975314489437731;0.7979126929479493;0.7926578630855537;0.8020008725453703;0.78622222829722;0.7866631792196437;0.7941896496832722;0.8002290849642199;0.7927477487191711;0.8034402504204444
External Fragmentation Per Link;4;<6-1>; ;0.8305485197437863;0.8418426656821494;0.838558830184443;0.8319556271240263;0.8331927918972086;0.8388371289837592;0.8354292921686757;0.8373361890683666;0.8449558856082551;0.836536683368253
External Fragmentation Per Link;4;<1-6>; ;0.8430997950117886;0.8338593605951158;0.8307582157667713;0.8424319492345556;0.829146306115164;0.8335328419388163;0.8342520722040524;0.8332016718284648;0.835383116818524;0.8328223035370401
External Fragmentation Per Link;4;<2-3>; ;0.7971057158827999;0.785081514687833;0.7947099494676326;0.7848369462271503;0.7899163404455992;0.7926378229353668;0.793916247102094;0.7868143386893071;0.7868772435463335;0.7833506464281353
External Fragmentation Per Link;4;<5-2>; ;0.8278186817279036;0.8371482821700083;0.8286934662618635;0.8326034285372107;0.8288500996773127;0.8270919945050148;0.8320032513053023;0.8307576778665448;0.8293065124655781;0.8305959569597763
External Fragmentation Per Link;4;<6-5>; ;0.8029115932679856;0.7920719318157882;0.7987561073603167;0.7969427159428335;0.7980271891980041;0.7971123323882009;0.8060203769491835;0.7868148512778468;0.7966949571686944;0.7954194210240572
External Fragmentation Per Link;4;<4-3>; ;0.8327682271316997;0.8347882269596958;0.8402631232154185;0.8407023597120424;0.8371181049719236;0.8306186081365021;0.833797110686612;0.8303262074439548;0.8332896140560807;0.8358274392671806
External Fragmentation Per Link;4;<4-5>; ;0.7903866265240107;0.8011849583889759;0.782367831788648;0.7910677941978628;0.7914596929241489;0.7993694593966926;0.790247644524958;0.8003683367499266;0.7962592078518096;0.7923757319437953
External Fragmentation Per Link;4;<2-1>; ;0.7866431912520684;0.799604078777845;0.790764477867295;0.7970883387093823;0.7928239984230295;0.7919316226947493;0.79701908569155;0.7923015857746436;0.7914824559203478;0.7851134885817609
External Fragmentation Per Link;4;<3-4>; ;0.835077783907042;0.8337272887683599;0.8302259599309928;0.8360326581469639;0.8381647727700549;0.8289918399761343;0.8353051926692957;0.835042626304017;0.8392627194522071;0.8424079041147046
External Fragmentation Per Link;4;<1-2>; ;0.7889932634698141;0.790905080032227;0.7914680263572492;0.7934330213700159;0.7929794502855809;0.788003333042055;0.7997422131376609;0.7944435302385806;0.7950342625701693;0.7964141744258525
External Fragmentation Per Link;4;<3-2>; ;0.7896766740946553;0.7901631304571605;0.7908455340171259;0.7885831019813216;0.7949187241892344;0.7920568524395105;0.792383232786035;0.7926423563511492;0.7980728017507613;0.7910893504184516
External Fragmentation Per Link;5;<5-4>; ;0.7820611135474019;0.7825384833735325;0.7779561571080051;0.7733373620621279;0.7707080967456408;0.7780930516298318;0.7791191091756151;0.7817878270116598;0.784664512542699;0.7736100920901481
External Fragmentation Per Link;5;<2-5>; ;0.8225842704400059;0.8200778049940607;0.8150049122264064;0.8229749368767684;0.8150667848823131;0.8188347441367039;0.826032053706829;0.8160646100891391;0.8224918912975367;0.8169635443177778
External Fragmentation Per Link;5;<5-6>; ;0.7825120269710527;0.7810091119659883;0.7750231386482761;0.7828468374246991;0.778510705709623;0.7842949132616965;0.7700645256776507;0.7676153900361566;0.7783013156243928;0.7764133498730325
External Fragmentation Per Link;5;<6-1>; ;0.8268734139586661;0.8227509920603954;0.8335004851645044;0.8366974505797958;0.8333351989625691;0.8337265638278294;0.8337292590010124;0.8359463848623917;0.816786587755419;0.8385286511363228
External Fragmentation Per Link;5;<1-6>; ;0.8380017315571486;0.8322241631301007;0.8286021664361581;0.8361759014729758;0.8311146906661392;0.8285159585406724;0.8309913924668458;0.8267181700097167;0.8303704081003866;0.8366849085356093
External Fragmentation Per Link;5;<2-3>; ;0.7746767156559115;0.7689209890202428;0.7735462003992136;0.7703863353374125;0.7827270737091664;0.7793021511987106;0.7771514976765826;0.774328231556837;0.7767987813171917;0.7667818672718244
External Fragmentation Per Link;5;<5-2>; ;0.823477164729123;0.8201129911103759;0.8250105164158322;0.8112519347882408;0.8182909330766748;0.8173770764565731;0.825675476843091;0.8172467979174253;0.8192439317155481;0.821805800516212
External Fragmentation Per Link;5;<6-5>; ;0.7764408023654098;0.7818500904253619;0.7856254200826633;0.7771568925777661;0.7779800070068512;0.7842603699867603;0.7731649175400609;0.7782326121474689;0.7766540410040169;0.7834746248100466
External Fragmentation Per Link;5;<4-3>; ;0.8409391737112641;0.8311176208649368;0.8377541900191433;0.8275576283671138;0.8277429432716045;0.8284388064193732;0.833748733592389;0.8340562500252319;0.8285710106706764;0.8362299584840742
External Fragmentation Per Link;5;<4-5>; ;0.7819320097357605;0.768933478698511;0.7820545849447437;0.7754866308211679;0.7828495906363502;0.7743728550839063;0.7770748927372317;0.7738116775108175;0.7789830344419794;0.7814285960283044
External Fragmentation Per Link;5;<2-1>; ;0.7781150025218522;0.7802225342147301;0.7846162579043438;0.7779669004080186;0.7730955969131023;0.7814169053394596;0.7642804831740977;0.7682265693747182;0.7589562927668905;0.7672754340423366
External Fragmentation Per Link;5;<3-4>; ;0.832650074226002;0.8260251403526727;0.8279600704621126;0.8168456475135176;0.8395046443422849;0.8320549919874519;0.8392740272672017;0.8344263159936245;0.8266847411257783;0.8254955119218266
External Fragmentation Per Link;5;<1-2>; ;0.7800261085814107;0.7690863680473796;0.7778958136703951;0.7689296398212008;0.7581190748917208;0.7772923803857509;0.7712556277455407;0.770481593056863;0.7691485553260698;0.7685098466541955
External Fragmentation Per Link;5;<3-2>; ;0.7711705515137793;0.7691201106607537;0.7773853778467836;0.7683510599046963;0.7654122977646928;0.7734646848446997;0.7749660138626813;0.7738157870819076;0.7719883949148013;0.7852523529329113
External Fragmentation Per Link;6;<5-4>; ;0.7667046346298144;0.7674709326326262;0.758751496521062;0.7387628888208339;0.7657498051704058;0.741110550975467;0.7477355583664416;0.7550137482620809;0.7442771142182123;0.7575934638091643
External Fragmentation Per Link;6;<2-5>; ;0.8001824392085437;0.8132907309740334;0.8026046243879718;0.8150202424940893;0.8016631188556583;0.8103632577535591;0.8122106618090703;0.8116300789288574;0.8128996614073326;0.8092246209424874
External Fragmentation Per Link;6;<5-6>; ;0.7510727673225208;0.7627012107135704;0.7516558845111626;0.7428200634905067;0.763104548252902;0.7631123413633596;0.7645421194419997;0.762352898365423;0.7729916283087783;0.7707231739181438
External Fragmentation Per Link;6;<6-1>; ;0.8284444268441146;0.8210611565635076;0.8229465708736595;0.8182326799695211;0.8149816796121157;0.8330564799397225;0.8202466204622914;0.8187550209528069;0.8205846288110826;0.8269120290361747
External Fragmentation Per Link;6;<1-6>; ;0.8220796205210289;0.8263280260603671;0.8156442289336266;0.8204466778734508;0.8232036225356172;0.8232745740128706;0.8310776455891556;0.8270600675065122;0.8293421624858088;0.8147690549869997
External Fragmentation Per Link;6;<2-3>; ;0.7550826176864871;0.7522498452947289;0.7398902760732299;0.7471387820369556;0.7402834432197076;0.7498709346153464;0.7651703567260245;0.7652795964381222;0.745054204349714;0.7433739980607991
External Fragmentation Per Link;6;<5-2>; ;0.8033798303490542;0.8144213580014036;0.8123242608442298;0.8111806597038801;0.7972694121230446;0.8103372507400027;0.8052205301304669;0.8081325920142763;0.8136325280725512;0.8092639429411509
External Fragmentation Per Link;6;<6-5>; ;0.7504623698004612;0.7583486316612539;0.7622492858911614;0.7710200955968319;0.7592622605043693;0.7605929978303925;0.7529115122538785;0.7635482778297504;0.749211707605514;0.7464124693159789
External Fragmentation Per Link;6;<4-3>; ;0.8278014633518593;0.8264914465872141;0.8188989516127881;0.8311770926770728;0.8127843242863819;0.8253596599148191;0.8219777085472938;0.8242045740960634;0.8129323157068251;0.823085213422497
External Fragmentation Per Link;6;<4-5>; ;0.7559720801524356;0.7474459499858386;0.7485888018459353;0.7624711057125486;0.7564504686878115;0.7617185678228383;0.7743274938562378;0.7586693085663822;0.766133813611489;0.7537990848670075
External Fragmentation Per Link;6;<2-1>; ;0.7378685290210617;0.7480838607693315;0.7713059262362785;0.7533358364780757;0.7435526456455875;0.7505646696171339;0.7566730611403563;0.7490947398191103;0.7530526857580122;0.762683844954809
External Fragmentation Per Link;6;<3-4>; ;0.8259222738960067;0.8220737881828812;0.8216364599306444;0.8246311284904324;0.8232067766156456;0.8219358262168287;0.8215803250017387;0.8232585319857281;0.8255929628842281;0.8199918207713801
External Fragmentation Per Link;6;<1-2>; ;0.750214005884043;0.7532311805435618;0.7429938739261874;0.7556642555726125;0.7313733526480418;0.7637791015868127;0.7493443078449314;0.7533589421002609;0.7457592203017952;0.7588635562322612
External Fragmentation Per Link;6;<3-2>; ;0.7497305255588603;0.7465774528011893;0.7394408364338255;0.7644196722741647;0.7493186540696477;0.7573164269764746;0.7562841736047353;0.7457721566040156;0.7461854021003465;0.7641407343875818

