Metrics;LoadPoint;Bandwidth;src;dest; ;rep1;rep2;rep3;rep4;rep5;rep6;rep7;rep8;rep9;rep10
bandwidth blocking probability;1;all;all;all; ;0.016805341371045154;0.018761181096755317;0.01734789359748351;0.015587689301311967;0.018834238704569482;0.01754608778568251;0.01741423518398388;0.023380312323202458;0.015475655119904584;0.018494142699980815
bandwidth blocking probability;2;all;all;all; ;0.12713037993233317;0.12183560435600932;0.12471693825272033;0.12252316399892473;0.12535655506080534;0.1195436921973749;0.12027739118832415;0.1241460291856873;0.12042181711160321;0.128526568800304
bandwidth blocking probability;3;all;all;all; ;0.25336092180375475;0.2657248197753173;0.2585839305838657;0.2620550632737982;0.25944190557533864;0.2599198678200221;0.25585546714100604;0.25971220769492964;0.2604250457227037;0.26741504153761747


bandwidth blocking probabilities per pair;1;all;1;2; ;0.01615260648315459;0.018487270955618793;0.016337121312492996;0.013769964110686678;0.01768096415190601;0.01863509783142028;0.018075376956252946;0.02340375757405297;0.012249346098009671;0.015733201732844232
bandwidth blocking probabilities per pair;1;all;2;1; ;0.01746231592867264;0.01903513254009318;0.018359977157021534;0.01741530199873381;0.01998061539330688;0.01642586975337509;0.016754238554861838;0.023356741018573508;0.01863341564278155;0.02125188170416955
bandwidth blocking probabilities per pair;2;all;1;2; ;0.1270314857898387;0.1279808356541027;0.12000482938680303;0.12452124664469122;0.1299725453521528;0.11517499716519511;0.1182137653168437;0.12121789421072529;0.11634915409275355;0.1201547255685723
bandwidth blocking probabilities per pair;2;all;2;1; ;0.1272293401996038;0.11562312787864516;0.12932473930264976;0.12052980001804672;0.1207214376621587;0.12386604843720034;0.12232909161974455;0.12704934334873638;0.12444093867754615;0.13671027178131026
bandwidth blocking probabilities per pair;3;all;1;2; ;0.2603083989432381;0.26676407650541534;0.2577063380530171;0.25424832580772017;0.25804683849318066;0.25298322763071923;0.2563139602480161;0.25781330706910766;0.26004635994430814;0.2739910029255222
bandwidth blocking probabilities per pair;3;all;2;1; ;0.2462248404944016;0.26467680277410577;0.25946094473139125;0.2696919078419338;0.2608372181338734;0.26672053295366843;0.25539764602109205;0.2615888767977654;0.2608036713806245;0.2607672706431155


bandwidth blocking probabilities per bandwidth;1;10.0Gbps;all;all; ;0.0;0.0;0.0;0.0;1.83736484018369E-6;0.0;0.0;0.0;0.0;0.0
bandwidth blocking probabilities per bandwidth;1;20.0Gbps;all;all; ;0.0;0.0;0.0;0.0;2.3479619341858202E-4;0.0;0.0;0.0;0.0;0.0
bandwidth blocking probabilities per bandwidth;1;40.0Gbps;all;all; ;0.0;0.0;0.0;0.0;0.0;0.0;0.0;0.0;0.0;0.0
bandwidth blocking probabilities per bandwidth;1;80.0Gbps;all;all; ;1.8984219952273375E-4;9.842675866726807E-5;2.0862500555437097E-4;3.3119108480624877E-4;1.639881559368097E-4;2.3350196010571127E-4;2.5542805010163853E-4;1.539118696218205E-4;1.3038272877355137E-4;2.43746990214693E-4
bandwidth blocking probabilities per bandwidth;1;160.0Gbps;all;all; ;0.002263525141675513;0.00425302091375013;0.004226249655672548;0.004154042492911971;0.006090583145937813;0.005132249743104225;0.004162051037750321;0.005645906670597392;0.005833984045127017;0.004559757336589836
bandwidth blocking probabilities per bandwidth;1;320.0Gbps;all;all; ;0.03199584799102677;0.03492512869977907;0.03177701581054451;0.028553236991268254;0.03408696281563504;0.0318219795774156;0.032188107616174404;0.04286519839271218;0.027570434175987014;0.0340074225178064
bandwidth blocking probabilities per bandwidth;2;10.0Gbps;all;all; ;0.0;0.0;0.0;0.0;5.246046776936634E-5;0.0;0.0;0.0;0.0;2.6173592650845708E-5
bandwidth blocking probabilities per bandwidth;2;20.0Gbps;all;all; ;0.0;0.0;0.0;0.0;0.0;0.0;2.546550992509706E-4;0.0;0.0;0.0
bandwidth blocking probabilities per bandwidth;2;40.0Gbps;all;all; ;0.0;6.361514421524865E-5;0.0;3.510156390557422E-5;0.0;0.0;2.7774977245849814E-4;0.0;0.0;4.272028993920491E-5
bandwidth blocking probabilities per bandwidth;2;80.0Gbps;all;all; ;0.0030938661667642697;0.002867744004280881;0.003472926884287546;0.002947487766368288;0.0034776159840934993;0.0014696064051666455;0.002692620727775;0.004605017490646108;0.0029448235001140488;0.0016849799395574016
bandwidth blocking probabilities per bandwidth;2;160.0Gbps;all;all; ;0.04093300650598148;0.04070717299409749;0.041872192495731195;0.03887733771405725;0.03823930041908998;0.03877849913581321;0.03687249946975698;0.038020663214690685;0.03757278392998423;0.0344318868360521
bandwidth blocking probabilities per bandwidth;2;320.0Gbps;all;all; ;0.22800646067515984;0.2175604910147196;0.22359965397924622;0.2205408225526688;0.22632102501578052;0.21631953993486747;0.21975189013938695;0.22337657571659786;0.21733222287420328;0.2327563214867855
bandwidth blocking probabilities per bandwidth;3;10.0Gbps;all;all; ;0.0;3.350967484987533E-5;0.0;7.37272522710215E-5;3.386198564588586E-4;4.362408196978839E-5;1.4608764746210287E-5;0.0;2.469659123127142E-6;0.0
bandwidth blocking probabilities per bandwidth;3;20.0Gbps;all;all; ;5.646599542028698E-5;2.9314278839526783E-4;0.0;1.1733116798458195E-5;1.222212756213287E-4;0.0;0.0;0.0;0.0;1.3308831218681642E-4
bandwidth blocking probabilities per bandwidth;3;40.0Gbps;all;all; ;3.573451246175773E-5;0.0;0.0;1.8554761458201317E-4;9.084047723085571E-5;4.469248233678021E-5;0.0;0.0;9.705580819482782E-5;1.693250203624929E-5
bandwidth blocking probabilities per bandwidth;3;80.0Gbps;all;all; ;0.008457945711690661;0.008347029079368039;0.009135647274375592;0.010454033332972767;0.008737433391077598;0.0076516299130419815;0.009534509294055886;0.006788384443637018;0.009823441228723891;0.009998569440557206
bandwidth blocking probabilities per bandwidth;3;160.0Gbps;all;all; ;0.09199884159160816;0.10746910767326892;0.10326209658805542;0.09931540046498251;0.10408457994642169;0.1027626291676276;0.09336400291275054;0.10744749348206388;0.10536532482769764;0.11337916086887107
bandwidth blocking probabilities per bandwidth;3;320.0Gbps;all;all; ;0.4478297265334237;0.4628948225699115;0.45618924217355244;0.4643375364717298;0.4478656644804059;0.4575613648213275;0.45452308012170956;0.45634667723957656;0.45967305813202325;0.4643002117614699


bandwidth blocking probabilities per pair and bandwidth;1;10.0Gbps;1;2; ;0.0;0.0;0.0;0.0;3.690171524082719E-6;0.0;0.0;0.0;0.0;0.0
bandwidth blocking probabilities per pair and bandwidth;1;10.0Gbps;2;1; ;0.0;0.0;0.0;0.0;0.0;0.0;0.0;0.0;0.0;0.0
bandwidth blocking probabilities per pair and bandwidth;1;20.0Gbps;1;2; ;0.0;0.0;0.0;0.0;4.601309075076195E-4;0.0;0.0;0.0;0.0;0.0
bandwidth blocking probabilities per pair and bandwidth;1;20.0Gbps;2;1; ;0.0;0.0;0.0;0.0;0.0;0.0;0.0;0.0;0.0;0.0
bandwidth blocking probabilities per pair and bandwidth;1;40.0Gbps;1;2; ;0.0;0.0;0.0;0.0;0.0;0.0;0.0;0.0;0.0;0.0
bandwidth blocking probabilities per pair and bandwidth;1;40.0Gbps;2;1; ;0.0;0.0;0.0;0.0;0.0;0.0;0.0;0.0;0.0;0.0
bandwidth blocking probabilities per pair and bandwidth;1;80.0Gbps;1;2; ;0.0;1.974371349288635E-4;3.159448507685365E-4;5.418955045389183E-4;2.3618024255457468E-4;0.0;3.3598157862538747E-4;4.787070607282118E-5;8.381046909890471E-5;2.7277645026335017E-4
bandwidth blocking probabilities per pair and bandwidth;1;80.0Gbps;2;1; ;3.736247522219789E-4;0.0;9.738770090129078E-5;1.2565421548770697E-4;9.324672502685173E-5;4.6046984038946535E-4;1.7772189262545195E-4;2.5820987090979856E-4;1.7631529740281046E-4;2.148001125719909E-4
bandwidth blocking probabilities per pair and bandwidth;1;160.0Gbps;1;2; ;0.002749967487246068;0.0042677815561056424;0.0032260570229285957;0.0023899858300063287;0.005998213900455501;0.004418464255528398;0.004622651477254993;0.00467789743873831;0.0038209121523690237;0.00581302286731251
bandwidth blocking probabilities per pair and bandwidth;1;160.0Gbps;2;1; ;0.0017740799497444244;0.004238514786579227;0.005213855387315396;0.005954320537228165;0.006186632524518261;0.005867265993905364;0.003702610725284002;0.0066287552328784475;0.007805337578706073;0.0032988628749181874
bandwidth blocking probabilities per pair and bandwidth;1;320.0Gbps;1;2; ;0.030346517959821767;0.03420431672390201;0.030130453575124554;0.025786953584012767;0.03204084356313513;0.03394868310714495;0.03310791531563473;0.04338716556246338;0.022345391913452195;0.028042407458941886
bandwidth blocking probabilities per pair and bandwidth;1;320.0Gbps;2;1; ;0.033674193259857495;0.03565306699138206;0.03344167482131975;0.03133883559048056;0.03608488207247815;0.029578401544166157;0.0312624276153282;0.04234003868098514;0.03262982868023917;0.039919288689971466
bandwidth blocking probabilities per pair and bandwidth;2;10.0Gbps;1;2; ;0.0;0.0;0.0;0.0;1.044765804229968E-4;0.0;0.0;0.0;0.0;0.0
bandwidth blocking probabilities per pair and bandwidth;2;10.0Gbps;2;1; ;0.0;0.0;0.0;0.0;0.0;0.0;0.0;0.0;0.0;5.282607412668261E-5
bandwidth blocking probabilities per pair and bandwidth;2;20.0Gbps;1;2; ;0.0;0.0;0.0;0.0;0.0;0.0;5.075432590429364E-4;0.0;0.0;0.0
bandwidth blocking probabilities per pair and bandwidth;2;20.0Gbps;2;1; ;0.0;0.0;0.0;0.0;0.0;0.0;0.0;0.0;0.0;0.0
bandwidth blocking probabilities per pair and bandwidth;2;40.0Gbps;1;2; ;0.0;0.0;0.0;0.0;0.0;0.0;5.665692502023476E-4;0.0;0.0;0.0
bandwidth blocking probabilities per pair and bandwidth;2;40.0Gbps;2;1; ;0.0;1.2668062975217448E-4;0.0;6.982222187562343E-5;0.0;0.0;0.0;0.0;0.0;8.369525719433341E-5
bandwidth blocking probabilities per pair and bandwidth;2;80.0Gbps;1;2; ;0.0018728101246793664;0.002269745144614799;0.0030999684548532517;0.0038246823626257244;0.004352510422382273;0.0016144432762565306;0.00267066078836625;0.005870354802810411;0.0038341303182234656;0.0015345709570014697
bandwidth blocking probabilities per pair and bandwidth;2;80.0Gbps;2;1; ;0.004341067324893356;0.003469391881969993;0.003848277784483257;0.002061413479188846;0.0025802448217729004;0.0013259824877481477;0.0027147671070036046;0.003346564862837926;0.002063616378261528;0.0018289018673397599
bandwidth blocking probabilities per pair and bandwidth;2;160.0Gbps;1;2; ;0.045589934256122254;0.04328958883770361;0.038206464339726326;0.04022725791855359;0.04127479356566943;0.039523190831627385;0.031979608596694895;0.037089544142881736;0.03415316994690385;0.031786571831762436
bandwidth blocking probabilities per pair and bandwidth;2;160.0Gbps;2;1; ;0.03618354381708096;0.03811237057608453;0.04539447449729111;0.03750005314883458;0.035154452905506735;0.03804551299179066;0.041784400429849024;0.03891803356414676;0.040966360964511006;0.03706495316127418
bandwidth blocking probabilities per pair and bandwidth;2;320.0Gbps;1;2; ;0.22725501585409152;0.2276700810972632;0.21678243049275794;0.22501836946405646;0.235019995634092;0.20731874385490096;0.21870400844262602;0.21643827015042044;0.21196459659943315;0.2179745278500582
bandwidth blocking probabilities per pair and bandwidth;2;320.0Gbps;2;1; ;0.22874724651567346;0.2072619536064995;0.23024346641192187;0.21613959716841863;0.2176967947402304;0.22522600472246768;0.22078699587373002;0.2303583608310694;0.22257032699784043;0.24716592182223485
bandwidth blocking probabilities per pair and bandwidth;3;10.0Gbps;1;2; ;0.0;0.0;0.0;0.0;1.977020913093411E-4;2.8646027237285754E-5;0.0;0.0;0.0;0.0
bandwidth blocking probabilities per pair and bandwidth;3;10.0Gbps;2;1; ;0.0;6.59135574874501E-5;0.0;1.4581437122091734E-4;4.7764294798653185E-4;5.8318211630588E-5;2.9198584711368306E-5;0.0;4.9487073810646245E-6;0.0
bandwidth blocking probabilities per pair and bandwidth;3;20.0Gbps;1;2; ;0.0;0.0;0.0;0.0;2.4683213064779184E-4;0.0;0.0;0.0;0.0;0.0
bandwidth blocking probabilities per pair and bandwidth;3;20.0Gbps;2;1; ;1.1330156304099079E-4;5.975441025217466E-4;0.0;2.3414918357965967E-5;0.0;0.0;0.0;0.0;0.0;2.6862669570146963E-4
bandwidth blocking probabilities per pair and bandwidth;3;40.0Gbps;1;2; ;4.986426455840504E-5;0.0;0.0;0.0;1.8046427223147992E-4;8.837750325539581E-5;0.0;0.0;0.0;3.3735606130509765E-5
bandwidth blocking probabilities per pair and bandwidth;3;40.0Gbps;2;1; ;2.158692608007686E-5;0.0;0.0;3.7197698613300917E-4;0.0;0.0;0.0;0.0;1.926298999902667E-4;0.0
bandwidth blocking probabilities per pair and bandwidth;3;80.0Gbps;1;2; ;0.009167588306272472;0.007791400657304699;0.009719824761630325;0.012702866612700509;0.008468221603627226;0.0081580721577709;0.005941489062994703;0.008331626061042732;0.009503645733301959;0.00980875320980223
bandwidth blocking probabilities per pair and bandwidth;3;80.0Gbps;2;1; ;0.007733265092164314;0.00888279792889105;0.00854956515560578;0.008163230003957488;0.008999231650740848;0.007130891854034321;0.01316988726346205;0.0052046619066188834;0.010151965421833083;0.010194054268200999
bandwidth blocking probabilities per pair and bandwidth;3;160.0Gbps;1;2; ;0.09357763834180993;0.10347250194635814;0.10612846189777167;0.09497320634324442;0.10371468843234505;0.10133870519196828;0.09364024037584065;0.1118760368659998;0.1015463917928478;0.11916247339009184
bandwidth blocking probabilities per pair and bandwidth;3;160.0Gbps;2;1; ;0.09040857541407979;0.11143978465175758;0.10045919549064466;0.10367303778776465;0.10447076175572365;0.10415245554974692;0.09308883599356116;0.1030595187101102;0.10907469737316428;0.10762171372877778
bandwidth blocking probabilities per pair and bandwidth;3;320.0Gbps;1;2; ;0.45706322025376844;0.4634940563016271;0.45105765571210643;0.45624178299921453;0.4474357114645769;0.4484933202666128;0.4581997281383003;0.4536641003864599;0.4592592739172436;0.4742619382996027
bandwidth blocking probabilities per pair and bandwidth;3;320.0Gbps;2;1; ;0.43818231515324735;0.4622801484783035;0.4613721395554144;0.47204237192038995;0.4482898641886755;0.4662990181475633;0.45088310189867614;0.45895422182774953;0.46009115630017194;0.4542075834226327


