Metrics;LoadPoint;link; ;rep1;rep2;rep3;rep4;rep5;rep6;rep7;rep8;rep9;rep10
External Fragmentation (Vertical);1;all; ;0.5291414924443624;0.525239829272015;0.5178964495465391;0.5385269108062084;0.5227041603229469;0.5215786387235766;0.5256179164954754;0.5273381849980713;0.5211126471873704;0.530993861025453
External Fragmentation (Vertical);2;all; ;0.5658552217642077;0.5724769179548355;0.5719629021240707;0.5694474874453159;0.5748678801666135;0.5760772830973044;0.584233046285664;0.5785997944423429;0.5642611272985312;0.5774312572117216
External Fragmentation (Vertical);3;all; ;0.606435557413683;0.6204689816043258;0.6252794559442957;0.611533272446271;0.6247951280219186;0.6135583287794006;0.6065516116972233;0.6143263594272748;0.6113326768073672;0.6117352665252108
External Fragmentation (Vertical);4;all; ;0.6529288247022617;0.6504295474534492;0.6491945663102219;0.649883811227997;0.6548606857486942;0.6536129864634885;0.6483044003192323;0.6530375403337405;0.6512382492437375;0.6495746672285
External Fragmentation (Vertical);5;all; ;0.6805663541741309;0.6725699387184055;0.6716193821637353;0.6793591092665596;0.679208403276213;0.6739916330079317;0.6726124048083001;0.6803103092112693;0.6742467742799606;0.6765185134442667
External Fragmentation (Vertical);6;all; ;0.6931560752104627;0.6991456235621084;0.7008115621859878;0.7020895189825008;0.6909391242400008;0.6979838092181443;0.6954967344278042;0.6907942127275994;0.6971634547497394;0.6993751431123911
External Fragmentation (Vertical);7;all; ;0.7141154302272383;0.7088957485949858;0.7117960761842738;0.7120479608938187;0.7110991667719817;0.7105180290936495;0.709256043391178;0.7122078462946967;0.713975611072468;0.7097095143518225


External Fragmentation (Horizontal);1;all; ;0.4221142526929954;0.41536776274772436;0.40463434481012756;0.43001547976129684;0.41310927226451377;0.41026362665325417;0.4212718903413421;0.41275798791190044;0.4102207771305314;0.4260374465423234
External Fragmentation (Horizontal);2;all; ;0.464003249783756;0.4744062894500217;0.4688892410544629;0.4667381345234867;0.4792208104678086;0.47645315769613505;0.4892454239948156;0.4833156858981328;0.4587078000442969;0.4832084709752524
External Fragmentation (Horizontal);3;all; ;0.5198069964364856;0.5380958128487171;0.5452605105707586;0.5260667306013225;0.5415442585381207;0.5193477208443001;0.5150924922707971;0.5282057646125543;0.5259062492061037;0.5237254095922282
External Fragmentation (Horizontal);4;all; ;0.5771370671774463;0.5762974917759518;0.5709115450413262;0.5734613478517727;0.5781287716917942;0.5777223021334449;0.5753925573993476;0.5798813828098598;0.5780031619646677;0.5699121579036682
External Fragmentation (Horizontal);5;all; ;0.6111568282969986;0.6048374977174822;0.600190641101691;0.6085409670092095;0.6094275157692163;0.6032470243544499;0.6050879098821069;0.610575891925361;0.6044070366350635;0.605351432014821
External Fragmentation (Horizontal);6;all; ;0.6254437114734016;0.6296435812953137;0.6327170257479728;0.6301858955876516;0.6168347530583669;0.6296717629470192;0.6232498263906344;0.618174995434331;0.628273223557177;0.6285489764172093
External Fragmentation (Horizontal);7;all; ;0.6423991372140868;0.6386097606209302;0.6420468499163179;0.6424332262188885;0.6406521295151532;0.6403144621765025;0.6367290322293562;0.641216166694275;0.6451435787719831;0.6387040326334955


External Fragmentation Per Link;1;<3-1>; ;0.4519873468448533;0.3963624703646593;0.3875539286217458;0.4175283544421718;0.4010402354183686;0.4154070311770573;0.41876361885815144;0.4313519830472786;0.4281576964295761;0.42167176085486074
External Fragmentation Per Link;1;<5-4>; ;0.5353221941636952;0.5420846795605674;0.5416410327078722;0.5329069306758006;0.5263279119551524;0.5302694168177616;0.5258407528746252;0.5340535695652573;0.5254148363885554;0.5357993758074356
External Fragmentation Per Link;1;<2-4>; ;0.49208440097709916;0.509332342179551;0.4767258242726508;0.5231702339540402;0.49594469933675395;0.4862220524858629;0.49314992316200157;0.4934271613329569;0.5175246958597506;0.4839576647657501
External Fragmentation Per Link;1;<5-6>; ;0.4844213130185847;0.47585015375076956;0.44898341336120556;0.44654077054114105;0.44516407125376206;0.47493223144770613;0.45357770634834216;0.4875823399666882;0.47495279203925816;0.4680754252403563
External Fragmentation Per Link;1;<8-1>; ;0.5445050817561182;0.5006332610810491;0.5256692956381658;0.5381370890393107;0.5193268352201438;0.5370077509597047;0.532844289708585;0.5291314178358645;0.4936856189570218;0.5175784202770087
External Fragmentation Per Link;1;<2-3>; ;0.5032575538093357;0.5075680698191026;0.5265166717038112;0.49675744676900035;0.5005550448167938;0.5111615010780963;0.5157623867189303;0.49483512978341476;0.5181165319514895;0.4930953798183839
External Fragmentation Per Link;1;<5-7>; ;0.5806734566130152;0.5924190036938175;0.5609706894845415;0.6008328809882697;0.5722166856002887;0.5729751884509081;0.5662940294623459;0.5546035060409314;0.5877140439321736;0.5687038156788269
External Fragmentation Per Link;1;<14-9>; ;0.5579321140808522;0.5889166044891994;0.5702600759534837;0.590937883933753;0.5822753891053056;0.537884964381032;0.5825694345827762;0.5708777647184496;0.532944207072157;0.5646029860762856
External Fragmentation Per Link;1;<7-8>; ;0.5968069886725659;0.5959993126093698;0.5583344894608049;0.6122941238321293;0.577706957414768;0.5890314484748121;0.5848804514937732;0.5700069018330693;0.5969657045627945;0.5927363395016267
External Fragmentation Per Link;1;<4-11>; ;0.4892875965433165;0.5288583912957199;0.48901489925818453;0.5346218776865578;0.5017494808652383;0.489461154962442;0.5176036123342708;0.5074614627972394;0.5179579688977303;0.4927693886132157
External Fragmentation Per Link;1;<4-2>; ;0.5062935708787475;0.5005539703609333;0.5092970359785555;0.5182055486532392;0.5042713484133599;0.5110186807314772;0.5348729246589451;0.5223061926359067;0.4959043212064361;0.5337420466791392
External Fragmentation Per Link;1;<3-6>; ;0.42518104699880094;0.41233997753085627;0.43467181501456964;0.4612520671265316;0.41566712808048684;0.4211957541487415;0.41154559128813056;0.43131529595246004;0.4129654908636853;0.46370326427816316
External Fragmentation Per Link;1;<4-5>; ;0.5321491866939737;0.5573712047575697;0.5159272468465682;0.5548508848833315;0.5302095999659332;0.5339069400103289;0.5288636684229576;0.5484760526886983;0.5453273824034343;0.5264878055935273
External Fragmentation Per Link;1;<13-6>; ;0.45047060294421326;0.44637840488680247;0.4321473510355422;0.4639430543546581;0.4511622454009959;0.4354721713899027;0.4660060552591936;0.4755257431186601;0.4148835176329627;0.46417198403640175
External Fragmentation Per Link;1;<2-1>; ;0.5308750688423534;0.5545588927536194;0.5402589870830019;0.5585256528476886;0.5671194976569661;0.5426484500221062;0.5699092791666186;0.5559685976901366;0.5685613950243038;0.5606655663096821
External Fragmentation Per Link;1;<3-2>; ;0.4993215443997856;0.49594362414881427;0.4811631798365145;0.5438374310664976;0.5054225385155711;0.5256471609858645;0.5003222944876755;0.5213532053657592;0.49914672216456446;0.5123006704363438
External Fragmentation Per Link;1;<13-12>; ;0.5796143590262952;0.5899530266879252;0.5845719281833717;0.6008730858476348;0.5818617800414791;0.5968370482616518;0.5884729166925331;0.5918183628471336;0.5852151127449993;0.585737308951994
External Fragmentation Per Link;1;<6-13>; ;0.4428490446384615;0.44887977306565313;0.45100943648575786;0.45767219259371117;0.4340007377079194;0.44003427917029797;0.4456028149543347;0.4592658622963712;0.4524376826573675;0.4562328233836117
External Fragmentation Per Link;1;<13-14>; ;0.5338557353577584;0.544212922749423;0.5281080786423947;0.5582742630664589;0.549166667808893;0.5225953648774813;0.5373738044578938;0.5149929064213078;0.5159101878523155;0.5196611791062282
External Fragmentation Per Link;1;<11-4>; ;0.520353973122765;0.5093513104663843;0.535018312688284;0.5440660387840944;0.5196471853646383;0.5424083597299922;0.5477056505072027;0.5343878130721849;0.5217614047795359;0.538452641229037
External Fragmentation Per Link;1;<14-13>; ;0.5305701184344684;0.5371850874370143;0.5238380130037252;0.5254322024054309;0.53023737869334;0.5047807288353009;0.5002214652052236;0.5363405445625886;0.5216107184534837;0.5267604622873199
External Fragmentation Per Link;1;<6-10>; ;0.5011176526442048;0.4806890425770487;0.4722164251902098;0.5039941539850247;0.4598595503598204;0.49216704887236873;0.46288598555735044;0.4750286465437876;0.47625379723925704;0.5057758139787112
External Fragmentation Per Link;1;<7-10>; ;0.5827965952270838;0.5748183362183836;0.5607872777410066;0.5683124907317586;0.5751310074678759;0.5533544757969048;0.553783541058818;0.5510527791663911;0.5704419934634181;0.5637672471717456
External Fragmentation Per Link;1;<12-9>; ;0.5925646811006977;0.5811853687791675;0.5917004704899801;0.6125568241650469;0.5914844228368659;0.5980650869968164;0.6014308127591461;0.6022345142978113;0.5592287285088058;0.6134245134484699
External Fragmentation Per Link;1;<14-11>; ;0.5774657364993687;0.5488784395879771;0.5806535857067713;0.5864565950966113;0.5817490920660453;0.5872542299793646;0.58657816592171;0.5678564583859991;0.5477320210938005;0.5613655869025389
External Fragmentation Per Link;1;<11-12>; ;0.5901332441151768;0.6003161415296088;0.5799601659103253;0.6279788431633679;0.5901417189043487;0.5793738113330539;0.6218123664171854;0.5855087602669575;0.5782720527131747;0.5982020020711072
External Fragmentation Per Link;1;<9-8>; ;0.5392768351683153;0.5341842900826176;0.5130099926774402;0.5430119259945663;0.5370921028714225;0.5374458400991103;0.5563995873118918;0.5343765251967288;0.4904889946214818;0.5441261463120068
External Fragmentation Per Link;1;<12-13>; ;0.5827468402070028;0.5726679568948643;0.5566095484599648;0.5692579054562195;0.5627020369802818;0.5550368791011365;0.5683199611373027;0.5645456834807354;0.5645626711953406;0.5789036902472087
External Fragmentation Per Link;1;<12-11>; ;0.6048388520437684;0.5855691531137255;0.6014266638955978;0.6267129780808293;0.6085706036897186;0.6147464461973007;0.5920257551647843;0.6081448016010141;0.6402467229559197;0.623296196442134
External Fragmentation Per Link;1;<10-6>; ;0.4691589921069823;0.4563406454494795;0.4748092638075665;0.48514765031336354;0.46130204940903174;0.4529980944377449;0.46861620192379;0.4713640934072178;0.43867604637584534;0.4812103466946982
External Fragmentation Per Link;1;<10-7>; ;0.5735239794530894;0.5602367257302961;0.574821662312079;0.5618758975724554;0.5844716270105084;0.5563355533548386;0.5585792125796657;0.5711587422321847;0.5258897275601777;0.5838177776102974
External Fragmentation Per Link;1;<10-9>; ;0.5258931473478157;0.5280921688316892;0.5155351761170052;0.5218944700484972;0.5051138445773404;0.4997676855259885;0.4901044408259602;0.515479193114544;0.5019845857374948;0.5213842440707843
External Fragmentation Per Link;1;<9-10>; ;0.5320468383781493;0.5176345276688202;0.522005594091948;0.5268670336409351;0.5237054649343637;0.505475975772017;0.5179983932016613;0.5312650859424984;0.47895864020378504;0.5471226284668754
External Fragmentation Per Link;1;<6-3>; ;0.4309412729907925;0.436564450664444;0.4094571760091996;0.4565162657036206;0.43943367839964714;0.4227048704872303;0.433921544390765;0.44942709043636325;0.41817272309880027;0.4516427945707173
External Fragmentation Per Link;1;<9-14>; ;0.5779134070135056;0.5633341622921347;0.5621937947707006;0.5618219479583161;0.5721530314344299;0.5577508052638428;0.5546209126884383;0.5537308382047674;0.5872237826593301;0.5538123940997416
External Fragmentation Per Link;1;<1-8>; ;0.526430441493859;0.48644876201521514;0.5051253962775234;0.5143804547677204;0.5073659383582836;0.49853718927528295;0.4948291580089308;0.518685726026088;0.5495980324937791;0.5300869053211225
External Fragmentation Per Link;1;<6-5>; ;0.4558714167165226;0.4612869184721394;0.44193672425246455;0.4516043988804035;0.4502855988112927;0.4482946730788088;0.46860114556885135;0.4564531824051245;0.4471768488941644;0.4697346123672309
External Fragmentation Per Link;1;<9-12>; ;0.6049961798156898;0.5840503236533083;0.5701972943001222;0.6043845068491135;0.5760969661437837;0.5782085473797696;0.5780332041421146;0.5698786136520052;0.6098918435645437;0.5903286804934508
External Fragmentation Per Link;1;<8-9>; ;0.5442702947023336;0.5301559853372432;0.5119903711818337;0.5625645754758994;0.5282061467799046;0.5168073994112123;0.5224074145537749;0.5132635807865579;0.5648420037968389;0.531946389480331
External Fragmentation Per Link;1;<7-5>; ;0.5770767932681262;0.5846394234730324;0.5612132683189606;0.5791251534228675;0.5631848156576864;0.5584340974790034;0.5769955252256289;0.5713356548225244;0.5462977094686449;0.5721431860258057
External Fragmentation Per Link;1;<8-7>; ;0.5788145495544068;0.5909413913834787;0.5848875487871046;0.5873194387444575;0.5695401906992592;0.5707396797675255;0.5760560757811197;0.5893480230664394;0.5615167599801326;0.5938483560352488
External Fragmentation Per Link;1;<1-3>; ;0.4046288055075066;0.39033797687994887;0.38982256498011264;0.42047007806270836;0.3994000130492143;0.4236537371805162;0.4097869641042;0.41779666784683117;0.4216939990881552;0.3978006995416271
External Fragmentation Per Link;1;<11-14>; ;0.545107212809952;0.5417536993884174;0.5341126349211663;0.5588478620890287;0.535342330369162;0.5617293747275118;0.5378422464338374;0.567295879038015;0.5575902184164738;0.576464032253462
External Fragmentation Per Link;1;<1-2>; ;0.5767996015695013;0.5656741142561805;0.5512894745869866;0.5834226117785316;0.5655774047626942;0.559680923921021;0.5733770403986557;0.5525677864212623;0.565058541240523;0.5466193325890426
External Fragmentation Per Link;2;<3-1>; ;0.4387905810518704;0.42486988279256405;0.4560083814572344;0.44233794861076536;0.4090410930054082;0.4436185004367568;0.43806955167022743;0.445627865958296;0.40429215178129807;0.44376823183990793
External Fragmentation Per Link;2;<5-4>; ;0.569100349673558;0.5763807923920492;0.5946867445194174;0.5778815603172716;0.5892852275254112;0.5796587972068272;0.6073965359906646;0.5926856294048247;0.5709013475816951;0.5721979505372166
External Fragmentation Per Link;2;<2-4>; ;0.539758507013907;0.5485536961273995;0.5566226893158324;0.5270081538250274;0.5450614586935189;0.540330605354388;0.5472652811643955;0.5483871020648111;0.531299992677806;0.5713495212655737
External Fragmentation Per Link;2;<5-6>; ;0.500651627099012;0.5207838640411501;0.4882828258248858;0.49794546753784946;0.5017409182791238;0.49769470924622705;0.5109530016493216;0.48994517728699183;0.5159203071233337;0.5065730558059911
External Fragmentation Per Link;2;<8-1>; ;0.5735719020129336;0.5879219403954108;0.576595200201145;0.5932358995766231;0.5757593347647335;0.5830773950414759;0.6021772560689276;0.5775265197832026;0.5509085121175047;0.5879626195390733
External Fragmentation Per Link;2;<2-3>; ;0.5323083172639412;0.5370469314266902;0.5493042104293785;0.5636338437074652;0.5731584607714332;0.5333389897271645;0.5734112110263029;0.5619790739289914;0.5276782521979326;0.5563973872338274
External Fragmentation Per Link;2;<5-7>; ;0.6227749053480325;0.6295234681124438;0.6384483982298652;0.6313500865000122;0.6256192404079424;0.6383154884379022;0.6264698065601351;0.6228748777438246;0.6123413474859378;0.6432994185658781
External Fragmentation Per Link;2;<14-9>; ;0.5902557243949876;0.6313979355972335;0.6065543815294523;0.597502967269391;0.6269322638106473;0.6301271682305286;0.6362282996395399;0.633152899991083;0.6187010550088375;0.6295970107765508
External Fragmentation Per Link;2;<7-8>; ;0.640131340152974;0.6281629138864729;0.6466236973250724;0.6366683920847515;0.6281674421736809;0.6423880752902693;0.6522889867418115;0.6362381865632905;0.6166032785073265;0.6366678148069367
External Fragmentation Per Link;2;<4-11>; ;0.5395119831257743;0.5450238480147478;0.5481376871327375;0.5516124540670746;0.5515570183952043;0.5669579069357934;0.5698410975592074;0.5668294906643078;0.5594705160271088;0.5708553829202843
External Fragmentation Per Link;2;<4-2>; ;0.5764340304586667;0.5562975055269477;0.5469289384426674;0.5706559359108954;0.5727694985536855;0.5931323869454226;0.5647913311480425;0.6001139141181351;0.5473970241482528;0.5689358313994365
External Fragmentation Per Link;2;<3-6>; ;0.4877446192233533;0.45055431446383004;0.5182683141285788;0.4935571392441101;0.4901357684228342;0.4712843349825638;0.485618134172024;0.4701612778523742;0.47302637667520486;0.49672874059643907
External Fragmentation Per Link;2;<4-5>; ;0.6037486008713198;0.5896471308517908;0.5999371155115635;0.5869470287838381;0.5870148801994507;0.5714628501433815;0.5805038527949079;0.5651367851939729;0.5596847771309802;0.6050190953795401
External Fragmentation Per Link;2;<13-6>; ;0.47452211217768886;0.48348387619247496;0.44608384593542466;0.48393961518588047;0.5219663064419354;0.48053932494999935;0.49847885492461247;0.497981387518562;0.4774001538447655;0.48472588225914137
External Fragmentation Per Link;2;<2-1>; ;0.5835885070782735;0.5955880451171833;0.5954022543727628;0.5804440925387379;0.5985513623166622;0.5895855785064291;0.5804548487268603;0.5940675639378832;0.5643626796989532;0.5989742060346495
External Fragmentation Per Link;2;<3-2>; ;0.5477886420008176;0.5598438447042499;0.5648131224150083;0.5307146584341333;0.5346310532021737;0.5420074347526578;0.5520629723440431;0.562955620332077;0.520967239598746;0.5482270753286612
External Fragmentation Per Link;2;<13-12>; ;0.6341621626285908;0.6196434002959841;0.6391104547752704;0.6179184808434356;0.6318055048989807;0.6335429086115908;0.6421167249714548;0.64564513969838;0.6254549918630266;0.6442178604457763
External Fragmentation Per Link;2;<6-13>; ;0.4940507811623617;0.48073081514873583;0.49370014089886594;0.5126881404910304;0.5009146842109172;0.4700906666832111;0.5212718682026901;0.49897483667232745;0.5071052221594309;0.523018381054896
External Fragmentation Per Link;2;<13-14>; ;0.5718747181605532;0.5734276764282317;0.5724915288738716;0.5620816697815554;0.5814586596303397;0.5719801390562345;0.5779337380348097;0.5990254945696727;0.5720950720066431;0.5822030668660648
External Fragmentation Per Link;2;<11-4>; ;0.5798733764364005;0.5655035986727334;0.5581206153090913;0.5953860600743681;0.5728673448581626;0.5957383593206379;0.5964754132475198;0.625774272434425;0.576039971090052;0.5880498806545054
External Fragmentation Per Link;2;<14-13>; ;0.5592948720870937;0.5381679709453658;0.5557573084367914;0.5651659776392122;0.5627515635019353;0.5642554945467348;0.5811026095084971;0.5576425370653578;0.5733784308106177;0.5743817241180542
External Fragmentation Per Link;2;<6-10>; ;0.5363781274424941;0.5106948605583568;0.5208740923037903;0.515787829595421;0.5242590578094783;0.5239426189319405;0.5202558525081655;0.5121560230887398;0.5145082270078185;0.5282804597190004
External Fragmentation Per Link;2;<7-10>; ;0.6100856846731878;0.6422137265944667;0.6267924487414365;0.6132025753893144;0.6126164183828228;0.6250822983601738;0.6281733032653813;0.6228306425319045;0.6210727392274268;0.6169130105059941
External Fragmentation Per Link;2;<12-9>; ;0.6274772922673674;0.6553894055823832;0.640952643773029;0.6365516847189657;0.6603236864231093;0.6435464817528221;0.6776939238955331;0.6513326054397921;0.6391756799310636;0.6615238414975616
External Fragmentation Per Link;2;<14-11>; ;0.5935892215867358;0.6057160608746344;0.6031259268687543;0.6031370621031084;0.5959158868584175;0.6032962650855946;0.6179023488074539;0.6308023137799513;0.613763406840936;0.6128351578614919
External Fragmentation Per Link;2;<11-12>; ;0.6274368653671428;0.6327435280922628;0.6243981627782863;0.6187030943377816;0.6352416694739096;0.6503946473850577;0.649870065040188;0.6093744782702711;0.6101504661365813;0.6362306737536633
External Fragmentation Per Link;2;<9-8>; ;0.5832135322260715;0.6218640121922165;0.5927732612098944;0.6025393313321129;0.6210558889764012;0.6017650389652012;0.6393936058073522;0.6142727730434042;0.5878761313699785;0.6134895330059689
External Fragmentation Per Link;2;<12-13>; ;0.5988907318886382;0.611606752486288;0.5936362536721127;0.5755902872595369;0.6375628275064097;0.6277797651473026;0.6303305695782251;0.6041576063668064;0.6067028593358039;0.5967167978485715
External Fragmentation Per Link;2;<12-11>; ;0.6447700912838912;0.6610343939651775;0.6609169627060473;0.6428551850793389;0.6433052827905578;0.6555548399659284;0.6612489798729645;0.6624991306778177;0.6262598950671493;0.6554006283198159
External Fragmentation Per Link;2;<10-6>; ;0.5014894303211301;0.5168705917819556;0.5022085008476451;0.5180938881410407;0.5185909858933422;0.537597200902901;0.5288043934630245;0.5304412414368581;0.4987877342762788;0.507959618486283
External Fragmentation Per Link;2;<10-7>; ;0.5923103603794085;0.6143315905298425;0.6216713886988398;0.6072320812280338;0.6369010740195857;0.6365642741813067;0.6424910752751043;0.619770938566345;0.620034452308565;0.6045608801340417
External Fragmentation Per Link;2;<10-9>; ;0.5568351376225826;0.5787315229279761;0.5903549260718708;0.5780087765499118;0.5756393119992429;0.586128507889735;0.5839620204155812;0.5769865301677352;0.576852908290882;0.5676621493545323
External Fragmentation Per Link;2;<9-10>; ;0.5604968306768396;0.57449035914257;0.5779984401675046;0.5703109943029729;0.5870415292604984;0.5916190952395182;0.6013457832161097;0.5795116974826211;0.5590933054378626;0.575561150582793
External Fragmentation Per Link;2;<6-3>; ;0.47203846524014925;0.5014552716860464;0.4394528778607469;0.48156782617956934;0.49162228006944986;0.48123106588874615;0.49092033743083396;0.48343031979408074;0.4698131595774866;0.4687811005681848
External Fragmentation Per Link;2;<9-14>; ;0.6069192950203671;0.6225267364133116;0.6286303242253312;0.600760269273086;0.6100600250823505;0.6172657180112127;0.6095824390019312;0.6286847348655092;0.6338420659091275;0.6096117086151882
External Fragmentation Per Link;2;<1-8>; ;0.5780514376483772;0.562758550289629;0.5545868051538465;0.5696352892917996;0.5530016890752357;0.5583225401236601;0.5393107174047487;0.5620684297022821;0.5437754767151451;0.5845412713748958
External Fragmentation Per Link;2;<6-5>; ;0.4966362127091058;0.5070496640056933;0.5079924836659366;0.5060747288615705;0.5012229734901573;0.5170175698040961;0.5265962929681605;0.4987690061381923;0.48891717091500997;0.49416858178793993
External Fragmentation Per Link;2;<9-12>; ;0.638919354899202;0.6487216385391119;0.6598055847182056;0.6257650982649573;0.6505617000314962;0.6478097448348458;0.6667071715039878;0.6421916905255999;0.6376390383951007;0.659622474993438
External Fragmentation Per Link;2;<8-9>; ;0.6073450767495462;0.6065536073270087;0.6086505164052551;0.594612819018554;0.5844994930555208;0.6192217933710796;0.6090024370541621;0.6098856772880688;0.5813558782028342;0.6188165184827835
External Fragmentation Per Link;2;<7-5>; ;0.6017376761576815;0.634689400917815;0.6173101202851536;0.5976420043655725;0.6496225488471281;0.6428490580270496;0.6488105780076944;0.6380459122258875;0.6208149680997863;0.6307691833097193
External Fragmentation Per Link;2;<8-7>; ;0.6092946528813564;0.6233659571704856;0.6242273748017704;0.6127291304848644;0.6495099861599318;0.6248762589509534;0.6587035704361106;0.6388993648606267;0.6216433261532309;0.6243328854215409
External Fragmentation Per Link;2;<1-3>; ;0.41735381326769616;0.44545116374208477;0.44606089594737586;0.48868095046473903;0.3966905284615152;0.4380228860022572;0.4261828439704015;0.43451836500442;0.45183781743350077;0.4175866837041935
External Fragmentation Per Link;2;<11-14>; ;0.5925458204926859;0.5815290981668467;0.5757685969371721;0.5757539954612316;0.5866603446559108;0.5933392223019338;0.6115822610934977;0.6214038205471987;0.6073346657105018;0.6003314284306998
External Fragmentation Per Link;2;<1-2>; ;0.5838769874007801;0.5866430458915066;0.5963012505531069;0.6017789734656736;0.5910924549425078;0.5850464507503669;0.5924720904050426;0.5936320008755089;0.5912095292565893;0.588129442127859
External Fragmentation Per Link;3;<3-1>; ;0.4623946771180391;0.42056711673927555;0.47154284433392873;0.4774168069112462;0.4712396906556155;0.4330234164554202;0.4701899315495035;0.45836951959583233;0.45919264684431005;0.458795851316949
External Fragmentation Per Link;3;<5-4>; ;0.6227027855261367;0.6021169778034163;0.6189899438048544;0.6240348623695919;0.6109740113652988;0.6232128531525255;0.5943897796918803;0.6332079478672553;0.6330298695899655;0.6434243829042149
External Fragmentation Per Link;3;<2-4>; ;0.586433501096125;0.6278999105846914;0.6184750123917092;0.5822137137772069;0.6371497493950989;0.6120101098918349;0.5962513634907216;0.6092773950323862;0.6041232310222333;0.6067692893255996
External Fragmentation Per Link;3;<5-6>; ;0.505783473470781;0.5611336168853879;0.5475700121323089;0.5260719010825686;0.5451350215137151;0.5651813399412097;0.525144644360062;0.5569675707871987;0.5575227921053393;0.5331756225357459
External Fragmentation Per Link;3;<8-1>; ;0.6075276451106552;0.6132821792489092;0.6178186446741184;0.6240348452077802;0.6062820558471786;0.6200732423709218;0.6085334228795733;0.5947210601130241;0.6117304444197875;0.5979973533231722
External Fragmentation Per Link;3;<2-3>; ;0.5917347969858628;0.5901684132863776;0.5725904354357237;0.5802806590159009;0.6023871720929279;0.5906234384190044;0.5622494786259321;0.5647479612020435;0.5663490348661557;0.5692471939917586
External Fragmentation Per Link;3;<5-7>; ;0.6631799728127353;0.6884533322955577;0.6954023065635013;0.6828398340928973;0.7008853282096207;0.6742972907295841;0.675651464406015;0.679744632096931;0.6664250937560405;0.6775203101840999
External Fragmentation Per Link;3;<14-9>; ;0.6722381469577595;0.6608651507284388;0.6848731785554041;0.6506793606097446;0.6692985290731728;0.6436985891108754;0.6542737826390228;0.6517613932810713;0.6648977235034143;0.6488027016326062
External Fragmentation Per Link;3;<7-8>; ;0.6692962263893764;0.6990767571565946;0.7018306637189167;0.6861196623905725;0.6965633685257322;0.6688324187540778;0.6832595593778784;0.6774183587862741;0.6636372824855864;0.6868926012031922
External Fragmentation Per Link;3;<4-11>; ;0.5988811621427739;0.6211525189363654;0.6166981508226421;0.59580862512889;0.6359300106559581;0.6052007600661616;0.5824049231923977;0.6279089165715144;0.6075419534125915;0.5925556250012539
External Fragmentation Per Link;3;<4-2>; ;0.5985598220806754;0.6209334448799804;0.6422965877067764;0.62609414996371;0.6242978273757338;0.6081915530149518;0.612420914889334;0.6066416509942607;0.6380663611754945;0.6113072050992788
External Fragmentation Per Link;3;<3-6>; ;0.5130192022019904;0.5456937982722548;0.5429011501300074;0.5261793101439939;0.5588231968186776;0.5277071358205465;0.5166168637537806;0.5506461655707887;0.5035349863314756;0.5220746728368573
External Fragmentation Per Link;3;<4-5>; ;0.5968070391842867;0.611160926662551;0.6385449863856615;0.60442419039477;0.6531358879030152;0.6222980376680025;0.6094233180012628;0.6248747477782486;0.6295108977849271;0.6299891356419676
External Fragmentation Per Link;3;<13-6>; ;0.5407109540057627;0.528451256202405;0.5281128729449409;0.5280369611115961;0.5249810966657364;0.5352751244246639;0.4972721796726406;0.5095856338475027;0.4982914818008679;0.5281171219479877
External Fragmentation Per Link;3;<2-1>; ;0.6002067481051152;0.6137942090133927;0.6172577984312207;0.6141008859316295;0.6286321779990564;0.6155513229774391;0.6302092563698815;0.6157378200893483;0.631895810393942;0.6261223670593346
External Fragmentation Per Link;3;<3-2>; ;0.5696272593654155;0.5756493072949426;0.586875796596355;0.5604009723950317;0.592850920947759;0.5696200395512263;0.5836209334969231;0.6059878880411111;0.5579277741807505;0.5925518833523218
External Fragmentation Per Link;3;<13-12>; ;0.6725233426911165;0.670903071383857;0.6792709947914498;0.6753926897837007;0.6838953560040637;0.6646858069765887;0.6879359757681988;0.6597505980830606;0.6671633055702355;0.6686666115642913
External Fragmentation Per Link;3;<6-13>; ;0.5047845628895887;0.534370527245866;0.5570642422566491;0.5215084148629148;0.563483525267769;0.5433745500889456;0.5360595205335598;0.5356849032065264;0.5105161647057472;0.5357466806359904
External Fragmentation Per Link;3;<13-14>; ;0.5952589305525668;0.6242279131008059;0.6360773208241505;0.5933237346826616;0.6372379384315661;0.6231818967805508;0.5938503468586649;0.6150421814021199;0.6242944918548594;0.6098564069778251
External Fragmentation Per Link;3;<11-4>; ;0.6159788231914102;0.6354437765350446;0.6408586530252883;0.6238066992126449;0.6301735140630947;0.6382235628771762;0.6053775970762901;0.6160452126053173;0.6342120672704065;0.6282878055709294
External Fragmentation Per Link;3;<14-13>; ;0.5623141247733863;0.5873152657459344;0.5887336059493946;0.5960713863222022;0.6206829410051898;0.6271919095343969;0.5920720689074409;0.6147154080316942;0.5831830930131565;0.5967654658621797
External Fragmentation Per Link;3;<6-10>; ;0.5273083671805002;0.5858554173239562;0.5637357416830903;0.5607790547931311;0.5933938381634996;0.5735148698696985;0.5418317013535475;0.5683439742384898;0.554473256250515;0.546186165789171
External Fragmentation Per Link;3;<7-10>; ;0.6705535012685954;0.679828204639177;0.6678782951741302;0.6488085299859615;0.6846713794134157;0.651204572390569;0.670268871752855;0.6581873704194887;0.6537784140639111;0.6682118148190165
External Fragmentation Per Link;3;<12-9>; ;0.69883870069188;0.6910163451849175;0.719029205315442;0.7008695797395521;0.6841180182849944;0.6825573055443318;0.6800265629051437;0.6834250060871891;0.6811490790607078;0.67944451250606
External Fragmentation Per Link;3;<14-11>; ;0.6220944434122299;0.645520011207907;0.6556969397168514;0.636236480177936;0.6547078615309825;0.6566081423066485;0.6385812642149498;0.6373309375334502;0.6416110931246319;0.6556528070841061
External Fragmentation Per Link;3;<11-12>; ;0.6736807734042165;0.6672524264147771;0.6854531782222342;0.6664466345954498;0.6761490562018797;0.6626886518551421;0.6448368156234169;0.6747565581018922;0.6621938991722713;0.6576718632231155
External Fragmentation Per Link;3;<9-8>; ;0.6673768842580201;0.6774567954057619;0.6896858184176087;0.671136517073616;0.6560287940856915;0.6568494574075863;0.6524465229399311;0.6373494230437613;0.6620574331495314;0.6509907313935701
External Fragmentation Per Link;3;<12-13>; ;0.6364329628808518;0.6815981195177852;0.6594135517482826;0.6677056215847605;0.6564315519765572;0.6495111298727635;0.6391806621269599;0.6358949492581821;0.6351666865936101;0.6569595239151257
External Fragmentation Per Link;3;<12-11>; ;0.6699866728503576;0.6887999670819787;0.6901718638789149;0.6760291244196573;0.6876932374482766;0.6706119125347964;0.6855795367687253;0.6810362833845623;0.6865981702174802;0.6777663696606724
External Fragmentation Per Link;3;<10-6>; ;0.5449904262756035;0.5743358033794399;0.5609160377422143;0.5448993380516441;0.5321539829526039;0.5582778915193485;0.5299449579500505;0.5750185182319811;0.5532424245496952;0.5763561078252811
External Fragmentation Per Link;3;<10-7>; ;0.6765967115876262;0.6696991361507494;0.6805149793261742;0.6563700758845877;0.6589435487249896;0.6713865690447769;0.6663451056329625;0.6607575390171646;0.6609051296885222;0.6540581437571329
External Fragmentation Per Link;3;<10-9>; ;0.6079897119586927;0.6345731312988597;0.6160196941287607;0.6206473063772882;0.6507991476989862;0.6202762296835639;0.6206789265375041;0.6280376697362939;0.6285984383338585;0.6397163913427972
External Fragmentation Per Link;3;<9-10>; ;0.6509128497131063;0.626753251693999;0.6299156616583069;0.6140722840361574;0.6273042785447568;0.6387179648421175;0.6001933854201165;0.6372776291752349;0.6320514597098182;0.5992391605849309
External Fragmentation Per Link;3;<6-3>; ;0.5419094156337491;0.5567615819801552;0.5292460216593261;0.521320162654831;0.5191004665712178;0.5298027488938695;0.5059583339371692;0.523664706916881;0.5221428275596846;0.5408775191430364
External Fragmentation Per Link;3;<9-14>; ;0.667922587475323;0.6723287371697695;0.6637883308436104;0.6675676574506655;0.6811850004799127;0.65101794582366;0.6745284249369973;0.6474113218851172;0.6503807517462483;0.6538139664853149
External Fragmentation Per Link;3;<1-8>; ;0.5799118404940292;0.6057408569080331;0.6185042071212057;0.5752076049224152;0.6481295497820679;0.5999628899228158;0.6043973969310422;0.6028679356350751;0.6110319638539968;0.5912834965889818
External Fragmentation Per Link;3;<6-5>; ;0.5302595784262673;0.5553647106812131;0.5427641424302911;0.5435718536704253;0.500298956314803;0.5110824271441146;0.5033241432193873;0.5575324325180758;0.5269137445288341;0.5175237690062153
External Fragmentation Per Link;3;<9-12>; ;0.6625468707707799;0.7057816554406442;0.7032663316807972;0.699801974995365;0.7071071273366568;0.6888719170013426;0.6899760980375006;0.6832265999601393;0.6861992150385656;0.6827293184940021
External Fragmentation Per Link;3;<8-9>; ;0.6430383484495888;0.6771036032003227;0.6940241684706563;0.6683798379294228;0.689151878556914;0.6507220977532735;0.6604369353066746;0.6634031627066238;0.6568418801792709;0.6615148957167847
External Fragmentation Per Link;3;<7-5>; ;0.6792367812582261;0.67381297009715;0.6716312331446845;0.6713733225990749;0.6640712760596934;0.6762853202584596;0.658893911036465;0.6725627919334578;0.6718311823266766;0.6643383858423935
External Fragmentation Per Link;3;<8-7>; ;0.684854592898384;0.6932005521075196;0.6894553463549826;0.6715026155221664;0.6714247310664804;0.6828305678084036;0.6714844982723678;0.6603905009179931;0.6899662139168509;0.675734375776174
External Fragmentation Per Link;3;<1-3>; ;0.44408206194776095;0.4626480749915586;0.5058709007770917;0.4678806581506756;0.4730251322524483;0.4572461441983246;0.48425903877506804;0.48860505689170325;0.46674389320385484;0.46380308930167136
External Fragmentation Per Link;3;<11-14>; ;0.6373529306033789;0.641034047367428;0.6401014909952335;0.6282584637151751;0.6486632261138507;0.6240176803810856;0.6335700268164584;0.615735987418398;0.6229460449860409;0.6256421385257472
External Fragmentation Per Link;3;<1-2>; ;0.615324316110238;0.6015103213440889;0.6314277195837542;0.6297596239129252;0.6323942735870416;0.6210676316290664;0.6143204686401194;0.6287064948041962;0.6287680721806852;0.6121708923593414
External Fragmentation Per Link;4;<3-1>; ;0.5140323602206334;0.5025766732188321;0.46930802375945463;0.512424680916959;0.5018168825124627;0.5015106482434996;0.47780878010535666;0.5083557842042739;0.48281227293567763;0.5004837291326871
External Fragmentation Per Link;4;<5-4>; ;0.6531112601634194;0.6532510618901394;0.6729817536047262;0.6438686294360368;0.6547020677752082;0.6576763396861103;0.6756171682527414;0.6509158428772417;0.6480596840996594;0.6546303760606802
External Fragmentation Per Link;4;<2-4>; ;0.6686983943194033;0.6536560249606612;0.6460170943003519;0.6659742302203792;0.6595518771578593;0.6636999708847875;0.6588839998765608;0.6724552588818081;0.6472148298764866;0.6612453305009927
External Fragmentation Per Link;4;<5-6>; ;0.6002526977917235;0.587371405577962;0.5924885445140401;0.6167018974886068;0.5735770318670502;0.5539620356435259;0.5704068790505396;0.5649103682386226;0.5937153440699408;0.5728465835680435
External Fragmentation Per Link;4;<8-1>; ;0.6629235560312438;0.6358988020288366;0.6655479983679344;0.6556121435202316;0.6578780853922488;0.6335025693221675;0.6592278373709028;0.6696660010257005;0.6675527320720331;0.6839286039891561
External Fragmentation Per Link;4;<2-3>; ;0.6197691641031138;0.6191595563180513;0.6371566101705123;0.6216797787271763;0.6007762513662503;0.6306692189640466;0.579717463536696;0.6220213125898586;0.6265523240069913;0.622491953560071
External Fragmentation Per Link;4;<5-7>; ;0.711624249963437;0.7221300084588989;0.7097668213339593;0.7100577577230139;0.7131224739253341;0.727869103796586;0.720393658826407;0.7029289136926128;0.7084046552109564;0.7128671729739643
External Fragmentation Per Link;4;<14-9>; ;0.7040386772268753;0.6961962225802686;0.6907137443503725;0.6891646614355549;0.7016191939751392;0.6981902084714342;0.6895806252838039;0.708078920793757;0.700349638501284;0.6771856977113473
External Fragmentation Per Link;4;<7-8>; ;0.7071238040530368;0.7044512749906882;0.7050629291165815;0.7104249979863925;0.7045969204305834;0.709796700366909;0.7041583998521198;0.7286418936881408;0.7104016613359785;0.701990926580004
External Fragmentation Per Link;4;<4-11>; ;0.6604887397480944;0.6466188496790627;0.6466992741509118;0.6466721706162851;0.6576518727495302;0.658216417560559;0.6562732881314082;0.6884718992111803;0.6431963879373248;0.672083863810903
External Fragmentation Per Link;4;<4-2>; ;0.6704788556569456;0.6744810865132502;0.6519401270691597;0.6732067018195876;0.6723085338363389;0.6594788430284276;0.6521321758970436;0.6647331004519687;0.6805665297450658;0.6607404686877304
External Fragmentation Per Link;4;<3-6>; ;0.5748328704857646;0.5902891032286072;0.5633846707539879;0.5726411181938497;0.5832786011084627;0.6164538976125233;0.5815043252564738;0.5935020563238528;0.6049152279458546;0.5958264834001248
External Fragmentation Per Link;4;<4-5>; ;0.6469839852351841;0.6549757139062533;0.6560947574379155;0.6700042600707626;0.6609870554930188;0.6621805112058442;0.6494269634344068;0.6648201602771707;0.6496264189838439;0.6641510465354391
External Fragmentation Per Link;4;<13-6>; ;0.5660948200953728;0.5334373310916053;0.5327975742349286;0.5585164517129776;0.5781122409397854;0.5701189343746442;0.5592385316817001;0.5584758544228827;0.5807821863204652;0.5975978828365437
External Fragmentation Per Link;4;<2-1>; ;0.6625375958046831;0.6408810659820856;0.6474529270074931;0.6457293565567955;0.6280695692300247;0.6433979236155929;0.6618017565721299;0.6368956829063461;0.6311768357289228;0.6283317668698696
External Fragmentation Per Link;4;<3-2>; ;0.629092376287306;0.5837592536863921;0.6318476787754765;0.6120731265999847;0.625171556575685;0.6055264449327739;0.5958444542430577;0.6237131934948497;0.6060442311687456;0.6168085582661166
External Fragmentation Per Link;4;<13-12>; ;0.6891699278722627;0.7110729280431333;0.6718031966522247;0.6846367816338569;0.6896654174627708;0.6905081094835502;0.6914031451412317;0.7046135529883358;0.7033481705045843;0.6980734438739201
External Fragmentation Per Link;4;<6-13>; ;0.5522912451770369;0.5760835335466217;0.5621884182085696;0.5959303943632457;0.5954164463337377;0.6170024711722369;0.5790001310343794;0.5870659489724036;0.5603360408941938;0.5827247576597193
External Fragmentation Per Link;4;<13-14>; ;0.6447106473770005;0.6721427639783503;0.6539362983069428;0.6500698775265393;0.6698452894431721;0.660919046148229;0.6480109471810015;0.6485218058404468;0.6585781237914545;0.6402998510022899
External Fragmentation Per Link;4;<11-4>; ;0.6881245783238101;0.6711136775886923;0.6616176363337367;0.6860305146706334;0.6854768239475428;0.6754328890578667;0.6598530433929785;0.6653004512542547;0.6979687688087391;0.6674965412199401
External Fragmentation Per Link;4;<14-13>; ;0.6344887628470333;0.6474492769595982;0.6162527724049499;0.6060997488286896;0.6497444324235705;0.6303084628736335;0.6229907822044775;0.6244697821318824;0.6311929460294583;0.6304219742779079
External Fragmentation Per Link;4;<6-10>; ;0.598158219907011;0.6056317950970151;0.6101570044382435;0.6207521899017959;0.6088247554132994;0.634232581973291;0.601005466876159;0.5962656628681066;0.624262191057631;0.6233428061911241
External Fragmentation Per Link;4;<7-10>; ;0.6955196805070151;0.706932533151552;0.7109659494050466;0.7045046942522291;0.6962459982174645;0.7047626230386963;0.702391702590269;0.7002496633992145;0.6706649562450182;0.6953799969032516
External Fragmentation Per Link;4;<12-9>; ;0.7179598729801228;0.7241335144228542;0.7077502774081899;0.7134838521693343;0.7195063276864775;0.7064075165044572;0.7024382820661984;0.7301765976909318;0.7271482078592729;0.7118209582453313
External Fragmentation Per Link;4;<14-11>; ;0.6794061086891028;0.673683170135705;0.6547227442480404;0.6790766967247434;0.6986643654086708;0.6708481727953396;0.6747925204831007;0.6622712350773184;0.6805837061694878;0.6684557251297378
External Fragmentation Per Link;4;<11-12>; ;0.6923718429155026;0.6910799516181166;0.7021406408235283;0.6970399710688705;0.6926105705250946;0.7083240243618669;0.710490466472124;0.7026108603725562;0.685795560211473;0.6931327419158687
External Fragmentation Per Link;4;<9-8>; ;0.7182588601336759;0.710154883455453;0.714784926197751;0.694466562501806;0.7216158758343026;0.6869483058226058;0.7044223968746177;0.7062929001368223;0.7202298445357538;0.7065673752600112
External Fragmentation Per Link;4;<12-13>; ;0.6879271987255184;0.6847537470947844;0.6709982544770955;0.6813861850809002;0.6855548355163585;0.6837502705665298;0.6795187167586026;0.6873255014616707;0.6825524079019127;0.6768738385708637
External Fragmentation Per Link;4;<12-11>; ;0.6983793547284693;0.6998757290046795;0.6988949283448898;0.7053888684433385;0.6860877554518491;0.6964797634824715;0.7036450274142554;0.700545479463913;0.7023318623839382;0.713180104465077
External Fragmentation Per Link;4;<10-6>; ;0.5633016692066416;0.5791439614216629;0.5994826915625143;0.5683564715529905;0.5816350901047806;0.58346362002981;0.5717301115460836;0.5767769908136705;0.5899844632285468;0.5852545692809306
External Fragmentation Per Link;4;<10-7>; ;0.7094876569529233;0.6829973131330918;0.7145913660955621;0.6972118693690589;0.7048216803079397;0.7051100674331555;0.6992630859554089;0.6967673366209759;0.7156420532082688;0.7058564742664679
External Fragmentation Per Link;4;<10-9>; ;0.6797082855016634;0.6855312026710575;0.6802299482514161;0.6903917225133712;0.6811764650847524;0.6834109164396451;0.6878068747716705;0.6768676246963723;0.6607173020582353;0.6825435232239614
External Fragmentation Per Link;4;<9-10>; ;0.6695731078454307;0.6730487366851947;0.6920683899546966;0.6666376042085849;0.6715623683155633;0.6749159946812339;0.6681581117424532;0.677315167626932;0.6984534983747895;0.6562675969342735
External Fragmentation Per Link;4;<6-3>; ;0.5730507826443425;0.5529726704903448;0.5730018674185112;0.5651092380032559;0.5882747660563774;0.5559522617201399;0.5436818224672104;0.5730021734773768;0.578595443435341;0.588957960051988
External Fragmentation Per Link;4;<9-14>; ;0.6878282525417804;0.7139843574711;0.6821337500133998;0.6658668287914521;0.7199465640959368;0.6856558665988367;0.7023061373265375;0.7000782540639726;0.6696522119018831;0.6954939040699182
External Fragmentation Per Link;4;<1-8>; ;0.6591339081059449;0.6252485862601895;0.6390630439576793;0.6643645084640797;0.6330985768093484;0.6811462530773295;0.6453711939076614;0.6504512236491383;0.6210623963788556;0.6303155397428067
External Fragmentation Per Link;4;<6-5>; ;0.601166660795276;0.5771370973252539;0.5759502940760598;0.5469338458823821;0.5743174149960653;0.5862819072934777;0.591312331025909;0.5510262443980763;0.5659323812306568;0.569605036427674
External Fragmentation Per Link;4;<9-12>; ;0.7296896241859466;0.732866928629985;0.7230165830106586;0.7161155098397755;0.729379711960514;0.7141324252272602;0.7199291935838678;0.7191538611027808;0.7163579038228202;0.6938524413094271
External Fragmentation Per Link;4;<8-9>; ;0.7190739603711267;0.7147195880531187;0.7084172206481474;0.6915448218681778;0.7194992494212575;0.7133442486257265;0.7255648895417102;0.7381513880685656;0.6967286326841334;0.6755268915428895
External Fragmentation Per Link;4;<7-5>; ;0.6855180096157877;0.7095153678228995;0.7150519624683335;0.7109374549194732;0.714867532727865;0.7139188657564309;0.7203053431771453;0.7080450426243912;0.7258225871888789;0.700955380452511
External Fragmentation Per Link;4;<8-7>; ;0.6973493182936626;0.6977491449520148;0.7076304547592459;0.7047652889851385;0.709681492625894;0.708856367634735;0.7125905684467101;0.7021370405083008;0.7073587091597335;0.6887130500403051
External Fragmentation Per Link;4;<1-3>; ;0.48508869477315064;0.4814595408661852;0.5101351818340923;0.49720078612796725;0.4962251201458396;0.468189780255135;0.477128667761093;0.5033265081565788;0.4738359169877934;0.45887325549249863
External Fragmentation Per Link;4;<11-14>; ;0.6609469002990346;0.6700795505750449;0.6382658465703002;0.6423159512645876;0.6721329150942141;0.6570977335478347;0.6647327842076357;0.6528721308695511;0.6625359744798993;0.6604919751429892
External Fragmentation Per Link;4;<1-2>; ;0.6591017483967357;0.6492051033861508;0.6500487408313512;0.6435174920511322;0.6447721171962567;0.6693210910822524;0.623533562724332;0.6333851032694594;0.6454397462519279;0.6575972008764114
External Fragmentation Per Link;5;<3-1>; ;0.52315955695733;0.5202210666116526;0.4874358019281383;0.5287992275719912;0.49111238450350586;0.5006542491323117;0.4778380232046652;0.5355209201490362;0.48264799929483826;0.5186636911295268
External Fragmentation Per Link;5;<5-4>; ;0.6550096591497876;0.6734453626004309;0.6621073728341671;0.6755162487561134;0.681553702985317;0.6702422232906747;0.6693380169745157;0.7076529848625769;0.6970682964457038;0.6862343634253015
External Fragmentation Per Link;5;<2-4>; ;0.6848390234423563;0.6913920843733561;0.6783140522792298;0.6962812935831849;0.6933110109239696;0.6912317763245136;0.7027118114935477;0.6800145497302992;0.6613543315684477;0.6844665460269412
External Fragmentation Per Link;5;<5-6>; ;0.6225029030592059;0.5994219542657233;0.5895999590454536;0.5924230392531413;0.612940338381557;0.5989206467679207;0.622630492341831;0.5970903171905704;0.6110673625784213;0.5942797713801107
External Fragmentation Per Link;5;<8-1>; ;0.6589777873134435;0.6629043965592293;0.6809678597650402;0.6815126153721028;0.6707273012087398;0.6728379054841062;0.6701988360562334;0.7015746762973596;0.7045816890450807;0.6764157193653622
External Fragmentation Per Link;5;<2-3>; ;0.6474084603451236;0.6449973696420679;0.6245902554296084;0.6452030752049401;0.6304017034081586;0.6279076839747071;0.6452995121909681;0.659754142025862;0.6549807191287222;0.66071031516176
External Fragmentation Per Link;5;<5-7>; ;0.7428381690551416;0.7241047493766875;0.725739812941329;0.7316635194493211;0.7361013589907096;0.7302065605457143;0.7346409179839353;0.7336359260543792;0.7313648768306308;0.7321178467864674
External Fragmentation Per Link;5;<14-9>; ;0.7129895976487793;0.7238826886666965;0.7190914649025285;0.7082904245784577;0.7241102812256647;0.7188382897956068;0.6958849991004715;0.7191643845138181;0.7116162380955003;0.707406917734894
External Fragmentation Per Link;5;<7-8>; ;0.7486710778413812;0.7275733553035246;0.7221905883422308;0.7312580528727037;0.7183923004063506;0.7244140131225006;0.7279312086656632;0.7210477993279555;0.7322868310220487;0.7334311381310319
External Fragmentation Per Link;5;<4-11>; ;0.6769380766919992;0.6789055180361786;0.6913725240755938;0.6866567435466756;0.6976344114578473;0.7000115350019527;0.6847673391444369;0.6829030259517351;0.6508065505397428;0.6808081333584287
External Fragmentation Per Link;5;<4-2>; ;0.7036781550879512;0.7110742198062892;0.6856825167007905;0.6859576370943574;0.6824648656940552;0.7019560503484253;0.6958476723201953;0.7005445808815027;0.6974019042790668;0.7025295640082454
External Fragmentation Per Link;5;<3-6>; ;0.6332944787538447;0.5924639958021792;0.6269350003610699;0.640200590912798;0.6009971842170689;0.6126193940323142;0.6112477553447886;0.6232492936657907;0.6549165145995492;0.6041428787871947
External Fragmentation Per Link;5;<4-5>; ;0.6927364182157355;0.6880307596435754;0.6897683872311465;0.6805581383398966;0.6952909578945745;0.6950138210247441;0.6920855753094686;0.6975585796751095;0.6508830570986069;0.6824083037431615
External Fragmentation Per Link;5;<13-6>; ;0.5875704814516333;0.60879874795444;0.589799256484543;0.6364770092646798;0.6199360305581217;0.620679982432911;0.5731400296438849;0.6046458678734182;0.6008959432443588;0.6171670391874944
External Fragmentation Per Link;5;<2-1>; ;0.6576449832896245;0.6633715885283622;0.653496313577611;0.6767295641125728;0.670039657128959;0.6577854675041193;0.6434167777374054;0.66400526374071;0.662750631599136;0.6680240184797528
External Fragmentation Per Link;5;<3-2>; ;0.6387496898726388;0.631338018328176;0.6298815586842713;0.6679067388260729;0.6739039507796214;0.6489779380866603;0.6490181144432711;0.6722160856579797;0.6410061013865523;0.626592043383881
External Fragmentation Per Link;5;<13-12>; ;0.7156443767957414;0.725335017676161;0.716278118341873;0.7265256060590338;0.7066869829705018;0.7116688563119432;0.7145282903368121;0.7281294872759879;0.7245236213783348;0.7189631421675975
External Fragmentation Per Link;5;<6-13>; ;0.6326389464934423;0.6006153621980967;0.6213292737608084;0.6264342618177705;0.6049177585531554;0.6208147665908321;0.601408623874078;0.5934313797525997;0.6248221992269922;0.5986612830742443
External Fragmentation Per Link;5;<13-14>; ;0.6793392556564972;0.6622956743530234;0.6608549830214656;0.6782088464053353;0.6977196845000653;0.6606624904788382;0.6711989224069111;0.6758134116980096;0.6621944046610028;0.6605168878457124
External Fragmentation Per Link;5;<11-4>; ;0.7080270263831991;0.7193450769613686;0.6892945809272989;0.7071209281041596;0.7080831437095869;0.713465708712936;0.6925699295049571;0.7074630306763695;0.7043552597957083;0.7202569348781493
External Fragmentation Per Link;5;<14-13>; ;0.6758704091343878;0.6602206580837272;0.6695610251693451;0.666720620977991;0.6593950434149275;0.6328391971095962;0.6471944846948612;0.6602385904021967;0.6450179377075557;0.6211973073132576
External Fragmentation Per Link;5;<6-10>; ;0.620576950454479;0.6121864901291003;0.639305452346346;0.6468499064729343;0.6400822523468427;0.6202651465172928;0.6319704898991456;0.6351754856941444;0.6293494945372231;0.6343919787454115
External Fragmentation Per Link;5;<7-10>; ;0.7386594948439855;0.7195082103828183;0.7315855886378355;0.7289702412574525;0.7239328581341452;0.7192628027205212;0.7265670454058961;0.7277871077282198;0.7233474714217114;0.7121777823028677
External Fragmentation Per Link;5;<12-9>; ;0.7484484729562537;0.7328875555442841;0.7424479759197842;0.7431442189398231;0.742603005215595;0.7304981661166768;0.7502684502610936;0.7372616756811783;0.7558676934469016;0.7399622167746095
External Fragmentation Per Link;5;<14-11>; ;0.7137644687082609;0.6902655215154956;0.6918124955460578;0.6840314812006504;0.6950851958362819;0.701338086968883;0.6749320842660098;0.6925934268926948;0.6885696402070298;0.6928667893294839
External Fragmentation Per Link;5;<11-12>; ;0.709600231061849;0.7036966363629782;0.6910322788437006;0.6940329666731688;0.717334666408908;0.7017731366321338;0.7047206779270198;0.7000177735410167;0.7092464370725056;0.722153678537864
External Fragmentation Per Link;5;<9-8>; ;0.7420872050867308;0.7235997860180601;0.7401658774375536;0.7238131285619992;0.7361794823793152;0.7296792324642535;0.743180503114159;0.7393114980340594;0.7384783098575659;0.7390051004482744
External Fragmentation Per Link;5;<12-13>; ;0.7242644209202312;0.7007127087322755;0.6920998682976025;0.7108150274404804;0.7167845288251673;0.6908539691643404;0.6922066284201244;0.7127674720653059;0.7052531217508308;0.7225507940682896
External Fragmentation Per Link;5;<12-11>; ;0.7030037599215627;0.7179736694851258;0.7271823426252382;0.7306436811456903;0.7097550418683997;0.7217073052094034;0.722894727097082;0.7113265821148604;0.7155387146904238;0.7281757770524615
External Fragmentation Per Link;5;<10-6>; ;0.6473892133378403;0.6329349953071312;0.6117020243617256;0.6258005143352378;0.6436468065385977;0.6259304732923301;0.6211901726542592;0.6390614696865466;0.6208012034549412;0.6273114464387023
External Fragmentation Per Link;5;<10-7>; ;0.7248242212538795;0.7196581214200346;0.7272572637787706;0.7300665151630159;0.7268105574575413;0.7167962144526662;0.7206717145433513;0.7239285120931361;0.7293052655958036;0.7329966977089221
External Fragmentation Per Link;5;<10-9>; ;0.7182899937550521;0.6789344474873001;0.7120312527244101;0.7094727801772795;0.7226807110635531;0.6827497443806574;0.6954013957684851;0.6993414612078485;0.7111711773387356;0.7005917526975294
External Fragmentation Per Link;5;<9-10>; ;0.7054725896417006;0.6859797816893203;0.6937594587757397;0.7041358219034739;0.7174586843151967;0.7042017283214596;0.7073252717101925;0.7065374952839111;0.7096934896448083;0.7212151720777573
External Fragmentation Per Link;5;<6-3>; ;0.6323795760725928;0.6319012415691795;0.6065164459938804;0.6315461139746885;0.648539227346243;0.6297890942675516;0.6286844677271147;0.6287892150495015;0.6344473076981825;0.61782686526953
External Fragmentation Per Link;5;<9-14>; ;0.7202571465317171;0.7160093460273507;0.7040409711885228;0.7193850236183537;0.7176504745373352;0.7034938891425605;0.7115283191754652;0.7098878464374251;0.7087053861478985;0.707788874631957
External Fragmentation Per Link;5;<1-8>; ;0.6837003422537316;0.671396387886815;0.6599854645972966;0.6733997098484202;0.6769814100131533;0.6832820996111865;0.6880346026732971;0.6847665361732863;0.6569643228043848;0.6633128447705822
External Fragmentation Per Link;5;<6-5>; ;0.5799822935116599;0.5887341679447703;0.5891053568515173;0.6131808657932836;0.5781484075953165;0.6170983605803637;0.5878977252530355;0.6108492500742119;0.5811945164149018;0.6251648682759013
External Fragmentation Per Link;5;<9-12>; ;0.735655647742697;0.7416894793753654;0.7419407327100737;0.735013407846153;0.7392203394966482;0.7315574730190832;0.7361685592935647;0.7435746394396111;0.7407440222241798;0.7434158798181711
External Fragmentation Per Link;5;<8-9>; ;0.7500258020111696;0.7388981452763371;0.7329892377040925;0.7356141317970742;0.7318541684420301;0.7258707736185578;0.733021952091979;0.7340080528101746;0.7178372321431787;0.7181111556304006
External Fragmentation Per Link;5;<7-5>; ;0.7283000303873005;0.7432355001900218;0.7242122038032124;0.7323142009254137;0.7380992829174676;0.7194948595720487;0.7240970642067366;0.7351732204929312;0.7299841384604718;0.7371192044467636
External Fragmentation Per Link;5;<8-7>; ;0.7280909055501312;0.7125480538090309;0.702344973916413;0.7212876403893603;0.7279148636229646;0.7212685231661965;0.7196921287731193;0.7304478506207899;0.7193825788542624;0.7310982128482805
External Fragmentation Per Link;5;<1-3>; ;0.5282323002267086;0.497679949396765;0.5365629128881284;0.5167561250725413;0.4949834886670843;0.5001361776793509;0.5155684355619305;0.5200207420170793;0.49038603845728995;0.5131379300545698
External Fragmentation Per Link;5;<11-14>; ;0.7057593224107029;0.672523858793438;0.6609131568221459;0.6719955919507307;0.6730625651099132;0.6840034679021572;0.667082924538603;0.670654669546774;0.6697362971442623;0.6814004371201994
External Fragmentation Per Link;5;<1-2>; ;0.657626662383045;0.6503855844964387;0.6779687736300324;0.6390875311380527;0.6906416731039065;0.6828325714764178;0.6689431384319309;0.6747173252081987;0.674311739424449;0.6600452871307725
External Fragmentation Per Link;6;<3-1>; ;0.5048733010064255;0.5367968129020187;0.5348404745785281;0.5443608537530579;0.4960198153312302;0.5501688643803774;0.5420157742033267;0.5163333791250195;0.5356298483430783;0.5255895558250918
External Fragmentation Per Link;6;<5-4>; ;0.7045586287863128;0.710818835145203;0.706911432925764;0.7112975917770507;0.7045474486220711;0.6978929815783657;0.6985014488653902;0.699713839601933;0.7054239047020031;0.7200543717795463
External Fragmentation Per Link;6;<2-4>; ;0.7177671122135887;0.7148059962271641;0.7134095968227647;0.723229265930113;0.7036176424719488;0.7067583525999458;0.7102780595531581;0.7010084578514875;0.7030809595261313;0.7038499538206795
External Fragmentation Per Link;6;<5-6>; ;0.6139581403728848;0.6406020243751506;0.6431842507148549;0.6210447673256675;0.6450515016156566;0.6518315046202098;0.6454761620880636;0.6263477800700432;0.6427801600436204;0.6353085744373251
External Fragmentation Per Link;6;<8-1>; ;0.6910160932259195;0.694315662824469;0.6964692864886151;0.6988090648326881;0.7011552746173726;0.7071246552975909;0.6785613612131721;0.6751288801487635;0.720100985157279;0.680215017831935
External Fragmentation Per Link;6;<2-3>; ;0.6770730060443405;0.6835250879615042;0.6656069661874748;0.664263970706315;0.6728067564695391;0.6588370077921689;0.659632003984468;0.6759837069276422;0.6912656000629129;0.6727665154166067
External Fragmentation Per Link;6;<5-7>; ;0.7356314088030353;0.7391508210735276;0.7640817828938825;0.7630391769694851;0.7494788216570936;0.7511704856909402;0.7374774356768655;0.7422790039186038;0.745042065101201;0.7498137784833063
External Fragmentation Per Link;6;<14-9>; ;0.7180505585267902;0.7389932182671429;0.7349382746637338;0.7471795316697193;0.7358260584494667;0.7410694990460773;0.7473070394413528;0.7390446442606615;0.734606310769062;0.7225728482393335
External Fragmentation Per Link;6;<7-8>; ;0.7342814434348175;0.7430618026658787;0.7488214053533997;0.7415904348657866;0.7462355516868391;0.7382350118423177;0.7442250397842489;0.7466740704162829;0.7578568711373997;0.7375644454080692
External Fragmentation Per Link;6;<4-11>; ;0.717724991606972;0.7020498306619628;0.7168768955677545;0.7337491261147594;0.7048091384770718;0.713451857947821;0.712631940514196;0.7036790115940603;0.7169359926820327;0.7322961893698553
External Fragmentation Per Link;6;<4-2>; ;0.7332210483129;0.725053185449776;0.7325387600827594;0.7099811023506283;0.6958856512458391;0.7133787042820182;0.7171878749867705;0.697793267210401;0.7121808087540704;0.6954922419841201
External Fragmentation Per Link;6;<3-6>; ;0.6701789507297513;0.6774605628514536;0.6645586055004119;0.6867165035270496;0.6503361071896913;0.6844079838641416;0.6742954702122259;0.6759388748174714;0.6415517950170243;0.6509367230255694
External Fragmentation Per Link;6;<4-5>; ;0.6920911990626178;0.7150777903236352;0.7116638219860615;0.7130983139201409;0.7113191310156435;0.7086659985405519;0.6977738262018877;0.6983150693054754;0.7010483340122092;0.7070717823827356
External Fragmentation Per Link;6;<13-6>; ;0.6400719405221045;0.6334849406539889;0.6303765889970604;0.6338600038209694;0.6184400522471801;0.6564047801602854;0.6112733933965689;0.6435660276464263;0.6623650065841378;0.6576033004726897
External Fragmentation Per Link;6;<2-1>; ;0.6596727872816291;0.6530189106126697;0.6755918010278278;0.6706676172352606;0.6694660301726102;0.6651100468313834;0.6719524022154069;0.6588841910550737;0.6676943871691425;0.6762509893892021
External Fragmentation Per Link;6;<3-2>; ;0.6656437116602498;0.6694401273383437;0.6543027143391589;0.6997522055589692;0.6637339555666039;0.6690810872932789;0.6631961335169613;0.672310877561566;0.6666294142689896;0.6559593316527685
External Fragmentation Per Link;6;<13-12>; ;0.7248446383305982;0.7318937445924126;0.7316686506692444;0.7323328546320126;0.7251387683495039;0.7283234159977161;0.7269676170251753;0.7311632499202219;0.7215871202864436;0.716304076536552
External Fragmentation Per Link;6;<6-13>; ;0.6568818409157817;0.6540258437024937;0.6533381476413557;0.6533160803730219;0.641003151823212;0.6568324021010169;0.6408244076852261;0.6439037333245662;0.6402078462822954;0.6578608328205056
External Fragmentation Per Link;6;<13-14>; ;0.6814448998646006;0.7198293505523005;0.69200275027447;0.7098862041338282;0.6761925118632395;0.6774129600985848;0.6922050183284989;0.6791666537960023;0.7044343438725789;0.6925251588219463
External Fragmentation Per Link;6;<11-4>; ;0.7160881803908451;0.7293507241437199;0.7280597217642123;0.7279629694433312;0.6863856186713649;0.7226437245985096;0.7230123935711015;0.7074977108897152;0.7227798581164899;0.7028660910896198
External Fragmentation Per Link;6;<14-13>; ;0.6818628866507283;0.6573288302355486;0.6996840876823304;0.6705125949990638;0.6605654735881012;0.6678707216936627;0.6616153915006279;0.6867099652561676;0.6447105171577495;0.6771578795505127
External Fragmentation Per Link;6;<6-10>; ;0.6234047452723563;0.6732837827900309;0.6799592311907421;0.6631914961433318;0.6824055000885567;0.662792093396847;0.6703868180142314;0.6496227860763217;0.6506156642145761;0.6723646751081528
External Fragmentation Per Link;6;<7-10>; ;0.7425441735539914;0.7296545263730472;0.7398470250646474;0.7380046736321129;0.7542361020231323;0.7378270615454012;0.7439172558152853;0.7211931546340403;0.7335790177548761;0.7501274134578276
External Fragmentation Per Link;6;<12-9>; ;0.7544546335152298;0.7637522665450949;0.7483522021346607;0.7583484847051508;0.7433867391830873;0.7624339769792979;0.7472016056457236;0.7537284268080668;0.741401685520843;0.7601651027008549
External Fragmentation Per Link;6;<14-11>; ;0.7111548367192168;0.6998177105596984;0.7194416250656039;0.6998137627134722;0.6853874404600818;0.7013201746967402;0.7135637095444628;0.6995763901719951;0.7115122258671571;0.6950338055282865
External Fragmentation Per Link;6;<11-12>; ;0.7248681379926708;0.7352298881267347;0.7287043045714547;0.731660617844944;0.7206559245244363;0.7222584277996665;0.7388233980119857;0.7289298675685343;0.7161204640800449;0.7319653513630604
External Fragmentation Per Link;6;<9-8>; ;0.7399698556068575;0.7577849876686036;0.7563900153873787;0.7546504050263857;0.7419480206574043;0.7561015164644995;0.7353120420831202;0.7475721827368238;0.757486417345256;0.7511395668533967
External Fragmentation Per Link;6;<12-13>; ;0.7212705200422057;0.7095092943835896;0.7103710380939889;0.730232817660194;0.7133663863191281;0.6998105815744453;0.7258204081231258;0.7288149544237846;0.7076358970694336;0.7230281001618125
External Fragmentation Per Link;6;<12-11>; ;0.7224811679476593;0.7387152218426509;0.7427266310907914;0.7390105463445957;0.7047181282190161;0.737918692437397;0.7338291398302197;0.7271290228559645;0.7302834857135679;0.7330812727838726
External Fragmentation Per Link;6;<10-6>; ;0.6510067370722492;0.6667605708538891;0.6678151462721157;0.6746873854812534;0.6474262670525378;0.6511327485400324;0.6518609228828954;0.6585224594153394;0.6607456659357301;0.6630332469440471
External Fragmentation Per Link;6;<10-7>; ;0.7308616984615727;0.734815993130386;0.7327496045810744;0.7521743038121678;0.7393508861614079;0.7382400184093547;0.7450759708494126;0.7470520402698331;0.7533013673745583;0.734866789603427
External Fragmentation Per Link;6;<10-9>; ;0.7225062631227176;0.7240737799220851;0.7302353982236088;0.7288990986823692;0.7299291137241044;0.7129827953255664;0.7369977707286757;0.7257826612815034;0.7272796280202184;0.7349174930396054
External Fragmentation Per Link;6;<9-10>; ;0.6951520867212452;0.7242081314328469;0.7291349311671336;0.7406402417933527;0.7125616333084146;0.7313949043486865;0.7353775559366781;0.7238479556322706;0.7200721295514757;0.7377549413772868
External Fragmentation Per Link;6;<6-3>; ;0.6593275883724253;0.6634690833304557;0.6689461170007357;0.6618350911681314;0.6480805897787425;0.6769356543766676;0.6470712817763374;0.6510385829926947;0.6826368251910394;0.6863201830880109
External Fragmentation Per Link;6;<9-14>; ;0.7379156572411417;0.733233368226194;0.7302781455353115;0.7343957089977977;0.7321178707130913;0.7357225394501007;0.7287289855410264;0.7197549469239357;0.7315207598058667;0.7505924590781963
External Fragmentation Per Link;6;<1-8>; ;0.7066437528143042;0.6873053383704875;0.7159959194803166;0.6962566062209706;0.6900177705575701;0.6913048428425957;0.6700335524170286;0.6718665176891003;0.6879336496312964;0.715324075309297
External Fragmentation Per Link;6;<6-5>; ;0.6180095560244031;0.6472273060084809;0.638551538271835;0.6534165407750019;0.6440839193489309;0.6230595009333051;0.6428466115771718;0.6390644036419041;0.6629707381125138;0.6236020003137649
External Fragmentation Per Link;6;<9-12>; ;0.7535431258942915;0.756790995926812;0.7630229409893332;0.7378946604860522;0.7539381649385026;0.7435667714369055;0.7510869382605415;0.7552053361712197;0.7452263871026751;0.7506785659503569
External Fragmentation Per Link;6;<8-9>; ;0.743573681732429;0.7540642678064433;0.7528882345385236;0.7525338811421699;0.7395648118136637;0.7525163880037027;0.7472692138919518;0.7364718194372443;0.7532175993362316;0.7477261541214776
External Fragmentation Per Link;6;<7-5>; ;0.7522314874080503;0.7517842860944313;0.7431622866846401;0.7526664897961021;0.7343062845378301;0.7489120159604271;0.7337751619332837;0.7278317606677726;0.7397868965868762;0.7442344404989922
External Fragmentation Per Link;6;<8-7>; ;0.757051073046498;0.7406862728843946;0.7461453166005318;0.7356984227471076;0.7205052335822407;0.7357914341738049;0.7325735479315623;0.7338375899728494;0.7316405941937192;0.7458705805784446
External Fragmentation Per Link;6;<1-3>; ;0.5245261820135296;0.5088742726970503;0.5240738222970647;0.5435328658393743;0.5575310672104072;0.5372970541706527;0.5365693387908334;0.5026001660740641;0.51281692109013;0.5599363450471072
External Fragmentation Per Link;6;<11-14>; ;0.6869617781061237;0.703948970697195;0.6913919167801208;0.7089466144163624;0.6757846267494515;0.6963590223609395;0.6949825413497654;0.6844380167714539;0.6976706013873168;0.7025123526275636
External Fragmentation Per Link;6;<1-2>; ;0.6824718028372111;0.6873330185026401;0.6765993290013023;0.6467978858650284;0.6720045244779033;0.6889373441156247;0.6823423499243644;0.6396219231016737;0.6818252590587733;0.6881717230740861
External Fragmentation Per Link;7;<3-1>; ;0.5586254552369299;0.5317343649720828;0.555371874008882;0.539895603123356;0.545160146643905;0.5424914066698773;0.536694867141114;0.5186551351144554;0.5896335167620685;0.49862284550386154
External Fragmentation Per Link;7;<5-4>; ;0.727060437704025;0.6993560165335124;0.722396759120939;0.7285783733079186;0.7014159710601436;0.7110536767804999;0.7125312235388483;0.7200902895156637;0.7170077762925415;0.7198311489626734
External Fragmentation Per Link;7;<2-4>; ;0.7167419640245539;0.72843887997429;0.7215723086178487;0.7394255444172528;0.7290067399058382;0.7163591436346642;0.7293389760302785;0.7315144160212748;0.741878770101247;0.735262138851543
External Fragmentation Per Link;7;<5-6>; ;0.6592712287113682;0.679709663925709;0.6675674916511991;0.6587171947303314;0.6655003078707207;0.6606310834969051;0.6590127277655536;0.652722817434187;0.6553567226717395;0.6486898259196384
External Fragmentation Per Link;7;<8-1>; ;0.7215328158615392;0.7078442987864887;0.7000385903115258;0.7208754716908645;0.6930560191638123;0.7070407643232669;0.706494207695238;0.70890557167341;0.6992248710291249;0.694326019117304
External Fragmentation Per Link;7;<2-3>; ;0.7031287890508899;0.7070917760456953;0.6751771835844421;0.6958930854790227;0.7147528076593791;0.6909846747715731;0.6643773784622341;0.6972795882590739;0.6850121499603875;0.6953245784817255
External Fragmentation Per Link;7;<5-7>; ;0.7595270316188595;0.756947101030093;0.7645148930797416;0.7748086808765918;0.7407079583786783;0.7474577092147714;0.7694518028382182;0.7648523921842282;0.7601512630628539;0.755537695188644
External Fragmentation Per Link;7;<14-9>; ;0.7356444955081736;0.7498048429028931;0.7481520950464502;0.7217096444049039;0.7616003010467196;0.7339700352050978;0.738874132737862;0.7502464886464346;0.7513418867029121;0.7512409590863086
External Fragmentation Per Link;7;<7-8>; ;0.7712551790446491;0.7537608320006185;0.753349766784243;0.7512573765877197;0.7556219747767755;0.7456085277096937;0.7612951035426744;0.7464214251337841;0.7527777002018516;0.7467686052071186
External Fragmentation Per Link;7;<4-11>; ;0.7393279882021034;0.7382889382887385;0.7313515755172346;0.72629554513503;0.7464804068484906;0.734352204095174;0.7295937051863688;0.7369270025239959;0.7361205379778881;0.7408713177306951
External Fragmentation Per Link;7;<4-2>; ;0.7381553856120139;0.7201164399623404;0.7317763563045401;0.7364827074834499;0.7249855341983348;0.7332824770333933;0.7332067018842637;0.729110225263448;0.7442511136100276;0.7281049551875395
External Fragmentation Per Link;7;<3-6>; ;0.7020093135174419;0.6776451387962651;0.6984416673534292;0.7042609352257992;0.6822052367719575;0.7103204821622905;0.678878349845955;0.7163946837801312;0.6641642251617608;0.7001744133595402
External Fragmentation Per Link;7;<4-5>; ;0.7281017725184581;0.7198076420646208;0.7212635898874393;0.72746314235867;0.7206526753174489;0.7131818101326652;0.7299561449212907;0.7247666787224397;0.7225012991472168;0.73229752805431
External Fragmentation Per Link;7;<13-6>; ;0.6616698175974226;0.654924760233848;0.6475088643377193;0.6632561693719167;0.6825157883624605;0.6452901453031493;0.6622175246578448;0.6437785127015239;0.6779667230377296;0.6335376684113606
External Fragmentation Per Link;7;<2-1>; ;0.6784957971089085;0.6763939999143675;0.6987916982943818;0.6843920229243057;0.6686758901934646;0.6804579188571548;0.6830007407247758;0.6757026280490555;0.6925691888375763;0.7105649544433664
External Fragmentation Per Link;7;<3-2>; ;0.6876889309240114;0.6897667747206209;0.6716776298047348;0.7082460678986933;0.6830515870054188;0.6868853086190115;0.6895451000975026;0.6891310549141259;0.6752674332818572;0.6977372936592393
External Fragmentation Per Link;7;<13-12>; ;0.7327736312939658;0.7476266703759101;0.7545140152996882;0.7342722067615386;0.7383210039739808;0.7308052705309356;0.7262410350818955;0.750460016063683;0.726617309033245;0.7236827318846093
External Fragmentation Per Link;7;<6-13>; ;0.669764027555063;0.648999783314285;0.6943247479873521;0.673249609248445;0.6854026451532689;0.6929414392416591;0.6595007262488277;0.682798686215119;0.6757039205006684;0.6842878000262148
External Fragmentation Per Link;7;<13-14>; ;0.6984029929363589;0.7121862901191116;0.6951257258280181;0.6922943090323094;0.7197800516761708;0.6943487304243467;0.715891886474213;0.716667206520632;0.7153409638102082;0.711018064064963
External Fragmentation Per Link;7;<11-4>; ;0.7420452819086756;0.7256380016479163;0.7418028181847685;0.7428417613181273;0.7426037162970236;0.7382000349078647;0.738436673126421;0.7282677077249999;0.7405280002342706;0.7447352217767216
External Fragmentation Per Link;7;<14-13>; ;0.6872584449268742;0.6857568690639642;0.6919001375485917;0.6869546487257687;0.6930062240963513;0.6758863263662852;0.6868022216480894;0.6867072045867894;0.694439770201659;0.681886568486674
External Fragmentation Per Link;7;<6-10>; ;0.683457982395782;0.689153268628513;0.6926861156891334;0.6778408937488335;0.6651894173890965;0.6762135422684009;0.688113180084804;0.6696600266408437;0.6579376943225036;0.6486068948523301
External Fragmentation Per Link;7;<7-10>; ;0.7556730143460603;0.7438618272826726;0.7615858535636776;0.7365754256786592;0.7426951086345697;0.7523515007410286;0.742688392339508;0.7511732394173881;0.7448110891477296;0.7432827812418248
External Fragmentation Per Link;7;<12-9>; ;0.7590592786872814;0.7624643817312616;0.7661858481237085;0.7530388860641871;0.763309626415829;0.7656511561523072;0.7605926461569109;0.760172281362376;0.7703890263820778;0.7581213855607863
External Fragmentation Per Link;7;<14-11>; ;0.7181365823875494;0.7049561484721;0.713460999599801;0.7168013456775422;0.7128093980695522;0.7203946146731323;0.7053112869197411;0.7215328991831425;0.7228999848259866;0.7187549698761168
External Fragmentation Per Link;7;<11-12>; ;0.7255161227577733;0.7599706866140398;0.7399446527791361;0.7246703065022493;0.7476298441694225;0.7425048620888264;0.7338997884873519;0.7198251877352364;0.7429696853863705;0.7404702699689832
External Fragmentation Per Link;7;<9-8>; ;0.7513490083315577;0.7596287642972267;0.7563038984387409;0.7537365487408122;0.7605593441272703;0.7603474824496875;0.7624661727890805;0.7556020379300645;0.7642819891691727;0.7581047990768395
External Fragmentation Per Link;7;<12-13>; ;0.7391275563850407;0.7126888985418073;0.7320151220464314;0.7363274507413177;0.7275547635285142;0.731547063175145;0.7299932569994274;0.7172243702953564;0.7327893878020096;0.7315127106048417
External Fragmentation Per Link;7;<12-11>; ;0.7322378304101564;0.7418205620026279;0.7445865611950132;0.7428145634981529;0.7477150839093203;0.7351033864554974;0.7377669852462482;0.7427710705758821;0.7406817815546781;0.7460331856296659
External Fragmentation Per Link;7;<10-6>; ;0.6851865457401413;0.6812976549791059;0.6514937852412567;0.6587440594468226;0.6704657950377374;0.6707024617055888;0.6725595645766357;0.6856275941709448;0.6760176882063804;0.6818087680635817
External Fragmentation Per Link;7;<10-7>; ;0.7479013569052141;0.7552757822870935;0.7506745040669325;0.7402813465689745;0.7421553806378807;0.7415677486055486;0.7512515389233817;0.7536857348657162;0.7564729819639248;0.7506180084277249
External Fragmentation Per Link;7;<10-9>; ;0.7435249192910678;0.7327625639535903;0.7515196439710518;0.7451265892812101;0.7364592826787003;0.7451329279456024;0.7288029181390088;0.7370161692760424;0.7389413544693154;0.7332174435774528
External Fragmentation Per Link;7;<9-10>; ;0.7552343773710164;0.751264600892888;0.7411681849217826;0.7370716811544119;0.7492206448706561;0.7409522344977976;0.7371069802630151;0.7459413182209542;0.7482761108921627;0.7433944462978984
External Fragmentation Per Link;7;<6-3>; ;0.6794533001569524;0.6888981139160373;0.6927939488426581;0.697907855479933;0.6778274584314168;0.6742820820021915;0.6843831841151021;0.6790341138356869;0.6839735215704614;0.6772388523405478
External Fragmentation Per Link;7;<9-14>; ;0.7445440559271121;0.7336386060925909;0.7514112220324493;0.7537886726630131;0.7431403253519948;0.7439966781505277;0.732355606449789;0.7390894444671074;0.729350806472348;0.7301629263362767
External Fragmentation Per Link;7;<1-8>; ;0.7139021714676675;0.7027915087852954;0.7265012396447453;0.7158285803791465;0.7017504191786436;0.7243431361177689;0.7244641961252399;0.6934876198182288;0.721859564459668;0.6987115825208645
External Fragmentation Per Link;7;<6-5>; ;0.6698974530569163;0.6754795970242629;0.6083014596804608;0.6595868451728586;0.6443705180329554;0.6493339815359054;0.6852227583449234;0.6616460002062248;0.6597705604827072;0.647537876183161
External Fragmentation Per Link;7;<9-12>; ;0.7607837876958341;0.746981530150521;0.7694325417072401;0.7712455515189406;0.7582432794875199;0.7667566388470515;0.7570349759701162;0.757424885225056;0.7609695626859383;0.7633699985042637
External Fragmentation Per Link;7;<8-9>; ;0.7630138307368731;0.7538735352485624;0.7661750319678251;0.7529432250528002;0.7552468641349936;0.7598813673925247;0.7510382823389458;0.7628161189076132;0.7737189042725136;0.7618318336250557
External Fragmentation Per Link;7;<7-5>; ;0.7654047242926124;0.7415380759673483;0.7502619615471323;0.7572297715679845;0.7598713981789621;0.7430477509093013;0.7643334493187474;0.7695247992583825;0.7643424775082748;0.75086154980334
External Fragmentation Per Link;7;<8-7>; ;0.7575534459229938;0.7379240987523141;0.7477113781796915;0.7479905254177978;0.7611542027066529;0.7490348881291412;0.7532299679237652;0.7603122776649232;0.7642393123038793;0.7442954013463116
External Fragmentation Per Link;7;<1-3>; ;0.5608554489540059;0.5318721497441316;0.5212556332319889;0.551218884981197;0.5437368190748009;0.5616171364225565;0.5084474957402704;0.5594858086772645;0.5364091177521574;0.5608524336107826
External Fragmentation Per Link;7;<11-14>; ;0.7132839416535692;0.69536913205145;0.704334216122552;0.7025309779472868;0.7030816429796405;0.7109752381238813;0.7070115502796441;0.7167868044593325;0.7243597465876472;0.7185694905850933
External Fragmentation Per Link;7;<1-2>; ;0.6775014142658415;0.6760623660927135;0.6926037609641027;0.6856401919440432;0.6796737345423723;0.7055062322523286;0.677850502033035;0.7059057037256127;0.6816093973544441;0.68535869004458


